MOT u0 be/aux you/pro ready/vb to/inf take/vb them/pro out/n ?/? 
CHI u1 yeah/int ./. 
CHI u2 a/det book/n ./. 
MOT u3 yeah/int ./. 
MOT u4 you/pro want/vb to/inf look/vb at/pre this/det book/n with/pre me/pro ?/? 
CHI u5 hi/int ./. 
INV u6 hi/int ./. 
INV u7 
MOT u8 do/vb you/pro want/vb to/inf look/vb at/pre this/det book/n ?/? 
MOT u9 here/loc ./. 
MOT u10 what/pro be/cop this/pro ?/? 
MOT u11 I/pro want/vb you/pro to/inf look/vb at/pre this/pro because/sub this/pro be/cop something/idf you/pro will/mod recognize/vb ./. 
MOT u12 do/mod you/pro know/vb what/pro that/pro be/cop if/sub I/pro tell/vb you/pro that/det name/n ?/? 
CHI u13 yeah/int ./. 
MOT u14 it/pro be/cop a/det eagle/n ./. 
MOT u15 do/mod you/pro see/vb a/det eagle/n ?/? 
CHI u16 up/loc ./. 
CHI u17 what/pro be/cop that/pro ?/? 
MOT u18 that/pro be/cop a/det guitar/n but/sub I/pro be/aux ask-PROG/prt you/pro if/sub you/pro see/vbd a/det eagle/n with/pre grandma/n Lastname/n-pr last/adj week_end/n ./. 
MOT u19 you/pro do/mod not/neg remember/vb ?/? 
CHI u20 oh/int ./. 
MOT u21 what/pro be/cop that/pro ?/? 
CHI u22 a/det pumpkin/n ./. 
MOT u23 that/pro be/cop right/adj ./. 
CHI u24 those/pro ./. 
MOT u25 what/pro be/cop that/pro ?/? 
CHI u26 a/det hamburger/n ./. 
CHI u27 and/coo that/pro ?/? 
MOT u28 a/det hot_dog/n ./. 
MOT u29 do/mod you/pro ever/adv have/vb a/det hot_dog/n ?/? 
CHI u30 yes/int ./. 
MOT u31 come/vb let/vb us/pro look/vb at/pre this/det book/n ./. 
MOT u32 sit/vb down/pre next/adv to/pre me/pro ./. 
MOT u33 come/vb ./. 
MOT u34 sit/vb next/adv to/pre me/pro ./. 
MOT u35 let/vb us/pro look/vb at/pre all/qnt these/det thing-PL/n ./. 
CHI u36 sit/vb ./. 
CHI u37 sit/vb down/loc ./. 
MOT u38 oh/int okay/int ./. 
MOT u39 shall/mod we/pro open/vb this/det book/n ?/? 
CHI u40 yeah/int ./. 
MOT u41 okay/int ./. 
CHI u42 no/int not/neg ./. 
MOT u43 no/int not/neg now/adv ?/? 
CHI u44 a/det giraffe/n ./. 
MOT u45 yeah/int ./. 
CHI u46 oo/int those/pro ?/? 
MOT u47 that/pro be/cop a/det traffic+light/n ./. 
MOT u48 you/pro recognize/vb that/pro when/sub we/pro drive/vb to/pre school/n ?/? 
MOT u49 do/mod momma/n-pr stop/vb at/pre the/det traffic/n light-PL/n ?/? 
MOT u50 and/coo where/adv else/psq do/mod I/pro stop/vb ?/? 
MOT u51 at/pre the/det -/- 
CHI u52 yeah/int ./. 
MOT u53 what/pro be/cop that/pro ?/? 
CHI u54 yeah/int ./. 
MOT u55 a/det -/- 
CHI u56 stop/n sign/n ./. 
MOT u57 stop+sign/n ./. 
MOT u58 what/pro be/cop that/pro ?/? 
CHI u59 yeah/int ./. 
CHI u60 what/pro that/pro ?/? 
MOT u61 that/pro be/cop a/det nail/n ./. 
MOT u62 a/det nail/n or/coo a/det screw/n ./. 
MOT u63 we/pro will/mod we/pro will/mod let/vbo the/det machine/n pick/vb up/pre that/det telephone/n for/pre us/pro ./. 
MOT u64 what/pro be/cop these/pro ?/? 
CHI u65 color-PL/n ./. 
MOT u66 right/adj ./. 
MOT u67 what/pro color/n be/cop that/pro ?/? 
CHI u68 orange/adj ./. 
MOT u69 what/pro be/cop that/pro ?/? 
CHI u70 a/det carrot/n ./. 
MOT u71 and/coo do/mod you/pro recognize/vb these/pro ?/? 
CHI u72 yeah/int ./. 
CHI u73 cherry-PL/n ./. 
MOT u74 look/vb ./. 
MOT u75 that/pro be/cop the/det machine/n ./. 
MOT u76 you/pro hear/vb that/pro ?/? 
MOT u77 what/pro about/pre this/det color/n ?/? 
MOT u78 what/pro about/pre that/det color/n ?/? 
CHI u79 pea-PL/n ./. 
CHI u80 pea-PL/n ./. 
CHI u81 pea-PL/n ./. 
MOT u82 pea-PL/n ./. 
MOT u83 what/pro about/pre this/det color/n ?/? 
MOT u84 I/pro do/mod not/neg know/vb if/sub you/pro know/vb that/pro ./. 
CHI u85 purple/adj ./. 
MOT u86 and/coo do/vb you/pro know/vb what/pro those/pro be/cop ?/? 
CHI u87 yeah/int ./. 
MOT u88 it/pro be/cop a/det kind/n of/pre fruit/n ./. 
CHI u89 fruit/n ?/? 
MOT u90 plum-PL/n ./. 
MOT u91 those/pro be/cop plum-PL/n ./. 
CHI u92 and/coo a/det pine+cone/n -/- 
MOT u93 yeah/int what/pro color/n be/cop that/det pine+cone/n ?/? 
CHI u94 yeah/int ./. 
CHI u95 what/pro color/n ?/? 
MOT u96 it/pro be/cop brown/adj ./. 
MOT u97 do/mod you/pro recognize/vb brown/adj ?/? 
MOT u98 no/int ?/? 
MOT u99 what/pro about/pre this/pro ?/? 
MOT u100 what/pro be/cop that/pro ?/? 
CHI u101 yeah/int ./. 
MOT u102 a/det bunny/n -/- 
MOT u103 okay/int ./. 
MOT u104 let/vb us/pro go/vb on/pre ./. 
MOT u105 let/vb us/pro look/vb at/pre some/qnt more/qnt picture-PL/n ./. 
MOT u106 what/pro be/cop what/pro be/cop that/pro ?/? 
CHI u107 yeah/int ./. 
MOT u108 be/cop that/pro a/det -/- 
CHI u109 boy/n ?/? 
MOT u110 no/int ./. 
MOT u111 be/cop that/pro a/det -/- 
CHI u112 girl/n ?/? 
MOT u113 yes/int ./. 
CHI u114 who/pro be/cop that/pro ?/? 
MOT u115 be/cop that/pro a/det -/- 
CHI u116 girl/n ?/? 
MOT u117 no/int ./. 
MOT u118 be/cop that/pro a/det -/- 
CHI u119 boy/n ?/? 
MOT u120 yes/int -/- 
MOT u121 what/pro be/cop this/pro ?/? 
CHI u122 a/det boy/n ./. 
MOT u123 be/cop that/pro a/det -/- 
MOT u124 the/det boy/n s/pos -/- 
CHI u125 esa/chi ./. 
CHI u126 that/pro the/det boy/n s/pos esa/chi ./. 
MOT u127 esa/chi ?/? 
MOT u128 what/pro be/cop esa/chi ?/? 
CHI u129 shoe-PL/n ./. 
MOT u130 shoe-PL/n ./. 
MOT u131 what/pro be/cop that/pro ?/? 
CHI u132 a/det boot/n ./. 
CHI u133 a/det rain_coat/n ./. 
MOT u134 what/pro be/cop that/pro ?/? 
CHI u135 a/det brush/n ./. 
MOT u136 what/pro be/cop that/pro ?/? 
CHI u137 a/det umbrella/n ./. 
MOT u138 that/pro be/cop right/adj ./. 
MOT u139 that/pro be/cop what/pro we/pro use/vb when/sub we/pro go/vb outside/loc and/coo it/pro be/aux rain-PROG/prt ./. 
MOT u140 how/adv about/pre this/pro ?/? 
MOT u141 this/pro be/cop for/pre when/sub it/pro be/cop sun/adj ./. 
CHI u142 that/pro be/cop for/pre the/det sun/adj ./. 
MOT u143 what/pro be/cop it/pro ?/? 
CHI u144 sunglass/n ./. 
MOT u145 sunglass-PL/n that/pro be/cop right/adj ./. 
MOT u146 do/mod you/pro wear/vb sunglass-PL/n ?/? 
CHI u147 I/pro have/vb pink/adj ./. 
MOT u148 yes/int you/pro have/vb pink/adj one-PL/idf that/pro be/cop right/adj ./. 
MOT u149 what/pro about/pre this/pro ?/? 
MOT u150 you/pro know/vb what/pro this/pro be/cop ?/? 
CHI u151 yeah/int ./. 
MOT u152 what/pro ?/? 
CHI u153 a/det booger/n ./. 
MOT u154 oh/int you/pro need/vb a/det tissue/n ./. 
CHI u155 
MOT u156 come/vb on/pre let/vb us/pro blow/vb your/pps nose/n ./. 
MOT u157 you/pro can/mod blow/vb your/pps own/adj nose/n if/sub you/pro do/mod not/neg want/vb me/pro to/inf do/vb it/pro but/sub you/pro need/vb to/inf do/vb it/pro ./. 
CHI u158 
MOT u159 okay/int ./. 
MOT u160 what/pro be/cop this/pro ?/? 
MOT u161 you/pro know/vb this/pro be/cop a/det nice/adj thing/n because/sub you/pro like/vb to/inf wear/vb it/pro ./. 
MOT u162 you/pro know/vb what/pro that/pro be/cop ?/? 
CHI u163 yeah/int ./. 
MOT u164 what/pro be/cop that/pro ?/? 
CHI u165 yeah/int ./. 
MOT u166 do/mod you/pro want/vb me/pro to/inf tell/vb you/pro ?/? 
CHI u167 yeah/int ./. 
MOT u168 or/coo do/mod you/pro know/vb ?/? 
CHI u169 what/pro be/cop that/pro ?/? 
MOT u170 that/pro be/cop a/det robe/n ./. 
CHI u171 a/det robe/n ./. 
MOT u172 do/mod you/pro have/vb a/det robe/n ?/? 
CHI u173 yeah/int ./. 
MOT u174 do/vb you/pro when/sub do/mod you/pro wear/vb your/pps robe/n ?/? 
CHI u175 yeah/int ./. 
MOT u176 
MOT u177 look/vb at/pre all/qnt these/det toy-PL/n ./. 
CHI u178 toy-PL/n ./. 
MOT u179 what/pro be/cop these/det thing-PL/n ?/? 
CHI u180 yeah/int ./. 
MOT u181 what/pro be/cop this/pro ?/? 
CHI u182 yeah/int ./. 
MOT u183 what/pro be/cop those/pro ?/? 
CHI u184 yeah/int ./. 
CHI u185 what/pro be/cop those/pro ?/? 
MOT u186 be/cop those/det marble-PL/n ?/? 
CHI u187 yeah/int ./. 
MOT u188 you/pro be/aux think-PROG/prt of/pre marble-PL/n ?/? 
CHI u189 yeah/int ./. 
MOT u190 where/adv do/mod you/pro play/vb with/pre marble-PL/n ?/? 
CHI u191 yeah/int ./. 
MOT u192 do/mod you/pro play/vb with/pre marble-PL/n with/pre cousin/n George/n-pr ?/? 
CHI u193 yeah/int -/- 
MOT u194 that/pro be/cop fun/adj ?/? 
CHI u195 be/cop not/neg that/pro fun/adj ?/? 
CHI u196 fun/adj ?/? 
INV u197 it/pro be/cop fun/adj ./. 
CHI u198 yeah/int -/- 
CHI u199 haha/int ./. 
MOT u200 haha/int ./. 
MOT u201 what/pro about/pre this/pro ?/? 
MOT u202 what/pro be/cop this/pro ?/? 
CHI u203 a/det bear/n ./. 
MOT u204 a/det bear/n ./. 
MOT u205 it/pro be/cop a/det sweet/adj bear/n ./. 
MOT u206 and/coo -/- 
CHI u207 a/det boy/n ./. 
CHI u208 a/det girl/n ./. 
MOT u209 be/cop it/pro a/det real/adj girl/n or/coo -/- 
CHI u210 no/int ./. 
CHI u211 pie/n ./. 
MOT u212 a/det pie/n ?/? 
MOT u213 it/pro be/cop not/neg a/det pie/n it/pro be/cop a/det doll/n ./. 
CHI u214 doll/n ./. 
MOT u215 a/det doll/n ./. 
MOT u216 what/pro about/pre these/pro ?/? 
CHI u217 those/pro ./. 
MOT u218 what/pro be/cop those/pro ?/? 
CHI u219 yeah/int ./. 
MOT u220 you/pro play/vb with/pre them/pro in/pre school/n ?/? 
MOT u221 do/mod you/pro recognize/vb them/pro ?/? 
CHI u222 no/int ./. 
CHI u223 at/pre grandma/n s/pos house/n ./. 
MOT u224 that/pro be/cop right/adj ./. 
MOT u225 what/pro be/aux they/pro ?/? 
CHI u226 block-PL/n ./. 
MOT u227 that/pro be/cop right/adj ./. 
MOT u228 and/coo it/pro be/cop true/adj you/pro have/vb them/pro at/pre grandma/n s/pos house/n ./. 
MOT u229 what/pro be/cop that/pro ?/? 
CHI u230 a/det a/det lot/n of/pre those/pro ./. 
MOT u231 these/pro ?/? 
CHI u232 l/let lot/n of/pre those/pro ./. 
MOT u233 what/pro be/cop they/pro ?/? 
CHI u234 marble-PL/n ./. 
MOT u235 you/pro like/vb those/det marble-PL/n ./. 
CHI u236 where/adv where/adv be/cop they/pro ?/? 
MOT u237 where/adv be/cop they/pro ?/? 
CHI u238 yeah/int ./. 
MOT u239 be/cop they/pro in/pre cousin/n George/n-pr s/pos house/n ?/? 
CHI u240 yeah/int ./. 
MOT u241 be/cop they/pro in/pre his/pps bed_room/n ?/? 
CHI u242 yeah/int ./. 
MOT u243 where/adv do/mod he/pro keep/vb them/pro ?/? 
CHI u244 yeah/int ./. 
MOT u245 do/mod you/pro remember/vb ?/? 
CHI u246 yeah/int ./. 
MOT u247 where/adv ?/? 
CHI u248 where/adv at/pre he/pro keep/vb them/pro ?/? 
CHI u249 where/adv where/adv genmod/mod he/pro keep/vb them/pro ?/? 
MOT u250 in/pre his/pps drawer/n ?/? 
CHI u251 yeah/int ./. 
MOT u252 do/mod he/pro open/vb his/pps dresser/n and/coo inside/loc be/cop all/qnt the/det marble-PL/n ?/? 
CHI u253 yeah/int ./. 
MOT u254 you/pro remember/vb that/pro ?/? 
CHI u255 yeah/int ./. 
MOT u256 what/pro do/mod you/pro do/vb with/pre his/pps marble-PL/n ?/? 
CHI u257 yeah/int ./. 
MOT u258 what/pro ?/? 
CHI u259 you/pro open/vb those/pro ./. 
MOT u260 that/pro be/cop right/adj ./. 
CHI u261 open/vb those/pro ./. 
MOT u262 and/coo inside/loc be/cop the/det marble-PL/n ./. 
CHI u263 yeah/int ./. 
CHI u264 open/vb ./. 
CHI u265 open/vb it/pro ./. 
MOT u266 open/vb the/det drawer/n ?/? 
CHI u267 yeah/int ./. 
MOT u268 you/pro want/vb to/inf turn/vb the/det page/n ?/? 
CHI u269 yeah/int ./. 
MOT u270 oh/int my/int ./. 
CHI u271 what/pro what/pro be/cop that/pro ?/? 
MOT u272 you/pro tell/vb me/pro ./. 
MOT u273 what/pro be/cop that/pro ?/? 
CHI u274 that/pro ./. 
MOT u275 you/pro know/vb what/pro that/pro be/cop ./. 
CHI u276 a/det stove/n ./. 
MOT u277 a/det stove/n that/pro be/cop right/adj ./. 
MOT u278 and/coo what/pro be/cop this/det part/n ?/? 
CHI u279 yeah/int ./. 
MOT u280 be/cop a/det -/- 
CHI u281 a/det elephant/n ./. 
MOT u282 a/det elephant/n in/pre your/pps kitchen/n ?/? 
MOT u283 be/cop a/det oven/n in/pre your/pps kitchen/n ?/? 
CHI u284 yeah/int ./. 
MOT u285 be/cop a/det -/- 
CHI u286 a/det a/det fork/n ?/? 
MOT u287 yeah/int and/coo a/det -/- 
CHI u288 a/det knife/n ./. 
MOT u289 and/coo a/det -/- 
CHI u290 spoon/n ./. 
MOT u291 in/pre your/pps kitchen/n ./. 
MOT u292 be/cop a/det -/- 
CHI u293 cup/n ./. 
MOT u294 in/pre your/pps kitchen/n ?/? 
CHI u295 yeah/int ./. 
MOT u296 what/pro kind/n of/pre cup/n be/cop this/pro ?/? 
CHI u297 yeah/int ./. 
MOT u298 what/pro do/mod you/pro drink/vb out/pre of/pre that/det cup/n ?/? 
MOT u299 what/pro do/mod mommy/n and/coo daddy/n drink/vb out/loc of/pre that/det cup/n ?/? 
CHI u300 and/coo what/pro be/cop that/pro ?/? 
MOT u301 I/pro do/mod not/neg know/vb if/sub you/pro know/vb what/pro that/pro be/cop ./. 
MOT u302 that/pro be/cop a/det funnel/n ./. 
MOT u303 we/pro have/vb a/det funnel/n in/pre the/det kitchen/n ./. 
MOT u304 do/mod you/pro know/vb what/pro a/det funnel/n be/cop ?/? 
CHI u305 yeah/int ./. 
MOT u306 when/sub we/pro pour/vb ./. 
CHI u307 yeah/int ./. 
MOT u308 we/pro pour/vb something/idf from/pre one/num bottle/n to/pre another/qnt bottle/n ./. 
MOT u309 we/pro use/vb the/det funnel/n ./. 
MOT u310 do/mod you/pro know/vb -/- 
CHI u311 be/cop that/pro ?/? 
MOT u312 what/pro be/cop that/pro ?/? 
CHI u313 yeah/int ./. 
MOT u314 it/pro be/cop a/det ladle/n ./. 
MOT u315 when/adv do/mod I/pro use/vb that/pro ?/? 
CHI u316 yeah/int ./. 
MOT u317 when/sub I/pro serve/vb you/pro some/qnt soup/n ?/? 
CHI u318 yeah/int ./. 
MOT u319 I/pro give/vb it/pro to/pre you/pro in/pre a/det ladle/n ./. 
MOT u320 what/pro be/cop this/pro ?/? 
CHI u321 yeah/int ./. 
CHI u322 a/det sink/n ./. 
MOT u323 yeah/int and/coo what/pro be/cop these/pro ?/? 
CHI u324 yeah/int ./. 
MOT u325 that/det part/n ./. 
MOT u326 do/mod you/pro know/vb what/pro that/pro be/aux call-PERF/prt ?/? 
CHI u327 yeah/int ./. 
MOT u328 be/cop that/pro the/det faucet/n ?/? 
MOT u329 do/mod you/pro remember/vb ?/? 
MOT u330 the/det faucet/n ./. 
CHI u331 yeah/int ./. 
MOT u332 what/pro be/cop this/pro ?/? 
CHI u333 yeah/int ./. 
CHI u334 refrigerator/n ./. 
MOT u335 what/pro be/cop in/pre the/det refrigerator/n ?/? 
CHI u336 Carposi/n-pr ./. 
MOT u337 yeah/int Carposi/n-pr ./. 
MOT u338 that/pro be/cop water_melon/n ./. 
MOT u339 that/pro be/cop Greek/n-pr for/pre water_melon/n ./. 
MOT u340 oh/int look/vb at/pre all/qnt this/det food/n ./. 
MOT u341 what/pro be/cop that/pro ?/? 
MOT u342 see/int that/pro be/cop a/det big-CP/adj picture/n ./. 
CHI u343 oh/int -/- 
MOT u344 what/pro ?/? 
CHI u345 a/det ./. 
CHI u346 they/pro be/aux that/pro ./. 
MOT u347 they/pro be/aux cut-PROG/prt that/pro ?/? 
MOT u348 what/pro be/cop it/pro ?/? 
CHI u349 yeah/int ./. 
CHI u350 a/det knife/n ./. 
MOT u351 and/coo what/pro be/aux they/pro cut-PROG/prt ?/? 
MOT u352 do/mod you/pro know/vb what/pro that/pro be/cop ?/? 
CHI u353 a/det pumpkin/n ./. 
MOT u354 
MOT u355 do/mod that/pro look/vb like/pre a/det pumpkin/n ?/? 
CHI u356 yeah/int ./. 
MOT u357 be/cop that/pro bread/n to/inf make/vb a/det sandwich/n ?/? 
CHI u358 no/int a/det pumpkin/n ./. 
MOT u359 oh/int ./. 
CHI u360 mushroom-PL/n ./. 
MOT u361 yes/int mushroom-PL/n ./. 
MOT u362 what/pro else/psq do/mod you/pro see/vb ?/? 
CHI u363 corn/n ./. 
MOT u364 these/pro be/cop all/qnt vegetable-PL/n ./. 
MOT u365 what/pro else/psq ?/? 
CHI u366 yeah/int corn/n ./. 
MOT u367 and/coo -/- 
MOT u368 what/pro be/cop that/pro ?/? 
CHI u369 those/pro ./. 
MOT u370 that/pro be/cop a/det apple/n ./. 
MOT u371 all/qnt different/adj fruit-PL/n ./. 
MOT u372 what/pro be/cop these/pro ?/? 
CHI u373 
CHI u374 a/det ./. 
MOT u375 and/coo what/pro what/pro be/cop these/pro ?/? 
CHI u376 pea-PL/n ./. 
MOT u377 they/pro look/vb like/pre pea-PL/n but/sub they/pro be/cop grape-PL/n ./. 
MOT u378 you/pro remember/vb grape-PL/n ?/? 
MOT u379 you/pro like/vb grape-PL/n ./. 
CHI u380 I/pro love/vb grape-PL/n ./. 
MOT u381 yeah/int ./. 
MOT u382 do/mod you/pro recognize/vb -/- 
MOT u383 oh/int here/loc ./. 
MOT u384 do/mod you/pro recognize/vb this/pro ?/? 
CHI u385 yeah/int ./. 
MOT u386 what/pro be/cop it/pro ?/? 
MOT u387 what/pro be/cop that/pro ?/? 
MOT u388 you/pro relax-PROG/prt ?/? 
MOT u389 let/vb us/pro take/vb another/qnt look/n ./. 
MOT u390 oh/int Child/n-pr I/pro want/vb to/inf show/vb you/pro one/num more/qnt thing/n I/pro know/vb that/rel you/pro like/vb ./. 
MOT u391 do/mod you/pro recognize/vb that/pro ?/? 
CHI u392 that/pro ./. 
CHI u393 a/det peach/n ./. 
MOT u394 
MOT u395 it/pro be/cop hard/adj to/inf tell/vb from/pre this/det picture/n ./. 
MOT u396 it/pro do/mod look/vb like/pre a/det peach/n ./. 
MOT u397 but/sub you/pro know/vb what/pro it/pro be/cop ?/? 
MOT u398 it/pro be/cop a/det picture/n of/pre cheese/n with/pre red/adj -/- 
CHI u399 yeah/int ./. 
MOT u400 what/pro be/cop around/pre it/pro ?/? 
MOT u401 what/pro be/cop around/pre it/pro ?/? 
CHI u402 yeah/int ./. 
MOT u403 what/pro do/mod you/pro like/vb to/inf peel/vb off/adv ?/? 
CHI u404 yeah/int ./. 
CHI u405 cheese/n ./. 
MOT u406 the/det wax/n ./. 
CHI u407 a/det wax/n ./. 
MOT u408 remember/vb ?/? 
MOT u409 and/coo what/pro do/mod I/pro do/vb with/pre the/det wax/n ?/? 
CHI u410 yeah/int ./. 
MOT u411 what/pro do/mod I/pro do/vb with/pre the/det wax/n ?/? 
CHI u412 yeah/int ./. 
CHI u413 throw/vb it/pro ./. 
MOT u414 I/pro throw/vb it/pro away/adv ./. 
MOT u415 or/coo I/pro make/vb it/pro into/pre a/det -/- 
CHI u416 top/n ./. 
MOT u417 ball/n ./. 
MOT u418 right/adj ?/? 
MOT u419 I/pro make/vb a/det ball/n with/pre it/pro for/pre you/pro ./. 
CHI u420 yeah/int ./. 
MOT u421 look/vb at/pre all/qnt these/pro ./. 
CHI u422 toy-PL/n ./. 
MOT u423 yeah/int they/pro look/vb like/pre the/det toy-PL/n that/rel Investigator/n-pr bring/vbd ./. 
MOT u424 what/pro be/cop they/pro ?/? 
MOT u425 come/vb ./. 
CHI u426 I/pro get/vb the/det -/- 
CHI u427 that/pro be/cop what/pro I/pro be/aux do-PROG/prt ./. 
MOT u428 that/pro be/cop your/pps toy/n huh/int ?/? 
MOT u429 it/pro be/cop a/det big/adj toy/n ./. 
MOT u430 let/vb us/pro look/vb at/pre these/det toy-PL/n ./. 
CHI u431 yeah/int yeah/int I/pro have/aux get/vbd that/pro ./. 
MOT u432 you/pro have/vb it/pro ?/? 
CHI u433 yeah/int ./. 
CHI u434 heavy/adj ./. 
MOT u435 it/pro be/cop heavy/adj ?/? 
CHI u436 yeah/int ./. 
CHI u437 I/pro have/vb it/pro ./. 
MOT u438 well/int push/vb it/pro over/loc here/loc ./. 
MOT u439 show/vb me/pro what/pro you/pro do/vb with/pre that/pro ./. 
CHI u440 yeah/int ./. 
CHI u441 I/pro sit/vb down/loc ./. 
CHI u442 those/det guy-PL/n ./. 
MOT u443 what/pro do/mod you/pro do/vb with/pre those/det guy-PL/n ?/? 
CHI u444 yeah/int ./. 
CHI u445 oh/int oh/int back/vb up/loc ./. 
CHI u446 up/loc down/loc ./. 
CHI u447 down/loc ./. 
CHI u448 yeah/int ./. 
CHI u449 what/pro color/n be/cop that/pro ?/? 
MOT u450 what/pro color/n be/cop that/pro ?/? 
CHI u451 well/int well/int what/pro color/n be/cop that/pro ?/? 
MOT u452 tell/vb me/pro ./. 
CHI u453 blue/adj -/- 
MOT u454 that/pro be/cop right/adj ./. 
CHI u455 the/det color/n that/pro ./. 
CHI u456 blue/adj ./. 
MOT u457 and/coo -/- 
CHI u458 red/adj ./. 
MOT u459 which/det one/idf be/cop red/adj ?/? 
MOT u460 that/pro be/cop right/adj that/pro be/cop right/adj ./. 
CHI u461 and/coo the/det other/qnt color/n ./. 
MOT u462 what/det other/qnt color-PL/n ?/? 
MOT u463 tell/vb me/pro the/det color-PL/n ./. 
CHI u464 orange/adj ./. 
MOT u465 what/pro else/psq ?/? 
CHI u466 heavy/adj ./. 
MOT u467 put/vbo it/pro down/loc if/sub it/pro be/cop heavy/adj ./. 
CHI u468 have/vb it/pro ./. 
MOT u469 you/pro know/vb what/pro you/pro can/mod do/vb if/sub you/pro want/vb ?/? 
CHI u470 yeah/int ./. 
MOT u471 you/pro can/mod take/vb the/det other/qnt toy-PL/n out/loc of/pre the/det bag/n ./. 
CHI u472 oop/int ./. 
MOT u473 what/pro be/cop that/pro ?/? 
CHI u474 a/det guy/n ./. 
MOT u475 who/pro ?/? 
CHI u476 a/det couch/n ./. 
MOT u477 that/pro be/cop a/det couch/n ./. 
MOT u478 let/vb us/pro look/vb in/loc here/loc ./. 
MOT u479 I/pro want/vb to/inf see/vb what/pro be/cop in/loc here/loc ./. 
MOT u480 oh/int ./. 
CHI u481 Katie/n-pr Tom/n-pr ./. 
CHI u482 Kit/n-pr Kit/n-pr and/coo Tom/n-pr ./. 
MOT u483 Katie/n-pr Kit/n-pr and/coo Cousin/n-pr Tom/n-pr ./. 
CHI u484 yeah/int ./. 
MOT u485 let/vb us/pro look/vb at/pre these/det toy-PL/n ./. 
CHI u486 Kit/n-pr and/coo Tom/n-pr ./. 
MOT u487 oh/int I/pro see/vb somebody/idf ./. 
MOT u488 who/pro be/cop in/loc there/loc ?/? 
CHI u489 a/det duck/n ./. 
MOT u490 what/pro do/mod that/det duck/n say/vb ?/? 
CHI u491 quack/ono ./. 
MOT u492 quack/n quack/n quack/n ./. 
MOT u493 who/pro else/psq be/cop in/loc there/loc ?/? 
CHI u494 quack/ono ./. 
MOT u495 what/pro else/psq ?/? 
MOT u496 what/pro be/cop that/pro ?/? 
CHI u497 that/pro ./. 
MOT u498 what/pro ?/? 
MOT u499 do/mod you/pro remember/vb ?/? 
MOT u500 let/vb us/pro see/vb if/sub be/cop a/det picture/n of/pre that/pro ./. 
MOT u501 oh/int ./. 
MOT u502 no/int ./. 
MOT u503 that/pro be/aux call-PERF/prt a/det tow+truck/n ./. 
MOT u504 do/mod you/pro see/vb tow+truck/n in/pre the/det gas+station/n ?/? 
MOT u505 when/sub we/pro bring/vbd the/det car/n in/loc ./. 
MOT u506 they/pro have/vbd tow+truck/n ./. 
CHI u507 car/n ./. 
CHI u508 that/pro ./. 
MOT u509 what/pro be/cop that/pro ?/? 
CHI u510 
MOT u511 mommy/n like-3S/vb this/det one/idf ./. 
MOT u512 this/pro be/cop -/- 
CHI u513 
CHI u514 
MOT u515 yeah/int ./. 
MOT u516 let/vb us/pro find/vb -/- 
MOT u517 what/det what/det truck/n do/mod that/pro go/vb on/loc ?/? 
MOT u518 I/pro will/mod see/vb if/sub I/pro can/mod put/vbo it/pro back/loc ./. 
MOT u519 find/vb me/pro the/det truck/n that/rel that/det ladder/n go-3S/vb on/loc ./. 
CHI u520 you/pro find/vbd it/pro ./. 
MOT u521 yeah/int ./. 
MOT u522 what/det kind/n of/pre a/det truck/n be/cop that/pro ?/? 
CHI u523 red/adj ./. 
MOT u524 red/adj ./. 
CHI u525 yeah/int ./. 
CHI u526 I/pro find/vbd it/pro like/pre that/pro ./. 
MOT u527 okay/int let/vb us/pro see/vb if/sub I/pro can/mod fix/vb it/pro ./. 
MOT u528 you/pro can/mod look/vb at/pre the/det rest/n of/pre the/det toy-PL/n while/sub I/pro try/vb and/coo fix/vb it/pro ./. 
CHI u529 a/det rabbit/n ./. 
MOT u530 be/cop that/pro a/det rabbit/n with/pre a/det big/adj long/adj nose/n like/pre that/pro ?/? 
CHI u531 elephant/n ./. 
MOT u532 elephant/n ./. 
MOT u533 that/pro be/cop right/adj like/pre Babar/n-pr ./. 
MOT u534 what/pro do/mod he/pro say/vb ?/? 
CHI u535 yeah/int ./. 
MOT u536 be/aux he/pro give-PROG/prt you/pro a/det little/adj kiss/n ?/? 
CHI u537 yeah/int ./. 
MOT u538 he/pro be/cop very/adv nice/adj ./. 
CHI u539 what/pro do/mod you/pro find/vb ?/? 
MOT u540 what/pro do/mod you/pro find/vb ?/? 
CHI u541 a/det blue/n ./. 
MOT u542 what/pro be/cop that/pro ?/? 
CHI u543 a/det red/n ./. 
MOT u544 be/cop this/pro a/det truck/n another/qnt truck/n ?/? 
MOT u545 this/pro be/aux call-PERF/prt a/det crane/n ./. 
MOT u546 oh/int I/pro remember/vb those/pro ./. 
CHI u547 what/pro ./. 
CHI u548 I/pro find/vbd one/num more/qnt ./. 
MOT u549 what/pro be/cop they/pro ?/? 
MOT u550 how/adv man/adj be/cop exist/pro ?/? 
CHI u551 I/pro do/mod not/neg know/vb name/n of/pre them/pro ./. 
MOT u552 okay/int these/pro be/cop cement+mixer/n ./. 
MOT u553 oh/int ./. 
CHI u554 they/pro dig/vb up/loc the/det grass/n ./. 
MOT u555 that/pro be/cop right/adj ./. 
CHI u556 
MOT u557 those/pro be/cop special/adj wheel-PL/n ./. 
MOT u558 do/mod you/pro remember/vb what/pro they/pro be/aux call-PERF/prt ?/? 
CHI u559 yeah/int ./. 
MOT u560 what/pro ?/? 
CHI u561 ground/n ./. 
MOT u562 the/det ground/n ?/? 
MOT u563 they/pro be/aux call-PERF/prt caterpillar-PL/n ./. 
CHI u564 stand/vb up/loc ./. 
MOT u565 okay/int ./. 
CHI u566 Momma/n-pr -/- 
MOT u567 you/pro want/vb to/inf try/vb to/inf make/vb the/det horse/n stand/vb up/loc ?/? 
MOT u568 stick/vb it/pro in/loc there/loc ./. 
MOT u569 let/vb us/pro stick/vb it/pro in/loc ./. 
MOT u570 oh/int he/pro be/aux fall-PROG/prt over/loc ./. 
MOT u571 he/pro be/aux go-PROG/prt to/inf lean/vb on/pre my/pps foot/n ./. 
MOT u572 okay/int ?/? 
MOT u573 be/cop that/pro okay/adj ?/? 
CHI u574 okay/int ./. 
MOT u575 what/pro shall/mod I/pro do/vb ?/? 
MOT u576 help/vb you/pro open/vb it/pro ?/? 
CHI u577 toy-PL/n ./. 
MOT u578 yeah/int get/vb them/pro ./. 
MOT u579 take/vb all/qnt the/det toy-PL/n ./. 
CHI u580 off/adv I/pro help/vb you/pro ./. 
MOT u581 what/pro do/mod you/pro want/vb me/pro to/inf help/vb you/pro with/pre ?/? 
CHI u582 
MOT u583 there/int ./. 
MOT u584 we/pro open-PAST/vb up/loc the/det bag/n ./. 
CHI u585 
CHI u586 two/num both/idf ./. 
MOT u587 both/idf ?/? 
MOT u588 shall/mod they/pro stand/vb stand/vb next/adv to/pre each+other/qnt ?/? 
CHI u589 ouch/int ./. 
MOT u590 it/pro be/cop hard/adj for/pre them/pro to/inf stand/vb alone/adv ./. 
MOT u591 oh/int something/idf else/psq come/vbd out/loc ./. 
MOT u592 two/num thing-PL/n ./. 
MOT u593 yeah/int ./. 
CHI u594 all/qnt ./. 
MOT u595 all/qnt go/prt ./. 
MOT u596 everything/idf be/cop out/loc of/pre the/det bag/n ./. 
MOT u597 we/pro will/mod put/vbo the/det bag/n over/loc here/loc like/pre that/pro ./. 
MOT u598 you/pro see/vb ?/? 
CHI u599 
MOT u600 be/cop the/det bag/n empty/adj ?/? 
MOT u601 what/pro do/mod you/pro get/vbd ?/? 
CHI u602 a/det dog/n ./. 
CHI u603 a/det dog/n ./. 
MOT u604 yeah/int ./. 
MOT u605 what/pro do/mod that/det dog/n say/vb ?/? 
CHI u606 he/pro be/aux lay-PROG/prt down/loc ./. 
MOT u607 be/aux he/pro sleep-PROG/prt ?/? 
CHI u608 yes/int ./. 
CHI u609 
CHI u610 time/n to/inf get/vb up/loc ./. 
CHI u611 on/pre my/pps leg-PL/n ./. 
MOT u612 okay/int ./. 
CHI u613 move/vb ./. 
MOT u614 you/pro want/vb the/det dog/n to/inf stand/vb up/loc too/psq ?/? 
CHI u615 yeah/int ./. 
CHI u616 he/pro fall-PROG/prt ./. 
MOT u617 oh/int the/det dog/n might/mod have_to/mod lean/vb on/pre my/pps foot/n also/adv because/sub the/det rug/n be/cop bump/adj ./. 
CHI u618 here/loc ./. 
MOT u619 what/pro do/mod you/pro want/vb me/pro to/inf do/vb with/pre it/pro ?/? 
CHI u620 
MOT u621 oh/int the/det same/adj way/n ?/? 
CHI u622 
MOT u623 do/mod you/pro remember/vb this/pro what/pro this/pro be/aux call-PERF/prt ?/? 
CHI u624 yeah/int ./. 
MOT u625 what/pro ?/? 
CHI u626 a/det crane/n ./. 
MOT u627 that/pro be/cop a/det truck/n ./. 
MOT u628 a/det cement+mixer/n ./. 
CHI u629 here/loc be/cop a/det more/qnt one/num more/qnt ./. 
CHI u630 and/coo a/det other/qnt car/n ./. 
MOT u631 which/det one/idf ?/? 
CHI u632 yeah/int ./. 
MOT u633 that/det jeep/n ?/? 
CHI u634 where/pro the/det a/det other/qnt car/n ?/? 
INV u635 I/pro do/mod not/neg think/vb be/cop any/qnt other/qnt car-PL/n ./. 
MOT u636 the/det fire+engine/n ?/? 
CHI u637 no/int no/int ./. 
CHI u638 the/det other/qnt a/det car/n ./. 
MOT u639 
INV u640 do/mod you/pro remember/vb what/pro you/pro can/mod do/vb with/pre that/det car/n ?/? 
CHI u641 yeah/int ./. 
INV u642 you/pro can/mod open/vb the/det door-PL/n on/pre that/det car/n ./. 
CHI u643 it/pro do/mod not/neg open/vb door/n ./. 
MOT u644 you/pro want/vb the/det door-PL/n open/adj ?/? 
MOT u645 here/int I/pro will/mod open/vb one/idf and/coo you/pro can/mod open/vb the/det other/idf ./. 
MOT u646 you/pro just/adv open/vb them/pro ./. 
MOT u647 all/qnt open/adj ./. 
MOT u648 yeah/int ./. 
CHI u649 other/qnt door/n ./. 
MOT u650 can/mod you/pro do/vb it/pro ?/? 
CHI u651 yeah/int ./. 
CHI u652 hard/adj ./. 
MOT u653 it/pro be/cop hard/adj I/pro know/vb ./. 
MOT u654 here/int try/vb it/pro again/adv ./. 
MOT u655 put/vbo your/pps finger/n in/loc there/loc and/coo pull/vb ./. 
CHI u656 hard/adv ./. 
MOT u657 hard/adv ./. 
MOT u658 there/int -/- 
MOT u659 what/adv a/det fancy/adj sport+car/n ./. 
MOT u660 can/mod any/idf of/pre those/det animal-PL/n fit/vb in/pre the/det car/n ?/? 
CHI u661 yeah/int ./. 
CHI u662 take/vb that/pro out/loc ./. 
MOT u663 which/det one/idf be/cop that/pro ?/? 
CHI u664 
MOT u665 what/pro ?/? 
CHI u666 take/vb that/pro out/loc ?/? 
MOT u667 I/pro do/mod not/neg know/vb ./. 
MOT u668 you/pro remember/vb last/adj time/n it/pro be/cop not/neg in/pre here/loc be/cop it/pro ?/? 
CHI u669 take/vb that/pro take/vb ./. 
CHI u670 and/coo close/vb ./. 
MOT u671 that/pro be/cop good/adj ./. 
MOT u672 now/adv the/det car/n be/cop ready/adj for/pre drive-PROG/n ./. 
CHI u673 ready/adj for/pre drive/n ./. 
MOT u674 that/pro be/cop right/adj ./. 
CHI u675 
MOT u676 what/pro kind/n be/cop this/pro ?/? 
CHI u677 yeah/int ./. 
MOT u678 do/mod you/pro remember/vb this/det one/idf ?/? 
CHI u679 yeah/int ./. 
MOT u680 this/pro be/cop the/det other/qnt car/n ./. 
MOT u681 right/adj ?/? 
MOT u682 this/pro be/cop the/det sport+car/n and/coo this/pro be/cop a/det jeep/n ./. 
MOT u683 this/pro be/cop for/pre drive-PROG/n in/pre mountain-PL/n when/sub you/pro go/vb to/pre the/det country/n right/int ?/? 
CHI u684 yeah/int ./. 
MOT u685 over/pre some/qnt rough/adj terrain/n ./. 
MOT u686 what/pro be/aux you/pro do-PROG/prt ?/? 
CHI u687 in/pre ./. 
MOT u688 you/pro put/vbo the/det hook/n in/loc ?/? 
CHI u689 yeah/int ./. 
MOT u690 do/mod that/det car/n have/vb a/det flat/adj tire/n ?/? 
CHI u691 yeah/int ./. 
MOT u692 be/cop that/pro why/adv you/pro put/vbo that/det hook/n there/loc ?/? 
CHI u693 yeah/int ./. 
CHI u694 yeah/int ./. 
MOT u695 empty/adj ./. 
CHI u696 
CHI u697 what/pro be/cop that/pro ?/? 
MOT u698 what/pro ?/? 
MOT u699 here/loc it/pro be/cop it/pro be/cop all/qnt the/det way/n in/loc here/loc ./. 
MOT u700 you/pro have_to/mod get/vb it/pro out/loc of/pre there/loc ./. 
MOT u701 what/pro be/aux you/pro do-PROG/prt ?/? 
MOT u702 be/aux you/pro shake-PROG/prt your/pps head/n ?/? 
MOT u703 you/pro shake-PROG/prt your/pps head/n ?/? 
CHI u704 shake/n shake/n ./. 
INV u705 shake-PROG/prt your/pps hair/n in/pre your/pps face/n ./. 
MOT u706 shake/n shake/n shake/n ?/? 
CHI u707 pig/n pig/n ./. 
INV u708 what/pro be/cop that/pro ?/? 
CHI u709 a/det pig/n ./. 
MOT u710 be/cop that/pro a/det pig/n ?/? 
CHI u711 
MOT u712 that/det one/idf ?/? 
CHI u713 yeah/int ./. 
INV u714 that/pro be/cop a/det big/adj toy/n ./. 
CHI u715 heavy/adj ./. 
INV u716 it/pro be/cop be/cop not/neg it/pro ?/? 
CHI u717 
MOT u718 be/cop there/loc a/det fire/n there/loc now/adv ?/? 
CHI u719 a/det rock-PROG/n ./. 
CHI u720 rock+chair/n ./. 
INV u721 rock+chair/n ?/? 
INV u722 be/cop that/pro your/pps rock+chair/n ?/? 
CHI u723 yeah/int ./. 
INV u724 when/adv do/mod you/pro like/vb to/inf rock/vb in/pre it/pro ?/? 
CHI u725 yeah/int rock-PROG/prt it/pro ./. 
MOT u726 you/pro like/vb it/pro right/adv there/loc ?/? 
CHI u727 yeah/int ./. 
MOT u728 come/vb here/loc ./. 
MOT u729 let/vb us/pro look/vb at/pre some/qnt of/pre these/det picture-PL/n ./. 
MOT u730 look/vb at/pre all/qnt these/det animal-PL/n ./. 
CHI u731 elephant/n ./. 
MOT u732 that/pro ?/? 
CHI u733 that/pro like/pre Babar/n-pr ./. 
MOT u734 yeah/int that/pro be/cop Babar/n-pr ./. 
CHI u735 Babar/n-pr ./. 
MOT u736 what/pro about/pre this/pro ?/? 
MOT u737 you/pro know/vb what/pro this/pro be/cop ?/? 
MOT u738 where/pro be/cop you/pro ?/? 
CHI u739 up/loc ./. 
CHI u740 look/vb what/pro I/pro have/aux get/prt ./. 
MOT u741 what/pro do/mod you/pro have/vb there/loc ?/? 
CHI u742 
MOT u743 you/pro want/vb to/inf play/vb the/det piano/n for/pre Investigator/n-pr ?/? 
CHI u744 
MOT u745 
INV u746 can/mod you/pro play/vb it/pro ?/? 
INV u747 how/adv do/mod it/pro work/vb ?/? 
CHI u748 more/qnt ./. 
CHI u749 more/qnt ./. 
INV u750 oh/int I/pro do/mod not/neg know/vb how/adv this/pro work-3S/vb ./. 
INV u751 can/mod you/pro tell/vb me/pro ?/? 
INV u752 tell/vb me/pro how/adv that/pro work-3S/vb ./. 
CHI u753 it/pro work-3S/vb ./. 
MOT u754 we/pro could/mod save/vb this/pro right/adv here/loc until/pre you/pro finish/vb with/pre the/det piano/n ./. 
MOT u755 show/vb Investigator/n-pr how/adv to/inf play/vb the/det piano/n ./. 
CHI u756 sit/vb ./. 
MOT u757 you/pro have_to/mod show/vb her/pro ./. 
MOT u758 she/pro do/mod not/neg know/vb how/adv to/inf play/vb your/pps piano/n ./. 
CHI u759 heavy/adj ./. 
MOT u760 it/pro be/cop heavy/adj ?/? 
MOT u761 now/adv show/vb Investigator/n-pr how/adv to/inf play/vb ./. 
MOT u762 tell/vb her/pro what/pro the/det color-PL/n be/cop ./. 
MOT u763 show/vb her/pro what/pro to/inf do/vb ./. 
CHI u764 there/int ./. 
INV u765 what/pro do/mod you/pro do/vb with/pre those/pro ?/? 
CHI u766 purple/adj ./. 
INV u767 that/pro be/cop purple/adj ./. 
CHI u768 that/pro be/cop purple/adj too/psq ./. 
INV u769 yes/int ./. 
CHI u770 that/det one/idf orange/adj ./. 
MOT u771 which/det one/idf be/cop orange/adj ?/? 
CHI u772 orange/adj ./. 
CHI u773 orange/adj ./. 
CHI u774 orange/adj -/- 
MOT u775 that/pro be/cop right/adj ./. 
MOT u776 what/pro be/cop the/det other/qnt color-PL/n ?/? 
CHI u777 yeah/int ./. 
CHI u778 well/int right/adv here/loc ./. 
MOT u779 what/pro be/cop that/pro ?/? 
CHI u780 green/adj ./. 
MOT u781 that/pro be/cop right/adj ./. 
MOT u782 do/mod you/pro have/vb red/adj ?/? 
MOT u783 be/cop a/det red/adj key/n ?/? 
MOT u784 red/adj ./. 
MOT u785 what/pro about/pre pink/adj ?/? 
MOT u786 I/pro do/mod not/neg know/vb if/sub you/pro know/vb pink/adj ./. 
MOT u787 pink/adj it/pro be/cop near/pre the/det red/n next/adv to/pre the/det red/adj one/idf ./. 
MOT u788 pink/adj -/- 
CHI u789 I/pro sit/vb down/loc ./. 
MOT u790 yeah/int come/vb sit/vb down/loc ./. 
INV u791 be/aux you/pro sit-PROG/prt on/pre the/det piano/n ?/? 
CHI u792 
CHI u793 it/pro be/cop ./. 
INV u794 what/pro ?/? 
INV u795 how/adv do/mod you/pro play/vb it/pro ?/? 
CHI u796 those/pro ./. 
CHI u797 those/pro ./. 
CHI u798 those/det guy-PL/n ./. 
INV u799 what/pro about/pre those/det guy-PL/n ?/? 
CHI u800 yeah/int ./. 
INV u801 do/mod you/pro hit/vbo it/pro with/pre your/pps finger/n ?/? 
INV u802 be/cop that/pro how/adv you/pro play/vb it/pro ?/? 
INV u803 oops/int ./. 
CHI u804 toe-PL/n ./. 
MOT u805 toe-PL/n ./. 
MOT u806 do/mod you/pro play/vb the/det piano/n with/pre your/pps foot/n-pl ?/? 
CHI u807 yes/int ./. 
MOT u808 that/pro be/cop silly/adj ./. 
CHI u809 up/loc ./. 
MOT u810 can/mod you/pro play/vb a/det song/n ?/? 
MOT u811 come/vb ./. 
MOT u812 can/mod you/pro play/vb a/det song/n ?/? 
CHI u813 yeah/int ./. 
CHI u814 play/vb Frere_Jacques/n-pr ./. 
MOT u815 good/adj ./. 
MOT u816 try/vb and/coo play/vb ./. 
CHI u817 hard/adj ./. 
MOT u818 it/pro be/cop hard/adj ?/? 
MOT u819 you/pro know/vb how/adv to/inf play/vb some/qnt music/n ./. 
CHI u820 yup/int ./. 
CHI u821 
MOT u822 come/vb on/loc ./. 
MOT u823 you/pro do/mod not/neg feel/vb like/pre play-PROG/prt the/det piano/n right/adv now/adv ?/? 
CHI u824 yeah/int put/vbo put/vbo away/adv ./. 
MOT u825 you/pro want/vb to/inf put/vbo it/pro away/adv ?/? 
MOT u826 go/vb ahead/adv put/vbo it/pro away/adv ./. 
MOT u827 then/tem we/pro can/mod look/vb at/pre all/qnt these/det animal-PL/n ./. 
MOT u828 you/pro have/vb a/det run/adj nose/n today/tem ./. 
MOT u829 let/vbo me/pro wipe/vb your/pps nose/n ./. 
CHI u830 hurt/vbo ./. 
CHI u831 a/det elephant/n ./. 
MOT u832 where/adv be/cop the/det elephant/n ?/? 
CHI u833 that/pro be/cop not/neg elephant/n ./. 
MOT u834 well/int come/vb here/loc I/pro will/mod show/vb you/pro ./. 
CHI u835 where/adv the/det elephant/n ?/? 
MOT u836 you/pro do/mod not/neg like/vb this/pro ?/? 
CHI u837 no/int ./. 
MOT u838 you/pro want/vb to/inf look/vb at/pre a/det different/adj page/n ?/? 
CHI u839 other/qnt one/idf ./. 
MOT u840 what/pro other/qnt one/num sweet+pie/n ?/? 
CHI u841 other/qnt elephant/n ./. 
MOT u842 what/pro be/cop this/pro ?/? 
CHI u843 no/int do/mod not/neg want/vb that/pro ./. 
MOT u844 you/pro do/mod not/neg want/vb this/pro ?/? 
MOT u845 okay/int put/vbo it/pro away/adv ./. 
MOT u846 you/pro want/vb to/inf put/vbo it/pro back/loc in/pre the/det bag/n ?/? 
CHI u847 no/int ./. 
MOT u848 what/pro do/mod you/pro want/vb to/inf do/vb with/pre it/pro ?/? 
MOT u849 what/pro elephant/n ?/? 
MOT u850 this/det one/idf ?/? 
MOT u851 this/det one/idf ?/? 
MOT u852 this/det little/adj elephant/n ?/? 
CHI u853 
CHI u854 
MOT u855 what/pro ?/? 
CHI u856 
MOT u857 I/pro do/mod not/neg understand/vb what/pro you/pro say/vbd ./. 
MOT u858 what/pro be/cop that/pro ?/? 
CHI u859 I/pro sit/vb down/loc ./. 
MOT u860 you/pro be/aux sit-PROG/prt down/loc ?/? 
MOT u861 where/adv be/aux you/pro sit-PROG/prt ?/? 
CHI u862 do/mod not/neg ./. 
MOT u863 take/vb a/det look/n at/pre that/pro ./. 
CHI u864 no/int ./. 
MOT u865 no/int ./. 
CHI u866 Katie/n-pr ./. 
MOT u867 what/pro do/mod you/pro want/vb ?/? 
CHI u868 Kit/n-pr and/coo Tom/n-pr ./. 
MOT u869 okay/int ./. 
MOT u870 come/vb here/loc ./. 
MOT u871 Katie/n-pr and/coo Kit/n-pr be/aux play-PROG/prt happy/adv ./. 
MOT u872 what/pro be/aux they/pro play-PROG/prt with/pre ?/? 
CHI u873 
MOT u874 and/coo Katie/n-pr and/coo Kit/n-pr what/pro be/cop they/pro ?/? 
CHI u875 
MOT u876 what/pro kind/n of/pre animal-PL/n be/cop they/pro ?/? 
CHI u877 yeah/int ./. 
CHI u878 Kit/n-pr ./. 
MOT u879 Kit/n-pr ./. 
MOT u880 kitten-PL/n ./. 
MOT u881 do/mod they/pro have/vb a/det tail/n ?/? 
CHI u882 yeah/int ./. 
MOT u883 then/sub cousin/n -/- 
CHI u884 Kit/n-pr ./. 
MOT u885 no/int this/pro be/cop the/det cousin/n ./. 
MOT u886 this/pro be/cop Kit/n-pr and/coo this/pro be/cop Katie/n-pr ./. 
MOT u887 Cousin/n-pr Tom/n-pr ./. 
MOT u888 Cousin/n-pr Tom/n-pr arrive-PAST/vb ./. 
MOT u889 he/pro be/cop big/adj ./. 
MOT u890 this/pro be/cop him/pro ./. 
MOT u891 let/vb us/pro go/vb on/pre the/det -/- 
CHI u892 seesaw/n ./. 
MOT u893 say/vbd Katie/n-pr to/pre Kit/n-pr ./. 
MOT u894 go-PROG/prt on/pre the/det seesaw/n with/pre Tom/n-pr be/aux not/neg any/qnt fun/n ./. 
MOT u895 let/vb us/pro play/vb with/pre our/pps pedal+car/n say/vbd -/- 
CHI u896 no/int ./. 
MOT u897 Katie/n-pr ./. 
MOT u898 she/pro be/cop in/pre what/pro be/cop she/pro in/loc ?/? 
CHI u899 a/det little/adj car/n ./. 
MOT u900 a/det little/adj car/n ./. 
MOT u901 I/pro want/vb to/inf drive/vb your/pps car/n say/vbd Tom/n-pr ./. 
MOT u902 you/pro be/aux too/adv big/adj say/vbd -/- 
CHI u903 Katie/n-pr ./. 
MOT u904 you/pro will/mod not/neg -/- 
CHI u905 fit/vbo ./. 
MOT u906 right/adj ./. 
MOT u907 Tom/n-pr try-PAST/vb to/inf climb/vb into/pre the/det -/- 
CHI u908 
MOT u909 no/int what/pro be/cop that/pro ?/? 
CHI u910 that/pro ?/? 
MOT u911 that/pro be/cop a/det car/n ./. 
MOT u912 that/pro be/cop the/det play/adj car/n ./. 
MOT u913 he/pro be/aux stick/prt ./. 
MOT u914 can/mod he/pro get/vb out/loc ?/? 
CHI u915 yeah/int ./. 
MOT u916 he/pro be/aux stick/prt in/loc there/loc he/pro can/mod not/neg get/vb out/loc ./. 
MOT u917 let/vb us/pro go/vb on/pre the/det -/- 
CHI u918 swing/n ./. 
MOT u919 say/vbd Kit/n-pr ./. 
MOT u920 help/vb cry-PAST/vb Tom/n-pr ./. 
MOT u921 Tom/n-pr be/aux stick/prt ./. 
MOT u922 we/pro will/mod help/vb you/pro say/vbd Katie/n-pr if/sub you/pro stop/vb be-PROG/n a/det bully/n ./. 
MOT u923 they/pro pull-PAST/vb and/coo pull-PAST/vb until/pre Tom/n-pr be/aux -/- 
CHI u924 finish-PERF/prt ./. 
MOT u925 right/adj ./. 
MOT u926 until/sub he/pro be/aux finish-PERF/prt and/coo they/pro take/vbd him/pro out/loc ./. 
MOT u927 now/adv let/vb us/pro go/vb on/pre the/det -/- 
CHI u928 swing-PL/n ./. 
MOT u929 say/vbd Katie/n-pr ./. 
MOT u930 I/pro will/mod go/vb first/adv say/vbd -/- 
CHI u931 that/pro ./. 
MOT u932 who/pro be/cop that/pro ?/? 
CHI u933 him/pro ./. 
MOT u934 Kit/n-pr ./. 
MOT u935 okay/int say/vbd -/- 
CHI u936 Katie/n-pr ./. 
MOT u937 I/pro will/mod push/vb ./. 
CHI u938 I/pro be/aux push-PROG/prt Kit/n-pr ./. 
MOT u939 right/adj ./. 
MOT u940 who/pro be/cop that/pro ?/? 
MOT u941 who/pro be/aux push-PROG/prt Kit/n-pr ?/? 
CHI u942 yeah/int ./. 
CHI u943 that/det friend/n ./. 
MOT u944 what/pro be/cop that/det one-POSS/idf name/n do/mod you/pro remember/vb ?/? 
CHI u945 yeah/int ./. 
CHI u946 Tom/n-pr ./. 
MOT u947 that/pro be/cop right/adj ./. 
MOT u948 that/pro be/cop cousin/n Tom/n-pr ./. 
MOT u949 who/pro be/cop the/det big-SP/adj cat/n ?/? 
MOT u950 which/det one/idf be/cop the/det big-SP/adj ?/? 
CHI u951 this/det one/idf ./. 
MOT u952 Katie/n-pr ?/? 
CHI u953 yeah/int ./. 
MOT u954 Katie/n-pr be/cop the/det big-SP/adj ?/? 
MOT u955 oh/int Tom/n-pr be/cop the/det big-SP/adj ./. 
CHI u956 Katie/n-pr be/cop big/adj ./. 
MOT u957 yeah/int she/pro be/cop the/det big/adj sister/n ./. 
MOT u958 the/det big/adj sister/n Katie/n-pr ./. 
CHI u959 yeah/int ./. 
CHI u960 
MOT u961 do/mod you/pro want/vb to/inf find/vb something/idf else/psq ?/? 
CHI u962 again/adv -/- 
MOT u963 again/adv the/det same/adj one/idf -/- 
CHI u964 
MOT u965 you/pro tell/vb it/pro to/pre me/pro ./. 
CHI u966 that/pro be/cop a/det good/adj one/idf to/inf read/vbo ./. 
MOT u967 well/int I/pro do/mod not/neg know/vb where/adv that/det book/n be/cop right/adv now/adv ./. 
MOT u968 I/pro can/mod read/vbo it/pro to/pre you/pro in/pre a/det minute/n ./. 
MOT u969 do/mod you/pro want/vb to/inf look/vb at/pre something/idf else/psq ?/? 
MOT u970 what/pro about/pre this/det one/idf ?/? 
MOT u971 what/pro be/cop this/pro ?/? 
CHI u972 no/int ./. 
MOT u973 I/pro want/vb to/inf ask/vb you/pro something/idf ./. 
CHI u974 no/int -/- 
CHI u975 I/pro do/mod not/neg want/vb that/det book/n ./. 
MOT u976 you/pro do/mod not/neg want/vb that/det book/n ./. 
MOT u977 okay/int ./. 
MOT u978 what/pro about/pre this/det dog-DIM/n ?/? 
CHI u979 no/int ./. 
MOT u980 no/int ?/? 
MOT u981 what/pro do/mod you/pro want/vb ?/? 
CHI u982 yeah/int I/pro -/- 
MOT u983 you/pro show/vb me/pro what/pro you/pro want/vb ./. 
CHI u984 that/det one/idf ./. 
MOT u985 will/mod you/pro show/vb Investigator/n-pr these/det little/adj peg+board/n these/det tiny/adj little/adj peg/n board-PL/n ?/? 
INV u986 what/pro do/mod you/pro do/vb with/pre those/pro ?/? 
CHI u987 yeah/int ./. 
MOT u988 go/vb ahead/adv ./. 
MOT u989 show/vb her/pro ./. 
MOT u990 here/loc be/cop a/det pile/n of/pre peg-PL/n too/psq ./. 
MOT u991 here/loc be/cop the/det airport/n ./. 
MOT u992 what/pro be/aux you/pro go-PROG/prt to/inf do/vb with/pre them/pro ?/? 
CHI u993 
MOT u994 go/vb ahead/adv go/vb ./. 
MOT u995 I/pro be/aux make-PROG/prt some/qnt room/n for/pre you/pro to/inf play/vb here/loc ./. 
MOT u996 I/pro be/aux make-PROG/prt some/qnt room/n for/pre you/pro right/adv here/loc ./. 
MOT u997 okay/int ?/? 
MOT u998 we/pro will/mod move/vb some/qnt of/pre the/det truck-PL/n ./. 
MOT u999 and/coo the/det horse-PL/n will/mod gallop/vb ./. 
MOT u1000 be_boom/ono be_boom/ono be_boom/ono be_boom/ono be_boom/ono ./. 
MOT u1001 be_boom/ono be_boom/ono be_boom/ono be_boom/ono be_boom/ono be_boom/ono ./. 
MOT u1002 over/loc here/loc by/pre the/det truck-PL/n they/pro be/aux go-PROG/prt to/inf stand/vb ./. 
MOT u1003 and/coo now/adv you/pro have/vb some/qnt room/n to/inf do/vb some/qnt thing-PL/n with/pre these/det peg-PL/n ./. 
CHI u1004 
MOT u1005 what/pro ?/? 
CHI u1006 yellow/adj ./. 
MOT u1007 yellow/adj ./. 
MOT u1008 what/det other/qnt color-PL/n ?/? 
CHI u1009 that/det those/det guy-PL/n ./. 
CHI u1010 red/adj red/adj ./. 
MOT u1011 that/pro look-3S/vb pretty/adj ./. 
MOT u1012 what/det color/n be/cop this/det peg+board/n ?/? 
CHI u1013 yeah/int ./. 
CHI u1014 purple/adj ./. 
MOT u1015 yeah/int ./. 
MOT u1016 do/mod you/pro want/vb to/inf make/vb a/det tower/n ?/? 
CHI u1017 yeah/int ./. 
CHI u1018 a/det grey/adj book/n ./. 
CHI u1019 green/adj book/n ./. 
MOT u1020 a/det green/adj book/n ?/? 
CHI u1021 yeah/int ./. 
MOT u1022 this/pro be/cop red/adj ./. 
MOT u1023 a/det red/adj peg+board/n ./. 
CHI u1024 that/pro be/cop a/det yellow/adj ./. 
MOT u1025 that/pro be/cop right/adj ./. 
MOT u1026 why/adv do/mod not/neg you/pro make/vb a/det tower/n ?/? 
MOT u1027 you/pro have/vb all/qnt different/adv color/adj peg-PL/n to/inf make/vb a/det tower/n ./. 
CHI u1028 
MOT u1029 what/pro be/aux you/pro do-PROG/prt ?/? 
CHI u1030 I/pro be/aux push/vb ./. 
MOT u1031 push-PROG/prt it/pro away/adv with/pre the/det foot/n ?/? 
CHI u1032 yeah/int ./. 
CHI u1033 ahhah/int -/- 
CHI u1034 up/loc ./. 
CHI u1035 oh/int ./. 
MOT u1036 oh/int ./. 
CHI u1037 oh/int ./. 
INV u1038 oh/int ?/? 
CHI u1039 what/pro happen-PAST/vb ?/? 
INV u1040 what/pro happen-PAST/vb ?/? 
CHI u1041 yeah/int ./. 
INV u1042 oh/int do/mod that/det elephant/n bounce/vb ?/? 
CHI u1043 yeah/int ./. 
CHI u1044 bounce/n bounce/n ./. 
MOT u1045 what/pro about/pre the/det rest/n of/pre those/det animal-PL/n ?/? 
CHI u1046 
MOT u1047 where/adv be/cop that/pro hedgehog/n ?/? 
CHI u1048 in/loc there/loc ./. 
MOT u1049 in/loc where/adv ?/? 
CHI u1050 
MOT u1051 what/pro be/aux you/pro get-PROG/prt ?/? 
CHI u1052 yeah/int ./. 
CHI u1053 go-PROG/prt to/inf have/vb the/det bunny/n lay/vb down/loc ./. 
MOT u1054 the/det bunny/n be/aux go-PROG/prt to/inf you/pro want/vb to/inf lay/vb the/det bunny/n down/loc ?/? 
CHI u1055 yeah/int ./. 
MOT u1056 okay/int ./. 
MOT u1057 what/pro do/mod you/pro throw/vb on/pre the/det floor/n ?/? 
MOT u1058 what/pro be/cop that/pro ?/? 
CHI u1059 
CHI u1060 bunny/n ./. 
MOT u1061 what/pro be/cop this/pro ?/? 
CHI u1062 yeah/int ./. 
CHI u1063 a/det ./. 
MOT u1064 what/pro ?/? 
MOT u1065 a/det blanket/n ?/? 
MOT u1066 oh/int you/pro be/aux kiss-PROG/prt the/det bunny/n ./. 
MOT u1067 oh/int that/pro be/cop very/adv sweet/adj ./. 
MOT u1068 be/aux the/det bunny/n take-PROG/prt a/det nap/n ?/? 
CHI u1069 yeah/int ./. 
CHI u1070 yeah/int ./. 
MOT u1071 what/pro be/aux the/det bunny/n lie-PROG/prt on/loc ?/? 
CHI u1072 yeah/int ./. 
CHI u1073 on/pre ./. 
CHI u1074 the/det bunny/n be/aux sleep-PROG/prt ./. 
MOT u1075 what/pro ?/? 
CHI u1076 Bunny/n-pr be/aux sleep-PROG/prt ./. 
MOT u1077 the/det bunny/n be/aux sleep-PROG/prt ?/? 
CHI u1078 yeah/int ./. 
MOT u1079 so/int we/pro have_to/mod be/cop quiet/adj ./. 
CHI u1080 yeah/int ./. 
MOT u1081 okay/int ./. 
MOT u1082 we/pro can/mod talk/vb quiet/adv ./. 
CHI u1083 yeah/int ./. 
MOT u1084 and/coo we/pro can/mod play/vb quiet/adv ./. 
CHI u1085 yeah/int ./. 
MOT u1086 yeah/int ./. 
CHI u1087 quiet/adj ./. 
MOT u1088 do/mod you/pro want/vb to/inf put/vbo these/det toy-PL/n in/pre the/det bag/n ?/? 
CHI u1089 yeah/int ./. 
CHI u1090 what/pro happen-PAST/vb ?/? 
MOT u1091 oh/int ./. 
MOT u1092 be/aux Mrs/n-pr Piggywinkle/n-pr go-PROG/prt in/pre the/det bag/n with/pre a/det pig/n ?/? 
CHI u1093 yeah/int ./. 
MOT u1094 what/pro be/aux she/pro go-PROG/prt to/inf do/vb in/loc there/loc ?/? 
CHI u1095 yeah/int ./. 
CHI u1096 
CHI u1097 out/loc ./. 
MOT u1098 out/loc ./. 
CHI u1099 hey/int ./. 
CHI u1100 those/det guy-PL/n ./. 
MOT u1101 what/pro be/cop those/pro ?/? 
CHI u1102 yeah/int ./. 
MOT u1103 what/pro be/cop they/pro ?/? 
MOT u1104 be/cop they/pro like/pre fur/n ?/? 
CHI u1105 no/int ./. 
MOT u1106 be/cop they/pro like/pre sticker-PL/n ?/? 
CHI u1107 yeah/int ./. 
MOT u1108 yeah/int ?/? 
MOT u1109 be/cop this/det animal/n like/pre a/det porcupine/n ?/? 
CHI u1110 yeah/int ./. 
CHI u1111 poo/int ./. 
MOT u1112 a/det porcupine/n ?/? 
MOT u1113 oh/int -/- 
MOT u1114 it/pro roll-PAST/vb away/adv ./. 
MOT u1115 go/vb get/vb it/pro ./. 
CHI u1116 yeah/int ./. 
CHI u1117 I/pro want/vb to/inf ./. 
MOT u1118 where/adv be/aux you/pro go-PROG/prt ?/? 
CHI u1119 there/int ./. 
MOT u1120 go/vb get/vb Mrs/n-pr Piggywinkle/n-pr ./. 
MOT u1121 go/vb get/vb that/det hedgehog/n ./. 
CHI u1122 
MOT u1123 hey/int Child/n-pr come/vb here/loc ./. 
MOT u1124 look/vb at/pre this/det one/idf ./. 
CHI u1125 tissue-PL/n ./. 
CHI u1126 tissue-PL/n ./. 
CHI u1127 tissue-PL/n ./. 
MOT u1128 who/pro need-3S/vb the/det tissue-PL/n ?/? 
CHI u1129 I/pro have/vb one/idf ./. 
CHI u1130 
CHI u1131 daddy/n ./. 
CHI u1132 
MOT u1133 do/mod daddy/n need/vb a/det tissue/n ?/? 
CHI u1134 yeah/int ./. 
MOT u1135 Daddy/n-pr be/cop not/neg here/loc right/adv now/adv he/pro go/vbd on/pre a/det train/n ./. 
CHI u1136 train/n go/vbd on/pre a/det train/n ./. 
MOT u1137 yes/int when/sub he/pro come-3S/vb back/loc you/pro can/mod give/vb him/pro a/det tissue/n ./. 
MOT u1138 why/adv do/mod he/pro need/vb a/det tissue/n ?/? 
MOT u1139 what/pro be/cop the/det matter/n with/pre daddy/n ?/? 
CHI u1140 yeah/int ./. 
MOT u1141 what/pro be/cop the/det matter/n ?/? 
CHI u1142 cold/n ./. 
CHI u1143 he/pro have/vbs a/det cold/n ./. 
MOT u1144 he/pro have/vbs a/det cold/n ./. 
MOT u1145 that/pro be/cop right/adj ./. 
CHI u1146 and/coo doctor/n have/vbs a/det the/det cold/n ./. 
MOT u1147 doctor/n ?/? 
MOT u1148 doctor/n who/pro ?/? 
CHI u1149 doctor/n have/vbs a/det cold/n ./. 
MOT u1150 who/pro be/cop what/det doctor/n have/vbs a/det cold/n ?/? 
CHI u1151 yeah/int ./. 
MOT u1152 doctor/n who/pro ?/? 
CHI u1153 doctor/n La/n-pr Lastname/n-pr ./. 
MOT u1154 doctor/n Lastname/n-pr Child/n-pr s/pos doctor/n ?/? 
CHI u1155 yeah/int ./. 
CHI u1156 be/cop very/adv quiet/adj -/- 
MOT u1157 be/cop very/adv quiet/adj ./. 
MOT u1158 because/sub the/det bunny/n be/aux sleep-PROG/prt you/pro be/cop right/adj ./. 
CHI u1159 wake/vb the/det bunny/n up/loc ./. 
MOT u1160 it/pro be/cop time/n for/pre the/det bunny/n to/inf wake/vb up/loc ?/? 
CHI u1161 it/pro have/aux gotta/mod he/pro be/cop ./. 
MOT u1162 what/pro ?/? 
CHI u1163 there/int -/- 
MOT u1164 be/cop the/det bunny/n ?/? 
MOT u1165 be/aux the/det bunny/n still/adv sleep-PROG/prt ?/? 
CHI u1166 he/pro he/pro he/pro he/pro want/vb a/det tissue/n ./. 
MOT u1167 the/det bunny/n need-3S/vb a/det tissue/n ?/? 
CHI u1168 yeah/int ./. 
MOT u1169 the/det bunny/n have/vbs a/det cold/n ?/? 
CHI u1170 yeah/int ./. 
MOT u1171 what/pro be/aux you/pro do-PROG/prt ?/? 
CHI u1172 yeah/int ./. 
MOT u1173 be/aux the/det bunny/n blow-PROG/prt ?/? 
CHI u1174 yeah/int ./. 
MOT u1175 blow-PROG/prt what/pro ?/? 
CHI u1176 tissue-PL/n -/- 
MOT u1177 how/adv many/qnt tissue-PL/n can/mod one/num tiny/adj bunny/n use/vb ?/? 
MOT u1178 oh/int ./. 
INV u1179 thank_you/int ./. 
CHI u1180 tissue-PL/n ./. 
MOT u1181 yeah/int ./. 
INV u1182 thank_you/int ./. 
MOT u1183 in/pre case/n we/pro have_to/mod blow/vb our/pps nose/n ./. 
CHI u1184 yeah/int ./. 
MOT u1185 will/mod you/pro like/vb to/inf blow/vb your/pps nose/n ?/? 
CHI u1186 yeah/int ./. 
MOT u1187 yeah/int ./. 
MOT u1188 where/adv be/aux you/pro go-PROG/prt ?/? 
MOT u1189 come/vb back/loc here/loc ./. 
CHI u1190 run-PROG/prt ./. 
MOT u1191 run/vb back/loc in/pre the/det live+room/n ./. 
CHI u1192 run-PROG/prt ./. 
CHI u1193 hand/n in/loc there/loc ./. 
MOT u1194 you/pro put/vbo your/pps hand/n in/pre my/pps giant/adj boot/n ?/? 
MOT u1195 come/vb back/loc here/loc ./. 
CHI u1196 
MOT u1197 you/pro want/vb to/inf wear/vb -/- 
MOT u1198 what/pro be/cop that/pro ?/? 
CHI u1199 back/loc ./. 
MOT u1200 what/pro be/cop that/pro ?/? 
CHI u1201 that/pro a/det shoe/n ./. 
MOT u1202 do/mod that/pro fit/vb you/pro ?/? 
CHI u1203 yeah/int ./. 
MOT u1204 that/pro fit-3S/vb Child/n-pr ?/? 
CHI u1205 yeah/int ./. 
MOT u1206 no/int ./. 
CHI u1207 
MOT u1208 what/pro about/pre this/det bunny/n ?/? 
CHI u1209 a/det bunny/n -/- 
INV u1210 that/pro be/cop a/det cute/adj bunny/n ./. 
CHI u1211 yeah/int ./. 
INV u1212 what/pro be/aux that/det bunny/n eat-PROG/prt ?/? 
CHI u1213 a/det carrot/n ./. 
CHI u1214 he/pro eat-PROG/prt it/pro and/coo turn/vb it/pro over/loc ./. 
CHI u1215 he/pro eat/vb it/pro and/coo turn/vb it/pro over/loc ./. 
MOT u1216 he/pro turn-PAST/vb the/det carrot/n over/loc ?/? 
CHI u1217 yeah/int ./. 
MOT u1218 let/vb us/pro see/vb ./. 
CHI u1219 
MOT u1220 so/int he/pro can/mod eat/vb the/det green-PL/n ?/? 
CHI u1221 yeah/int ./. 
MOT u1222 be/aux he/pro eat-PROG/prt carrot+top/n ?/? 
CHI u1223 yeah/int ./. 
CHI u1224 haha/int ./. 
MOT u1225 haha/int ./. 
MOT u1226 very/adv fun/adj ./. 
CHI u1227 
MOT u1228 big/adj joke/n ./. 
CHI u1229 
INV u1230 haha/int ./. 
CHI u1231 
INV u1232 what/pro be/cop this/pro here/loc ?/? 
CHI u1233 a/det big/adj orange/n ./. 
INV u1234 a/det what/pro ?/? 
CHI u1235 orange/n ./. 
INV u1236 orange/n ./. 
CHI u1237 
CHI u1238 haha/int ./. 
CHI u1239 oop/int ./. 
MOT u1240 what/pro be/aux that/det duck/n do-PROG/prt ?/? 
MOT u1241 what/pro be/aux that/det duck/n do-PROG/prt ?/? 
CHI u1242 boom/int ./. 
INV u1243 do/mod you/pro fall/vb down/loc ?/? 
CHI u1244 yeah/int ./. 
INV u1245 do/mod you/pro trip/vb on/pre the/det cement+truck/n ?/? 
MOT u1246 what/pro do/mod you/pro do/vb to/pre that/det truck/n ?/? 
CHI u1247 yeah/int ./. 
MOT u1248 go/vb get/vb it/pro ./. 
MOT u1249 where/adv be/cop it/pro ?/? 
CHI u1250 
MOT u1251 where/adv be/cop it/pro ?/? 
CHI u1252 right/adv there/loc ./. 
MOT u1253 come/vb here/loc ./. 
CHI u1254 I/pro cross/vb ./. 
MOT u1255 what/pro ?/? 
CHI u1256 I/pro do/mod I/pro do/vbd across/adv ./. 
MOT u1257 right/adv here/loc ?/? 
MOT u1258 across/adv ?/? 
MOT u1259 you/pro throw/vbd it/pro across/adv ?/? 
CHI u1260 yeah/int ./. 
MOT u1261 be/cop this/pro it/pro ?/? 
CHI u1262 yeah/int ./. 
MOT u1263 come/vb here/loc ./. 
MOT u1264 what/pro be/cop this/pro ?/? 
CHI u1265 yeah/int ./. 
CHI u1266 where/adv where/adv -/- 
MOT u1267 what/pro be/cop that/pro ?/? 
MOT u1268 we/pro be/aux just/adv fix-PROG/prt that/pro ?/? 
MOT u1269 do/mod you/pro know/vb what/pro that/pro be/cop ?/? 
CHI u1270 yeah/int ./. 
MOT u1271 what/pro be/cop that/pro ?/? 
CHI u1272 yeah/int ./. 
MOT u1273 a/det lightbulb/n ./. 
CHI u1274 a/det bulb/n ./. 
MOT u1275 bulb/n that/pro be/cop right/adj ./. 
MOT u1276 that/pro be/cop what/pro it/pro be/cop ./. 
MOT u1277 what/pro be/cop that/pro ?/? 
CHI u1278 what/pro happen-PAST/vb ?/? 
CHI u1279 what/pro be/cop that/pro ?/? 
MOT u1280 be/cop that/pro a/det television/n ?/? 
CHI u1281 yeah/int ./. 
MOT u1282 what/pro about/pre that/pro ?/? 
MOT u1283 you/pro be/aux talk-PROG/prt about/pre that/pro yesterday/tem ./. 
MOT u1284 what/pro be/cop that/pro ?/? 
CHI u1285 yeah/int ./. 
CHI u1286 what/pro be/cop that/pro ?/? 
MOT u1287 it/pro be/cop a/det big/adj vacuum+cleaner/n ./. 
CHI u1288 be/cop that/pro a/det other/qnt one/idf ./. 
MOT u1289 another/qnt what/pro ?/? 
CHI u1290 other/qnt light+bulb/n ./. 
MOT u1291 that/pro be/cop right/adj ./. 
MOT u1292 what/pro be/cop this/pro ?/? 
CHI u1293 yeah/int ./. 
MOT u1294 it/pro be/cop the/det same/n as/pre that/pro ./. 
CHI u1295 a/det fire/n ./. 
MOT u1296 yes/int ./. 
MOT u1297 fire_place/n ./. 
MOT u1298 fire_place/n be/cop where/rel we/pro put/vbo the/det fire/n ./. 
CHI u1299 yeah/int ./. 
MOT u1300 what/pro about/pre that/pro ?/? 
CHI u1301 a/det telephone/n ./. 
MOT u1302 that/pro be/cop right/adj ./. 
MOT u1303 who/pro be/aux you/pro go-PROG/prt to/inf call/vb ?/? 
CHI u1304 yeah/int ./. 
MOT u1305 do/mod you/pro want/vb to/inf talk/vb to/pre somebody/idf on/pre the/det telephone/n ?/? 
CHI u1306 yeah/int ./. 
MOT u1307 who/pro ?/? 
CHI u1308 yeah/int grandma/n ./. 
MOT u1309 Grandma/n-pr who/pro ?/? 
CHI u1310 Grandma/n-pr Lastname/n-pr ./. 
MOT u1311 Grandma/n-pr Lastname/n-pr ./. 
CHI u1312 yeah/int ./. 
MOT u1313 be/cop that/det grandma/n Izzy/n-pr or/coo your/pps Yaya/n-pr ?/? 
CHI u1314 hard/adj ./. 
MOT u1315 it/pro be/cop hard/adj ?/? 
MOT u1316 pull/vb them/pro apart/adv ./. 
CHI u1317 let/vbo go/vb ./. 
CHI u1318 let/vbo go/vb ./. 
MOT u1319 let/vbo go/vb ./. 
MOT u1320 pull/vb pull/vb pull/vb pull/vb pull/vb ./. 
CHI u1321 off/adv -/- 
MOT u1322 oh/int pull/vb hard/adv ./. 
MOT u1323 want/vb me/pro to/inf help/vb you/pro ?/? 
CHI u1324 yeah/int ./. 
MOT u1325 you/pro pull/vb these/pro ./. 
MOT u1326 
MOT u1327 it/pro pop-PAST/vb ./. 
CHI u1328 it/pro pop-PAST/vb ./. 
MOT u1329 oh/int ./. 
MOT u1330 very/adv hard/adj ./. 
MOT u1331 where/adv be/cop the/det little/adj peg+board/n ?/? 
MOT u1332 put/vbo them/pro in/pre the/det peg+board/n ./. 
CHI u1333 peg-PL/n ./. 
INV u1334 these/pro be/cop all/qnt peg-PL/n ?/? 
CHI u1335 what/pro the/det bunny/n eat-PROG/prt ?/? 
INV u1336 what/pro be/cop the/det bunny/n do-PROG/prt ?/? 
CHI u1337 yeah/int ./. 
INV u1338 be/cop he/pro go-PROG/prt to/inf eat/vb those/det peg-PL/n ?/? 
CHI u1339 oh/int what/pro be/cop ./. 
CHI u1340 
CHI u1341 other/qnt one/idf ./. 
MOT u1342 another/qnt light+bulb/n ?/? 
CHI u1343 yeah/int ./. 
CHI u1344 Grandpa/n-pr grandpa/n fix-PAST/vb the/det light/n ./. 
MOT u1345 Grandpa/n-pr fix-PAST/vb the/det light/n ?/? 
CHI u1346 yeah/int ./. 
MOT u1347 that/pro be/cop right/adj ./. 
MOT u1348 Grandpa/n-pr help-3S/vb to/inf fix/vb the/det light/n ./. 
CHI u1349 and/coo a/det bulb/n ./. 
MOT u1350 right/adj ./. 
CHI u1351 and/coo a/det lamp/n ./. 
MOT u1352 exact/adv ./. 
CHI u1353 
CHI u1354 and/coo the/det moon/n ./. 
MOT u1355 let/vb us/pro see/vb if/sub we/pro can/mod find/vb the/det moon/n in/pre the/det book/n ./. 
CHI u1356 no/int ./. 
CHI u1357 be/cop no/qnt moon/n ./. 
MOT u1358 be/cop no/qnt moon/n in/pre this/det book/n ?/? 
CHI u1359 no/int ./. 
MOT u1360 be/cop one/num page/n that/rel might/mod have/vb a/det moon/n ./. 
MOT u1361 let/vb us/pro look/vb ./. 
MOT u1362 it/pro be/cop a/det picture/n of/pre the/det great/adj outdoors/n ./. 
CHI u1363 no/int ./. 
MOT u1364 no/qnt moon/n it/pro have/vbs a/det cloud/n ./. 
CHI u1365 moon/n ./. 
MOT u1366 where/adv be/cop the/det moon/n ?/? 
CHI u1367 yeah/int ./. 
CHI u1368 go/vbd away/adv ./. 
MOT u1369 what/pro be/cop this/pro ?/? 
CHI u1370 it/pro go/vbd a/det go/vbd away/adv ./. 
MOT u1371 it/pro go/vbd away/adv ?/? 
MOT u1372 maybe/adv it/pro be/cop not/neg dark/adj enough/adv ./. 
MOT u1373 this/pro be/cop the/det day/n ./. 
MOT u1374 right/adj ?/? 
MOT u1375 the/det sky/n be/cop light/adj ./. 
CHI u1376 cocoon/n ./. 
CHI u1377 and/coo that/pro a/det little/adj butter_fly/n ./. 
MOT u1378 that/pro be/cop right/adj ./. 
MOT u1379 what/pro else/psq be/cop in/pre this/det picture/n ?/? 
CHI u1380 yeah/int ./. 
CHI u1381 yeah/int ./. 
MOT u1382 what/pro ?/? 
CHI u1383 hop/n ./. 
CHI u1384 hop/n ./. 
CHI u1385 hair/n ./. 
INV u1386 hair/n ?/? 
CHI u1387 ear-PL/n ./. 
INV u1388 where/adv be/cop your/pps ear-PL/n ?/? 
CHI u1389 right/adv here/loc ./. 
INV u1390 I/pro can/mod not/neg see/vb them/pro ./. 
MOT u1391 be/cop they/pro behind/pre your/pps hair/n ?/? 
CHI u1392 yeah/int ./. 
MOT u1393 move/vb your/pps hair/n ./. 
MOT u1394 the/det other/qnt way/n ./. 
MOT u1395 move/vb it/pro back/loc ./. 
MOT u1396 move/vb it/pro to/pre your/pps back/n ./. 
CHI u1397 no/int ./. 
MOT u1398 want/vb me/pro to/inf move/vb it/pro back/loc so/sub you/pro can/mod show/vb her/pro your/pps ear-PL/n ?/? 
INV u1399 now/adv I/pro see/vb your/pps ear-PL/n ./. 
MOT u1400 there/loc be/cop your/pps ear-PL/n ./. 
INV u1401 there/loc they/pro be/cop ./. 
MOT u1402 so/adv pretty/adj so/adv pretty/adj ./. 
CHI u1403 ow/int ./. 
MOT u1404 out/loc ?/? 
CHI u1405 down/loc ./. 
CHI u1406 down/loc ./. 
MOT u1407 down/loc ?/? 
MOT u1408 like/vb this/pro ?/? 
MOT u1409 like/vb that/pro ?/? 
CHI u1410 Annie/n-pr ./. 
CHI u1411 Annie/n-pr ./. 
CHI u1412 
MOT u1413 where/adv be/cop Annie/n-pr ?/? 
MOT u1414 where/adv be/cop she/pro ?/? 
CHI u1415 there/loc ./. 
MOT u1416 there/loc she/pro be/cop ./. 
CHI u1417 hop/vb ./. 
CHI u1418 
MOT u1419 who/pro be/aux sleep-PROG/prt ?/? 
CHI u1420 another/qnt one/idf ./. 
MOT u1421 Child/n-pr be/aux go-PROG/prt to/inf sleep/vb ?/? 
CHI u1422 now/adv I/pro wake/vb up/loc ./. 
MOT u1423 now/adv you/pro be/cop awake/adj ?/? 
MOT u1424 that/pro be/cop a/det very/adv fast/adj nap/n ./. 
CHI u1425 up/loc ./. 
MOT u1426 get/vb up/loc ./. 
MOT u1427 you/pro can/mod get/vb up/loc there/loc if/sub you/pro want/vb ./. 
MOT u1428 I/pro want/vb to/inf wipe/vb your/pps nose/n ./. 
CHI u1429 awake/adj ./. 
MOT u1430 you/pro be/cop awake/adj ?/? 
MOT u1431 wake/vb up/loc -/- 
MOT u1432 time/n to/pre wake/vb up/loc ./. 
MOT u1433 will/mod you/pro like/vb some/qnt breakfast/n ?/? 
CHI u1434 yeah/int ./. 
MOT u1435 what/pro will/mod you/pro like/vb for/pre breakfast/n ?/? 
CHI u1436 yeah/int ./. 
MOT u1437 oh/int come/vb here/loc come/vb here/loc ./. 
CHI u1438 tuna/n ./. 
MOT u1439 you/pro will/mod like/vb some/qnt tuna/n ?/? 
CHI u1440 tuna/n ./. 
INV u1441 for/pre breakfast/n ?/? 
CHI u1442 look/vb out/loc ./. 
MOT u1443 be/cop that/pro your/pps pocket_book/n ?/? 
CHI u1444 yeah/int ./. 
MOT u1445 be/cop that/pro Child/n-pr s/pos purse/n ?/? 
CHI u1446 yeah/int ./. 
MOT u1447 what/pro do/mod you/pro put/vbo in/loc there/loc ?/? 
CHI u1448 crayon-PL/n ./. 
MOT u1449 that/pro be/cop right/adj ./. 
CHI u1450 I/pro be/aux play-PROG/prt ./. 
CHI u1451 the/det train/n -/- 
MOT u1452 you/pro hear/vbd the/det train/n ?/? 
CHI u1453 yeah/int ./. 
CHI u1454 
MOT u1455 let/vbo me/pro see/vb ./. 
MOT u1456 what/pro be/cop in/pre that/det bag/n right/adv now/adv ?/? 
CHI u1457 crayon-PL/n be/cop not/neg in/loc there/loc ./. 
MOT u1458 where/adv be/cop the/det crayon-PL/n ?/? 
CHI u1459 in/pre the/det the/det ./. 
MOT u1460 oh/int you/pro draw/vbd a/det picture/n ./. 
MOT u1461 be/cop that/pro what/rel you/pro mean/vb ?/? 
CHI u1462 it/pro be/aux close-PERF/prt ./. 
MOT u1463 the/det picture/n be/aux fold-PERF/prt ?/? 
MOT u1464 it/pro be/aux close-PERF/prt ?/? 
CHI u1465 the/det fold-PERF/prt -/- 
MOT u1466 do/vb you/pro want/vb me/pro to/inf take/vb it/pro down/loc so/sub you/pro can/mod look/vb at/pre it/pro ?/? 
CHI u1467 yeah/int ./. 
MOT u1468 okay/int I/pro will/mod go/vb get/vb it/pro ./. 
CHI u1469 I/pro will/mod go/vb get/vb ./. 
MOT u1470 it/pro be/cop right/adv there/loc ./. 
MOT u1471 here/int you/pro hold/vb your/pps purse/n ./. 
MOT u1472 okay/int I/pro be/aux go-PROG/prt to/inf get/vb the/det picture/n down/loc now/adv ./. 
MOT u1473 I/pro will/mod take/vb this/det picture/n down/pre too/psq ./. 
MOT u1474 here/int you/pro want/vb to/inf tell/vb Investigator/n-pr what/pro this/det picture/n be/cop ?/? 
CHI u1475 it/pro be/cop -/- 
CHI u1476 where/adv the/det picture/n ?/? 
MOT u1477 what/pro be/cop this/pro ?/? 
MOT u1478 who/pro be/cop that/pro ?/? 
CHI u1479 dad/adj ./. 
MOT u1480 and/coo -/- 
CHI u1481 Child/n-pr ./. 
MOT u1482 what/pro be/aux you/pro do-PROG/prt ?/? 
CHI u1483 that/pro be/cop a/det dunk-PROG/n ./. 
MOT u1484 you/pro be/aux dunk-PROG/prt in/pre the/det water/n ?/? 
CHI u1485 yeah/int ./. 
MOT u1486 where/adv be/cop that/pro ?/? 
MOT u1487 do/mod you/pro remember/vb where/adv that/pro be/cop ?/? 
CHI u1488 yeah/int ./. 
CHI u1489 from/pre the/det beach/n ./. 
MOT u1490 from/pre the/det beach/n that/pro be/cop right/adj ./. 
CHI u1491 yeah/int ./. 
MOT u1492 what/pro else/psq ?/? 
CHI u1493 yeah/int ./. 
MOT u1494 be/aux you/pro wear-PROG/prt something/idf on/pre your/pps head/n ?/? 
CHI u1495 hat/n ./. 
MOT u1496 yeah/int ./. 
MOT u1497 do/mod you/pro remember/vb that/pro hat/n ?/? 
CHI u1498 yeah/int ./. 
MOT u1499 it/pro have/vbd something/idf on/pre it/pro ./. 
MOT u1500 what/pro do/mod it/pro have/vb on/pre it/pro ?/? 
CHI u1501 yeah/int ./. 
MOT u1502 do/mod it/pro have/vb some/qnt little/adj cherry-PL/n on/pre it/pro ?/? 
CHI u1503 yeah/int ./. 
CHI u1504 have/vb the/det cherry-PL/n ./. 
MOT u1505 that/pro be/cop right/adj ./. 
MOT u1506 and/coo what/pro be/cop these/pro ?/? 
CHI u1507 umbrella-PL/n ./. 
MOT u1508 beach+umbrella/n ./. 
MOT u1509 that/pro be/cop right/adj ./. 
MOT u1510 show/vb Investigator/n-pr ./. 
CHI u1511 and/coo under/pre umbrella-PL/n ./. 
MOT u1512 you/pro lay/vbd under/pre the/det umbrella/n ?/? 
MOT u1513 so/sub we/pro do/mod not/neg get/vb a/det sunburn/n ./. 
CHI u1514 we/pro put/vbo on/pre lotion/n ./. 
MOT u1515 you/pro put/vbo on/pre lotion/n ?/? 
CHI u1516 yeah/int ./. 
MOT u1517 where/adv do/mod you/pro put/vbo the/det lotion/n ?/? 
CHI u1518 right/adv here/loc ./. 
MOT u1519 right/adv here/loc ?/? 
MOT u1520 where/adv else/psq ?/? 
CHI u1521 there/loc ./. 
MOT u1522 on/pre your/pps eye_brow/n ?/? 
CHI u1523 and/coo there/loc ./. 
MOT u1524 on/pre your/pps ear-PL/n ?/? 
MOT u1525 on/pre your/pps neck/n ?/? 
MOT u1526 what/pro about/pre this/pro ?/? 
CHI u1527 on/pre the/det back/n ./. 
MOT u1528 on/pre your/pps belly/n ?/? 
MOT u1529 on/pre your/pps belly/n ?/? 
CHI u1530 yeah/int ./. 
MOT u1531 on/pre your/pps leg-PL/n ?/? 
CHI u1532 yeah/int ./. 
MOT u1533 where/adv else/psq ?/? 
CHI u1534 yeah/int ./. 
CHI u1535 
MOT u1536 in/pre the/det living+room/n ?/? 
CHI u1537 yeah/int ./. 
MOT u1538 no/int ./. 
CHI u1539 on/pre that/pro ./. 
CHI u1540 
INV u1541 what/pro be/cop that/pro ?/? 
MOT u1542 what/pro be/cop that/pro ?/? 
CHI u1543 a/det boot/n ./. 
CHI u1544 water/n ./. 
CHI u1545 water/n in/loc there/loc ./. 
INV u1546 you/pro put/vbo water/n in/loc here/loc ?/? 
CHI u1547 look/vb mama/n ./. 
MOT u1548 you/pro want/vb me/pro to/inf go/vb put/vbo some/qnt water/n in/loc here/loc ?/? 
CHI u1549 yes/int ./. 
MOT u1550 okay/int you/pro stay/vb in/loc here/loc and/coo tell/vb Investigator/n-pr some/qnt more/qnt thing-PL/n ./. 
INV u1551 maybe/adv I/pro should/mod start/vb pick-PROG/prt these/det thing-PL/n up/loc ./. 
MOT u1552 okay/int ./. 
INV u1553 Child/n-pr can/mod you/pro help/vb me/pro put/vbo my/pps thing-PL/n back/loc in/pre the/det bag/n ?/? 
CHI u1554 yeah/int ./. 
MOT u1555 here/loc be/cop the/det bag/n ./. 
MOT u1556 can/mod you/pro hold/vb that/pro open/adj ?/? 
INV u1557 I/pro will/mod hold/vb it/pro open/adj and/coo you/pro put/vbo the/det thing-PL/n in/loc there/loc okay/int ?/? 
CHI u1558 okay/int ./. 
INV u1559 and/coo the/det elephant/n ./. 
INV u1560 what/pro else/psq go-3S/vb in/loc there/loc ?/? 
INV u1561 the/det sport+car/n and/coo the/det dog/n and/coo where/adv do/mod the/det hedgehog/n go/vb ?/? 
INV u1562 do/mod you/pro remember/vb where/adv the/det hedgehog/n be/cop ?/? 
CHI u1563 out/loc there/loc ./. 
INV u1564 can/mod you/pro go/vb get/vb the/det hedgehog/n for/pre me/pro ?/? 
CHI u1565 yeah/int ./. 
MOT u1566 sound-3S/vb like/pre a/det bird-DIM/n ./. 
INV u1567 here/int he/pro go-3S/vb ./. 
MOT u1568 what/pro do/mod you/pro do/vb with/pre it/pro ?/? 
MOT u1569 what/pro do/mod you/pro do/vb with/pre that/det water/n ?/? 
MOT u1570 what/pro do/mod you/pro do/vb with/pre the/det water/n silly/adj ?/? 
INV u1571 do/mod you/pro drink/vb the/det water/n ?/? 
MOT u1572 
MOT u1573 be/aux you/pro go-PROG/prt to/inf put/vbo the/det rest/n of/pre the/det toy-PL/n in/pre the/det bag/n ?/? 
CHI u1574 
MOT u1575 put/vbo the/det toy-PL/n in/pre the/det bag/n I/pro be/aux go-PROG/prt to/inf get/vb a/det pen/n ./. 
INV u1576 thank_you/int ./. 
CHI u1577 shut/vbo shut/vbo it/pro off/adv ./. 
INV u1578 should/mod I/pro shut/vbo it/pro off/adv now/adv ?/? 
INV u1579 it/pro be/aux almost/adv do/prt ./. 
MOT u1580 be/cop it/pro time/n to/inf stop/vb now/adv ?/? 
CHI u1581 yeah/int ./. 
MOT u1582 okay/int ./. 
INV u1583 okay/int I/pro can/mod turn/vb it/pro off/adv now/adv ./. 
