TAG,adj,adv,aux,chi,coo,cop,det,ext,ger,ger-pl,idf,idf-pl,inf,int,let,let-pl,meta,mod,n,n-pl,n-pr,neg,num,num-pl,ono,pos,pps,pre,pro,prt,prt-pf,prt-pg,psq,qnt,ref,rel,sub,tem,test,vb,vbd,vbo,vbs,wpl,Total,Precision
adj,595,25,0,0,0,0,0,0,0,0,0,0,0,6,0,0,0,0,19,0,0,0,0,0,0,0,0,0,0,0,0,4,0,0,0,0,0,0,0,18,1,0,0,0,668,89.07
adv,16,1988,0,1,0,0,0,6,0,0,0,0,0,0,0,0,0,0,11,0,0,0,0,0,0,0,0,36,2,0,0,1,2,2,0,0,5,0,1,2,0,0,0,0,2073,95.9
aux,0,0,59,0,0,18,0,0,0,0,0,0,0,0,0,0,0,0,0,0,0,0,0,0,0,0,0,0,0,0,0,0,0,0,0,0,0,0,0,6,0,0,0,0,83,71.08
chi,0,0,0,72,0,0,0,0,0,0,0,0,0,1,0,0,0,0,6,0,0,0,0,0,2,0,0,0,0,0,0,0,0,0,0,0,0,0,0,0,0,0,0,0,81,88.89
coo,0,0,0,0,395,0,0,0,0,0,0,0,0,0,0,0,0,0,0,0,0,0,0,0,0,0,0,0,0,0,0,0,0,0,0,0,0,0,0,0,0,0,0,0,395,100.0
cop,0,0,10,0,0,375,0,0,0,0,0,0,0,0,0,0,0,0,0,0,0,0,0,0,0,0,0,0,0,0,0,0,0,0,0,0,0,0,0,0,0,0,0,0,385,97.4
det,0,0,0,0,0,0,1636,0,0,0,0,0,0,0,5,0,0,0,0,0,0,0,0,0,0,0,0,0,30,0,0,0,0,0,0,0,0,0,0,1,0,0,0,0,1672,97.85
ext,0,7,0,0,0,0,0,16,0,0,0,0,0,0,0,0,0,0,0,0,0,0,0,0,0,0,0,0,0,0,0,0,0,0,0,0,0,0,0,0,0,0,0,0,23,69.57
ger,0,0,0,0,0,0,0,0,3,0,0,0,0,0,0,0,0,0,1,0,0,0,0,0,0,0,0,0,0,1,0,1,0,0,0,0,0,0,0,0,1,0,0,0,7,42.86
ger-pl,0,0,0,0,0,0,0,0,0,0,0,0,0,0,0,0,0,0,1,0,0,0,0,0,0,0,0,0,0,0,0,0,0,0,0,0,0,0,0,1,0,0,0,0,2,50.0
idf,0,9,0,0,0,0,0,0,0,0,259,3,0,0,0,0,0,0,4,0,0,0,4,0,0,0,0,0,0,0,0,0,0,13,0,0,0,0,0,0,0,0,0,0,292,88.7
idf-pl,0,0,0,0,0,0,0,0,0,0,5,0,0,0,0,0,0,0,0,0,0,0,0,0,0,0,0,0,0,0,0,0,0,0,0,0,0,0,0,0,0,0,0,0,5,100.0
inf,0,0,0,0,0,0,0,0,0,0,0,0,125,0,0,0,0,0,0,0,0,0,0,0,0,0,0,9,0,0,0,0,0,0,0,0,0,0,0,0,0,0,0,0,134,93.28
int,7,1,0,2,0,0,0,0,0,0,0,0,0,2028,0,0,1,0,10,0,0,0,0,0,3,0,0,0,0,0,0,1,0,7,0,0,1,0,0,28,0,0,0,0,2089,97.08
let,0,0,0,0,0,0,5,0,0,0,0,0,0,1,289,1,0,0,2,0,0,0,0,0,0,0,0,0,0,0,0,0,0,0,0,0,0,0,0,1,0,0,0,0,299,96.66
let-pl,0,0,0,0,0,0,0,0,0,0,0,0,0,0,0,2,0,0,0,0,0,0,0,0,0,0,0,0,0,0,0,0,0,0,0,0,0,0,0,0,0,0,0,0,2,100.0
meta,0,0,0,0,0,0,0,0,0,0,0,0,0,3,0,0,4,0,2,0,0,0,0,0,1,0,0,0,0,0,0,0,0,0,0,0,0,0,0,0,0,0,0,0,10,40.0
mod,0,1,0,0,0,0,0,0,0,0,0,0,0,0,0,0,0,392,0,0,0,0,0,0,0,0,0,0,0,0,0,9,0,0,0,0,0,0,0,9,0,0,0,0,411,95.38
n,49,14,0,3,0,0,0,0,1,0,1,0,0,6,0,0,0,3,5457,79,0,0,0,0,6,0,0,0,0,0,0,24,0,0,1,0,1,0,0,116,3,0,0,0,5764,94.67
n-pl,0,0,0,0,0,0,0,0,0,0,0,0,0,0,0,0,0,0,221,179,0,0,0,0,1,0,0,0,0,0,0,1,0,0,0,0,0,0,0,2,1,0,0,0,405,54.57
n-pr,0,0,0,0,0,0,0,0,0,0,0,0,0,0,0,0,1,0,0,0,3265,0,0,0,0,0,0,0,0,0,0,0,0,0,0,0,0,0,0,0,0,0,0,0,3266,99.97
neg,0,0,0,0,0,0,0,0,0,0,0,0,0,0,0,0,0,0,0,0,0,301,0,0,0,0,0,0,0,0,0,0,0,0,0,0,0,0,0,0,0,0,0,0,301,100.0
num,0,0,0,0,0,0,0,0,0,0,14,0,0,0,0,0,0,0,0,0,0,0,346,3,0,0,0,0,0,0,0,0,0,0,0,0,0,0,0,0,0,0,0,0,363,95.32
num-pl,0,0,0,0,0,0,0,0,0,0,0,0,0,0,0,0,0,0,0,0,0,0,2,0,0,0,0,0,0,0,0,0,0,0,0,0,0,0,0,0,0,0,0,0,2,100.0
ono,0,1,0,2,0,0,0,0,0,0,0,0,0,3,0,0,1,0,5,0,0,0,0,0,36,0,0,0,0,0,0,0,0,0,0,0,0,0,0,1,0,0,0,0,49,73.47
pos,0,0,0,0,0,0,0,0,0,0,0,0,0,0,0,0,0,0,0,0,0,0,0,0,0,56,0,0,0,0,0,0,0,0,0,0,0,0,0,0,0,0,0,0,56,100.0
pps,0,0,0,0,0,0,0,0,0,0,0,0,0,0,0,0,0,0,0,0,0,0,0,0,0,0,654,0,2,0,0,0,0,0,0,0,0,0,0,1,0,0,0,0,657,99.54
pre,0,45,0,1,0,0,0,0,0,0,0,0,8,0,0,0,0,0,2,0,0,0,0,0,0,0,0,1219,0,0,0,1,0,0,0,0,2,0,0,6,0,0,0,0,1284,94.94
pro,0,0,0,0,0,0,11,0,0,0,0,0,0,0,0,0,0,0,0,0,0,0,0,0,0,0,3,0,4864,0,0,0,0,0,0,0,0,0,0,0,0,0,0,0,4878,99.71
prt,0,0,0,0,0,0,0,0,1,0,0,0,0,0,0,0,0,0,0,0,0,0,0,0,0,0,0,0,0,0,0,0,0,0,0,0,0,0,0,0,0,0,0,0,1,100.0
prt-pf,0,0,0,0,0,0,0,0,0,0,0,0,0,0,0,0,0,0,4,0,0,0,0,0,0,0,0,0,0,0,22,19,0,0,0,0,0,0,0,16,2,0,0,0,63,34.92
prt-pg,1,1,0,0,0,2,0,0,1,0,0,0,0,1,0,0,0,1,49,0,0,0,0,0,0,0,0,2,0,0,5,377,0,0,0,0,0,0,0,352,15,29,3,0,839,44.93
psq,0,10,0,0,0,0,0,0,0,0,0,0,0,0,0,0,0,0,0,0,0,0,0,0,0,0,0,0,0,0,0,0,109,1,0,0,0,0,0,0,0,0,0,0,120,90.83
qnt,0,11,0,0,0,0,0,0,0,0,4,0,0,27,0,0,0,0,0,0,0,0,0,0,0,0,0,0,0,0,0,0,0,654,0,0,0,0,0,0,0,0,0,0,696,93.97
ref,0,0,0,0,0,0,0,0,0,0,0,0,0,0,0,0,0,0,0,0,0,0,0,0,0,0,0,0,0,0,0,0,0,0,9,0,0,0,0,0,0,0,0,0,9,100.0
rel,0,0,0,0,0,0,0,0,0,0,0,0,0,0,0,0,0,0,1,0,0,0,0,0,0,0,0,0,2,0,0,0,0,0,0,0,0,0,0,0,0,0,0,0,3,66.67
sub,0,2,0,0,0,0,0,0,0,0,0,0,0,0,0,0,0,0,0,0,0,0,0,0,0,0,0,2,0,0,0,0,0,0,0,0,124,0,0,0,0,0,0,0,128,96.88
tem,0,0,0,0,0,0,0,0,0,0,0,0,0,0,0,0,0,0,1,0,0,0,0,0,0,0,0,0,0,0,0,1,0,0,0,0,2,52,0,0,0,0,0,0,56,92.86
test,0,0,0,0,0,0,0,0,0,0,0,0,0,1,0,0,0,0,1,0,0,0,0,0,0,0,0,0,0,0,0,0,0,0,0,0,0,0,0,0,0,0,0,0,2,50.0
vb,14,0,1,0,0,0,1,0,0,2,0,0,0,28,0,0,0,5,93,1,0,0,0,0,4,0,0,2,0,0,8,173,0,0,0,0,0,0,1,3019,80,6,26,0,3464,87.15
vbd,0,0,0,0,0,0,0,0,0,0,0,0,0,0,0,0,0,0,6,0,0,0,0,0,0,0,0,0,0,0,4,24,0,0,0,0,0,0,0,123,130,0,2,0,289,44.98
vbo,0,0,0,0,0,0,0,0,0,0,0,0,0,0,0,0,0,0,1,0,0,0,0,0,0,0,0,0,0,0,0,3,0,0,0,0,0,0,0,0,0,562,1,0,567,99.12
vbs,0,0,0,0,0,0,0,0,0,0,0,0,0,0,0,0,0,0,2,0,0,0,0,0,0,0,0,0,0,0,1,9,0,0,0,0,0,0,0,45,5,1,13,0,76,59.21
wpl,0,0,0,0,0,0,0,0,0,0,0,0,0,0,0,0,0,0,0,0,0,0,0,0,0,0,0,0,0,0,0,0,0,0,0,0,0,0,0,0,0,0,0,2,2,100.0
Total,682,2115,70,81,395,395,1653,22,6,2,283,3,133,2105,294,3,7,401,5899,259,3265,301,352,3,53,56,657,1270,4900,1,40,648,111,677,10,0,135,52,2,3747,238,598,45,2
Recall,87.24,94.00,84.29,88.89,100.00,94.94,98.97,72.73,50.00,100.00,91.52,100.00,93.98,96.34,98.30,66.67,57.14,97.76,92.51,69.11,100.00,100.00,98.30,100.00,67.92,100.00,99.54,95.98,99.27,100.00,55.00,58.18,98.20,96.60,90.00,nan,91.85,100.00,50.00,80.57,54.62,93.98,57.78,100.00
