TAG,adj,adv,aux,chi,coo,cop,det,ext,ger,idf,idf-pl,inf,int,let,let-pl,meta,mod,n,n-pl,n-pr,neg,num,ono,pos,pps,pre,pro,prt,prt-pf,prt-pg,psq,qnt,ref,rel,sub,tem,test,vb,vbd,vbo,vbs,wpl,Total,Precision
adj,1712,24,0,0,0,0,0,0,0,0,0,0,11,0,0,0,0,46,1,1,0,0,0,0,1,1,0,0,0,17,0,0,0,0,0,0,0,6,0,0,0,0,1820,94.07
adv,45,3859,0,0,0,0,0,32,0,1,0,0,4,0,0,0,0,15,0,0,0,0,0,0,0,51,2,0,0,2,1,2,0,0,1,0,0,4,0,0,1,0,4020,96.0
aux,0,0,1475,0,0,93,0,0,0,0,0,0,0,0,0,0,0,0,0,0,0,0,0,0,0,0,0,0,1,0,0,0,0,0,0,0,0,16,0,0,1,0,1586,93.0
chi,0,0,0,18,0,0,0,0,0,0,0,0,1,0,0,0,0,1,0,1,0,0,0,0,0,0,0,0,0,0,0,0,0,0,0,0,0,0,0,0,0,0,21,85.71
coo,0,0,0,0,800,0,0,0,0,0,0,0,0,0,0,0,0,0,0,0,0,0,0,0,0,0,0,0,0,0,0,0,0,0,0,0,0,0,0,0,0,0,800,100.0
cop,0,0,88,0,0,3567,0,0,0,0,0,0,0,0,0,0,0,0,0,0,0,0,0,0,0,0,0,0,0,0,0,0,0,0,0,0,0,0,0,0,0,0,3655,97.59
det,0,0,0,0,0,0,3717,0,0,0,0,0,0,3,0,0,0,0,0,0,0,0,0,0,0,0,32,0,0,0,0,0,0,0,0,0,0,0,0,0,0,0,3752,99.07
ext,0,11,0,0,0,0,0,147,0,0,0,0,0,0,0,0,0,0,0,0,0,0,0,0,0,0,0,0,0,0,0,0,0,0,0,0,0,0,0,0,0,0,158,93.04
ger,0,1,0,0,0,0,0,0,3,0,0,0,0,0,0,0,0,12,0,0,0,0,0,0,0,0,0,0,0,7,0,0,0,0,0,0,0,12,1,1,1,0,38,31.58
idf,0,5,0,0,0,0,0,0,0,491,0,0,0,0,0,0,0,1,0,0,0,3,0,0,0,0,0,0,0,1,0,9,0,0,0,0,0,0,0,0,0,0,510,96.27
idf-pl,0,0,0,0,0,0,0,0,0,10,0,0,0,0,0,0,0,0,0,0,0,0,0,0,0,0,0,0,0,0,0,0,0,0,0,0,0,0,0,0,0,0,10,100.0
inf,0,0,0,0,0,0,0,0,0,0,0,861,0,0,0,0,0,0,0,0,0,0,0,0,0,4,0,0,0,0,0,0,0,0,0,0,0,0,0,0,0,0,865,99.54
int,11,9,0,0,0,0,1,0,0,0,0,0,4045,0,0,0,2,19,0,1,0,0,0,0,3,0,0,0,0,0,0,6,0,0,1,0,0,29,0,0,0,0,4127,98.01
let,0,0,0,0,0,0,7,0,0,0,0,0,1,128,0,0,0,1,0,0,0,0,0,1,0,0,0,0,0,0,0,0,0,0,0,0,0,1,0,0,0,0,139,92.09
let-pl,0,0,0,0,0,0,0,0,0,0,0,0,0,2,0,0,0,0,0,0,0,0,0,0,0,0,0,0,0,0,0,0,0,0,0,0,0,0,0,0,0,0,2,100.0
meta,0,0,0,0,0,0,0,0,1,0,0,0,6,0,0,11,0,7,0,5,0,0,0,0,0,0,0,0,0,0,0,0,0,0,0,0,0,0,0,0,0,0,30,36.67
mod,0,0,0,0,0,0,0,0,0,0,0,0,0,0,0,0,3017,1,0,0,0,0,0,0,0,0,0,0,2,1,0,0,0,0,0,0,0,30,7,0,0,0,3058,98.66
n,37,12,0,0,0,0,0,0,0,0,0,0,11,0,0,0,0,6340,80,6,0,1,0,0,2,2,1,0,1,14,0,1,1,0,0,0,0,55,3,0,1,0,6568,96.53
n-pl,1,2,0,0,0,0,0,0,0,0,0,0,0,0,0,0,0,366,394,1,0,0,0,0,0,0,2,0,1,4,0,0,0,0,0,0,0,5,2,0,5,0,783,50.32
n-pr,2,3,0,0,0,0,0,0,0,0,0,0,0,0,0,2,0,24,0,2262,0,0,0,0,2,1,1,0,0,4,0,0,0,0,0,0,0,3,0,0,1,0,2305,98.13
neg,0,0,0,0,0,0,0,0,0,0,0,0,0,0,0,0,0,0,0,0,1363,0,0,0,0,0,0,0,0,0,0,0,0,0,0,0,0,0,0,0,0,0,1363,100.0
num,0,0,0,0,0,0,0,0,0,7,0,0,0,0,0,0,0,1,0,0,0,281,0,0,0,0,0,0,0,0,0,0,0,0,0,0,0,0,0,0,0,0,289,97.23
ono,0,1,0,0,0,0,0,0,0,0,0,0,2,0,0,0,0,2,0,0,0,0,16,0,0,0,0,0,0,2,0,0,0,0,0,0,0,1,0,0,0,0,24,66.67
pos,0,0,0,0,0,0,0,0,0,0,0,0,0,0,0,0,0,0,0,0,0,0,0,348,0,0,0,0,0,0,0,0,0,0,0,0,0,0,0,0,0,0,348,100.0
pps,0,0,0,0,0,0,0,0,0,0,0,0,1,0,0,0,0,3,0,0,0,0,0,0,1274,0,2,0,0,0,0,0,0,0,0,0,0,0,0,0,0,0,1280,99.53
pre,0,66,0,0,0,0,0,0,0,0,0,13,0,0,0,0,0,2,0,0,0,0,0,0,0,3006,0,0,0,1,0,0,0,0,10,0,0,5,0,0,0,0,3103,96.87
pro,0,0,0,0,0,0,32,0,0,0,0,0,0,0,0,0,0,0,0,0,0,0,0,0,2,0,13022,0,0,0,0,0,0,2,0,0,0,1,0,0,0,0,13059,99.72
prt,0,1,0,0,0,0,0,0,0,0,0,0,0,0,0,0,0,0,0,0,0,0,0,0,0,0,0,0,0,0,0,0,0,0,0,0,0,0,0,0,0,0,1,100.0
prt-pf,3,0,0,0,0,0,0,0,0,0,0,0,0,0,0,0,0,4,2,0,0,0,0,0,0,0,0,0,121,41,0,0,0,0,0,0,0,19,7,0,0,0,197,61.42
prt-pg,7,1,0,0,0,6,0,0,0,0,0,0,0,0,0,0,1,32,1,0,0,0,1,0,0,1,0,0,9,1359,0,0,0,0,1,0,0,99,8,8,6,0,1540,88.25
psq,0,9,0,0,0,0,0,0,0,1,0,0,0,0,0,0,0,0,0,0,0,0,0,0,0,0,0,0,0,0,187,7,0,0,0,0,0,0,0,0,0,0,204,91.67
qnt,0,8,0,0,0,0,0,0,0,7,0,0,11,0,0,0,0,0,0,0,0,0,0,0,0,0,0,0,0,0,2,746,0,0,0,0,0,0,0,0,0,0,774,96.38
ref,0,0,0,0,0,0,0,0,0,0,0,0,0,0,0,0,0,1,0,1,0,0,0,0,0,0,0,0,0,0,0,0,28,0,0,0,0,0,0,0,0,0,30,93.33
rel,0,0,0,0,0,0,2,0,0,0,0,0,0,0,0,0,0,0,0,0,0,0,0,0,0,5,11,0,0,0,0,0,0,5,0,0,0,3,0,0,0,0,26,42.31
sub,0,6,0,0,2,0,0,0,0,0,0,0,3,0,0,0,0,0,0,0,0,0,0,0,0,8,0,0,0,0,0,0,0,0,505,0,0,0,0,0,0,0,524,96.37
tem,0,1,0,0,0,0,0,0,0,0,0,0,0,0,0,0,0,0,0,0,0,0,0,0,0,1,0,0,0,0,0,0,0,0,0,232,0,0,0,0,0,0,234,99.15
test,0,0,0,0,0,0,0,0,0,0,0,0,0,0,0,0,0,1,0,0,0,0,0,0,0,0,0,0,0,0,0,0,0,0,0,0,2,0,0,0,0,0,3,66.67
vb,5,2,4,0,0,0,0,0,2,0,0,0,4,1,0,0,21,46,1,1,0,0,0,0,0,7,0,0,4,37,0,0,0,0,0,0,0,5451,57,0,22,0,5665,96.22
vbd,0,1,0,0,0,0,0,0,0,0,0,0,0,0,0,0,23,9,1,0,0,0,0,0,0,0,0,0,3,7,0,0,0,0,0,0,0,232,239,0,27,0,542,44.1
vbo,1,0,0,0,0,0,0,0,0,0,0,0,0,0,0,0,0,0,0,0,0,0,0,0,0,0,0,0,0,4,0,0,0,0,0,0,0,6,0,666,1,0,678,98.23
vbs,1,0,0,0,0,0,0,0,0,0,0,0,0,0,0,0,2,7,1,0,0,0,0,0,0,0,0,0,1,8,0,0,0,0,0,0,0,61,21,5,206,0,313,65.81
wpl,0,0,0,0,0,0,0,0,0,0,0,0,0,0,0,0,0,1,0,0,0,0,0,0,0,0,0,0,0,0,0,0,0,0,0,0,0,0,0,0,0,0,1,100.0
Total,1825,4022,1567,18,802,3666,3759,179,6,517,0,874,4100,134,0,13,3066,6942,481,2279,1363,285,17,349,1284,3087,13073,0,143,1509,190,771,29,7,518,232,2,6039,345,680,272,0
Recall,93.81,95.95,94.13,100.00,99.75,97.30,98.88,82.12,50.00,94.97,nan,98.51,98.66,95.52,nan,84.62,98.40,91.33,81.91,99.25,100.00,98.60,94.12,99.71,99.22,97.38,99.61,nan,84.62,90.06,98.42,96.76,96.55,71.43,97.49,100.00,100.00,90.26,69.28,97.94,75.74,nan
