TAG,adj,adv,aux,chi,coo,cop,det,ext,ger,ger-pl,idf,idf-pl,inf,int,let,let-pl,meta,mod,n,n-pl,n-pr,neg,num,num-pl,ono,pos,pps,pre,pro,prt,prt-pf,prt-pg,psq,qnt,ref,rel,sub,tem,test,vb,vbd,vbo,vbs,wpl,Total,Precision
adj,2237,125,0,0,0,0,0,0,0,0,0,0,0,27,0,0,0,0,43,0,0,0,0,0,1,0,0,0,0,0,2,6,0,0,0,0,0,0,0,22,0,1,2,0,2466,90.71
adv,66,5719,0,0,0,0,1,51,0,0,1,0,0,16,0,0,0,0,15,3,0,0,0,0,0,0,0,128,3,0,0,1,10,6,1,0,11,1,0,0,1,0,0,0,6034,94.78
aux,0,0,1367,0,0,226,0,0,0,0,0,0,0,0,0,0,0,0,0,0,0,0,0,0,0,0,0,0,0,0,0,0,0,0,0,0,0,0,0,41,0,0,2,0,1636,83.56
chi,1,0,0,91,0,0,0,0,0,0,0,0,0,0,0,0,1,2,3,1,0,0,0,0,2,0,0,0,0,0,0,0,0,0,0,0,0,0,0,1,0,0,0,0,102,89.22
coo,0,0,0,0,1138,0,0,0,0,0,0,0,0,0,0,0,0,0,0,0,0,0,0,0,0,0,0,0,0,0,0,0,0,0,0,0,0,0,0,0,0,0,0,0,1138,100.0
cop,0,0,102,0,0,3896,0,0,0,0,0,0,0,0,0,0,0,0,0,0,0,0,0,0,0,0,0,0,0,0,0,1,0,0,0,0,0,0,0,0,0,0,0,0,3999,97.42
det,0,0,0,0,0,0,5227,0,0,0,0,0,0,0,14,0,0,0,0,0,0,0,0,0,0,0,0,0,79,0,0,0,0,0,0,4,0,0,0,0,0,0,0,0,5324,98.18
ext,0,7,0,0,0,0,0,167,0,0,0,0,0,0,0,0,0,0,0,0,0,0,0,0,0,0,0,0,0,0,0,0,0,0,0,0,0,0,0,0,0,0,0,0,174,95.98
ger,0,0,0,0,0,0,0,0,7,0,0,0,0,1,0,0,0,0,8,0,0,0,0,0,0,0,0,0,0,0,1,13,0,0,0,0,0,0,0,13,0,1,1,0,45,28.89
ger-pl,0,0,0,0,0,0,0,0,0,0,0,0,0,0,0,0,0,0,1,0,0,0,0,0,0,0,0,0,0,0,0,1,0,0,0,0,0,0,0,0,0,0,0,0,2,50.0
idf,0,28,0,0,0,0,0,0,0,0,719,1,0,0,0,0,0,0,1,0,0,0,11,0,0,0,0,0,0,0,0,0,1,30,0,0,0,0,0,0,0,0,0,0,791,90.9
idf-pl,0,0,0,0,0,0,0,0,0,0,13,2,0,0,0,0,0,0,0,0,0,0,0,0,0,0,0,0,0,0,0,0,0,0,0,0,0,0,0,0,0,0,0,0,15,86.67
inf,0,0,0,0,0,0,0,0,0,0,0,0,965,0,0,0,0,0,0,0,0,0,0,0,0,0,0,6,0,0,0,0,0,0,0,0,0,0,0,0,0,0,0,0,971,99.38
int,18,28,0,1,0,0,0,0,1,0,0,0,0,6030,0,0,3,0,19,1,0,0,0,0,10,0,3,0,0,0,0,0,0,11,0,0,6,0,0,58,1,0,0,0,6190,97.42
let,0,0,0,0,0,0,13,0,0,0,0,0,0,0,415,6,0,0,2,0,0,0,0,0,0,1,0,0,0,0,0,0,0,0,0,0,0,0,0,1,0,0,0,0,438,94.75
let-pl,0,0,0,0,0,0,0,0,0,0,0,0,0,0,1,3,0,0,0,0,0,0,0,0,0,0,0,0,0,0,0,0,0,0,0,0,0,0,0,0,0,0,0,0,4,75.0
meta,0,0,0,0,0,0,0,0,0,0,0,0,0,6,0,0,20,0,8,0,4,0,0,0,1,0,0,0,0,0,0,0,0,0,0,0,0,0,0,0,0,0,1,0,40,50.0
mod,0,1,0,0,0,0,0,0,0,0,0,0,0,0,0,0,0,3342,1,0,0,0,0,0,0,0,0,0,0,0,3,22,0,0,0,0,0,0,0,35,1,0,0,0,3405,98.15
n,98,24,0,5,0,0,0,0,4,0,0,0,0,10,0,0,3,0,11578,226,0,0,1,0,2,0,2,2,0,0,2,27,0,0,0,0,1,0,1,188,9,1,2,0,12186,95.01
n-pl,2,1,0,1,0,0,0,0,1,0,0,0,0,0,0,0,0,0,650,503,0,0,0,0,1,0,0,0,0,0,0,2,0,0,0,0,0,0,0,7,1,0,3,0,1172,55.46
n-pr,0,0,0,0,0,0,0,0,0,0,0,0,0,0,0,0,3,0,0,0,5529,0,0,0,0,0,0,0,0,0,0,0,0,0,0,0,0,0,0,0,0,0,0,0,5532,99.95
neg,0,0,0,0,0,0,0,0,0,0,0,0,0,0,0,0,0,0,0,0,0,1630,0,0,0,0,0,0,0,0,0,0,0,0,0,0,0,0,0,0,0,0,0,0,1630,100.0
num,0,0,0,0,0,0,0,0,0,0,23,0,0,0,0,0,0,0,1,0,0,0,620,4,0,0,0,0,0,0,0,0,0,0,0,0,0,0,0,0,0,0,0,0,648,95.68
num-pl,0,0,0,0,0,0,0,0,0,0,0,0,0,0,0,0,0,0,0,0,0,0,2,0,0,0,0,0,0,0,0,0,0,0,0,0,0,0,0,0,0,0,0,0,2,100.0
ono,0,0,0,3,0,0,0,0,0,0,0,0,0,5,0,0,2,0,2,0,0,0,0,0,59,0,0,0,0,0,0,0,0,0,0,0,0,0,0,1,0,0,0,1,73,80.82
pos,0,0,0,0,0,0,0,0,0,0,0,0,0,0,0,0,0,0,0,0,0,0,0,0,0,403,0,0,0,0,0,0,0,0,0,0,0,0,0,0,0,0,0,0,403,100.0
pps,0,0,0,0,0,0,0,0,0,0,0,0,0,0,0,0,0,0,2,0,0,0,0,0,0,0,1912,0,1,0,0,0,0,0,0,0,0,0,0,0,0,0,0,0,1915,99.84
pre,0,129,0,0,0,0,0,0,0,0,0,0,32,0,0,0,0,0,2,0,0,0,0,0,0,0,0,4087,0,0,0,0,0,0,0,1,21,0,0,21,0,1,0,0,4294,95.18
pro,0,0,0,0,0,0,45,0,0,0,0,0,0,0,0,0,0,0,1,0,0,0,0,0,0,0,10,0,17679,0,0,0,0,0,0,1,0,0,0,0,0,0,0,0,17736,99.68
prt,0,0,0,0,0,0,0,0,0,0,0,0,0,0,0,0,0,0,0,0,0,0,0,0,0,0,0,0,0,2,0,0,0,0,0,0,0,0,0,0,0,0,0,0,2,100.0
prt-pf,2,0,0,0,0,0,0,0,0,0,0,0,0,0,0,0,0,9,4,2,0,0,0,0,0,0,0,0,0,0,116,59,0,0,0,0,0,0,0,54,7,0,1,0,254,45.67
prt-pg,6,0,0,0,0,11,0,0,3,0,0,0,0,0,0,0,0,10,66,1,0,0,0,0,2,0,0,0,0,0,23,1637,0,0,0,0,0,0,0,513,16,45,17,0,2350,69.66
psq,0,39,0,0,0,0,0,0,0,0,0,0,0,0,0,0,0,0,0,0,0,0,0,0,0,0,0,0,0,0,0,0,275,7,0,0,0,0,0,0,0,0,0,0,321,85.67
qnt,0,37,0,0,0,0,0,0,0,0,11,0,0,39,0,0,0,0,0,0,0,0,0,0,0,0,0,0,0,0,0,0,9,1353,0,0,0,0,0,0,0,0,0,0,1449,93.37
ref,0,0,0,0,0,0,0,0,0,0,0,0,0,0,0,0,0,0,1,0,0,0,0,0,0,0,0,0,0,0,0,0,0,0,38,0,0,0,0,0,0,0,0,0,39,97.44
rel,0,0,0,0,0,0,2,0,0,0,0,0,0,0,0,0,0,0,0,0,0,0,0,0,0,0,0,1,11,0,0,0,0,0,0,10,0,0,0,3,0,0,0,0,27,40.74
sub,0,9,0,0,2,0,0,0,0,0,0,0,0,1,0,0,0,0,0,1,0,0,0,0,0,0,0,5,0,0,0,0,0,0,0,0,590,0,0,0,0,0,0,0,608,97.04
tem,0,1,0,0,0,0,0,0,0,0,0,0,0,0,0,0,0,0,0,0,0,0,0,0,0,0,0,1,0,0,0,0,0,0,0,0,2,278,0,0,0,0,0,0,282,98.58
test,0,0,0,0,0,0,0,0,0,0,0,0,0,1,0,0,0,0,1,0,0,0,0,0,0,0,0,0,0,0,0,0,0,0,0,0,0,0,3,0,0,0,0,0,5,60.0
vb,26,3,21,2,0,0,0,0,6,0,0,0,0,64,0,0,0,75,123,6,0,0,0,0,5,0,0,3,0,0,19,242,0,0,0,0,0,0,0,8114,132,91,77,0,9009,90.07
vbd,0,1,1,0,0,0,0,0,0,0,0,0,0,0,0,0,0,41,9,3,0,0,0,0,0,0,0,0,0,0,13,67,0,0,0,0,0,0,0,412,265,0,13,0,825,49.94
vbo,1,0,0,0,0,0,0,0,0,0,0,0,0,0,0,0,0,0,1,0,0,0,0,0,0,0,0,0,0,0,0,4,0,0,0,0,0,0,0,2,0,1219,0,0,1227,99.35
vbs,0,0,0,0,0,0,0,0,0,0,0,0,0,0,0,0,0,2,2,2,0,0,0,0,0,0,0,0,0,0,3,33,0,0,0,0,0,0,0,215,21,5,103,0,386,55.7
wpl,0,0,0,0,0,0,0,0,0,0,0,0,0,0,0,0,0,0,1,0,0,0,0,0,0,0,0,0,0,0,0,0,0,0,0,0,0,0,0,0,0,0,0,2,3,66.67
Total,2457,6152,1491,103,1140,4133,5288,218,22,0,767,3,997,6200,430,9,32,3481,12545,749,5533,1630,634,4,83,404,1927,4233,17773,2,182,2115,295,1407,39,16,631,279,4,9701,454,1364,222,3
Recall,91.05,92.96,91.68,88.35,99.82,94.27,98.85,76.61,31.82,nan,93.74,66.67,96.79,97.26,96.51,66.67,62.50,96.01,92.29,67.16,99.93,100.00,97.79,100.00,71.08,99.75,99.22,96.55,99.47,100.00,63.74,77.40,93.22,96.16,97.44,62.50,93.50,99.64,75.00,83.64,58.37,89.37,46.40,66.67
