"Line","Speaker","Utterance","Tags","Incorrect Tag","Correct Tag","Notes"
"1","*INV:","and it's Parent and Child Lastname , and Investigator and Observer are taping .","coord|and pro|it~v:cop|be&3S n:prop|Parent coord|and n:prop|Child n:prop|Lastname , coord|and n:prop|Investigator coord|and n:prop|Observer v:cop|be&PRES n:gerund|tape-PROG .","v:cop|be&PRES","aux|be&PRES",
"1","*INV:","and it's Parent and Child Lastname , and Investigator and Observer are taping .","coord|and pro|it~v:cop|be&3S n:prop|Parent coord|and n:prop|Child n:prop|Lastname , coord|and n:prop|Investigator coord|and n:prop|Observer v:cop|be&PRES n:gerund|tape-PROG .","n:gerund|tape-PROG","part|tape-PROG",
"4","*MOT:","February twenty fourth .","n:prop|February det:num|twenty adj|fourth .","det:num|twenty adj|fourth","det:num|+det:num|twenty+det:num|fourth",
"5","*INV:","February twenty fifth +...","n:prop|February det:num|twenty adj|fifth +...","det:num|twenty adj|fifth","det:num|+det:num|twenty+det:num|fifth",
"6","*MOT:","twenty fifth .","det:num|twenty adj|fifth .","det:num|twenty adj|fifth","det:num|+det:num|twenty+det:num|fifth",
"7","*INV:","twenty fifth , nineteen eighty four .","det:num|twenty adj|fifth , det:num|nineteen det:num|eighty det:num|four .","det:num|twenty adj|fifth","det:num|+det:num|twenty+det:num|fifth",
"13","*CHI:","burn .","n|burn .","n|burn","v|burn",
"14","*CHI:","burn .","n|burn .","n|burn","v|burn",
"25","*MOT:","push .","n|push .","n|push","v|push",
"36","*CHI:","can I do that ?","mod|can pro:sub|I v|do det|that ?","det|that","pro:dem|that",
"40","*MOT:","sound ?","adj|sound ?","adj|sound","n|sound",
"56","*MOT:","we'll wait for Daddy to fix it .","pro:sub|we~mod|will v|wait prep|for n:prop|Daddy inf|to v|fix pro|it .","prep|for","?",
"68","*MOT:","are you putting gas in the car ?","aux|be&PRES pro|you n:gerund|put-PROG n|gas prep|in det|the n|car ?","n:gerund|put-PROG","part|put-PROG",
"85","*CHI:","fire engine .","n|fire n|engine .","n|fire n|engine","n|+n|fire+n|engine",
"86","*INV:","that's right , fire engine .","pro:dem|that~v:cop|be&3S adj|right , n|fire n|engine .","n|fire n|engine","n|+n|fire+n|engine",
"87","*IN2:","here , why don't you come read this book over here ?","adv:loc|here , adv:wh|why mod|do~neg|not pro|you v|come v|read&ZERO det|this n|book adv:loc|over adv:loc|here ?","adv:loc|here","co|here",
"89","*INV:","what about the book , look at this .","pro:wh|what prep|about det|the n|book , n|look prep|at pro:dem|this .","n|look","v|look",
"90","*CHI:","fire engine .","n|fire n|engine .","n|fire n|engine","n|+n|fire+n|engine",
"98","*MOT:","hot dog .","adj|hot n|dog .","adj|hot n|dog","n|+n|hot+n|dog",
"99","*CHI:","hot dog .","adj|hot n|dog .","adj|hot n|dog","n|+n|hot+n|dog",
"116","*MOT:","o , look .","co|oh , co|look .","co|look","v|look",
"119","*MOT:","look , what's that ?","co|look , pro:wh|what~v:cop|be&3S pro:dem|that ?","co|look","v|look",
"153","*MOT:","right , is it raining today ?","adv|right , v:cop|be&3S pro|it part|rain-PROG adv:tem|today ?","adv|right","adj|right",
"153","*MOT:","right , is it raining today ?","adv|right , v:cop|be&3S pro|it part|rain-PROG adv:tem|today ?","v:cop|be&3S","aux|be&3S",
"155","*MOT:","oh , no , it's not .","co|oh , co|no , pro|it~v:cop|be&3S neg|not .","pro|it~v:cop|be&3S","pro|it~aux|be&3S",
"156","*MOT:","who's out today ?","pro:wh|who~aux|be&3S n|out adv:tem|today ?","pro:wh|who~aux|be&3S","pro:wh|who~v:cop|be&3S",
"156","*MOT:","who's out today ?","pro:wh|who~aux|be&3S n|out adv:tem|today ?","n|out","adv:loc|out",
"164","*MOT:","xxx when it gets dark .","unk|xxx conj|when pro|it v|get-3S n|dark .","n|dark","adj|dark",
"165","*INV:","and then what do you do , when it gets dark ?","coord|and adv:tem|then pro:wh|what mod|do pro|you v|do , conj|when pro|it v|get-3S n|dark ?","n|dark","adj|dark",
"167","*INV:","don't you go to bed when it gets dark ?","mod|do~neg|not pro|you v|go prep|to n|bed conj|when pro|it v|get-3S n|dark ?","n|dark","adj|dark",
"169","*MOT:","who comes out when , at dark time ?","pro:wh|who v|come-3S n|out conj|when , prep|at n|dark n|time ?","n|out","adv:loc|out",
"169","*MOT:","who comes out when , at dark time ?","pro:wh|who v|come-3S n|out conj|when , prep|at n|dark n|time ?","n|dark","adj|dark",
"198","*INV:","it's another xxx , almost exactly like him .","pro|it~v:cop|be&3S qn|another unk|xxx , adv|almost adv|exact&dadj-LY v|like pro:obj|him .","v|like","prep|like",
"200","*MOT:","what's the bird say ?","pro:wh|what~v:cop|be&3S det|the n|bird co|say ?","pro:wh|what~v:cop|be&3S","pro:wh|what~mod|do&3S",
"200","*MOT:","what's the bird say ?","pro:wh|what~v:cop|be&3S det|the n|bird co|say ?","co|say","v|say",
"202","*CHI:","tweet tweet , tweet tweet .","v|tweet v|tweet , v|tweet on|tweet .","v|tweet","on|tweet",
"202","*CHI:","tweet tweet , tweet tweet .","v|tweet v|tweet , v|tweet on|tweet .","v|tweet","on|tweet",
"202","*CHI:","tweet tweet , tweet tweet .","v|tweet v|tweet , v|tweet on|tweet .","v|tweet","on|tweet",
"203","*MOT:","what's the other bird say ?","pro:wh|what~v:cop|be&3S det|the qn|other n|bird co|say ?","pro:wh|what~v:cop|be&3S","pro:wh|what~mod|do&3S",
"203","*MOT:","what's the other bird say ?","pro:wh|what~v:cop|be&3S det|the qn|other n|bird co|say ?","co|say","v|say",
"204","*CHI:","tweet tweet tweet .","v|tweet v|tweet on|tweet .","v|tweet","on|tweet",
"204","*CHI:","tweet tweet tweet .","v|tweet v|tweet on|tweet .","v|tweet","on|tweet",
"212","*INV:","Child , what do birdies eat ?","n:prop|Child , pro:wh|what v|do n|bird-DIM-PL v|eat ?","v|do","mod|do",
"213","*INV:","what do they eat out of the feeder up there , that you always watch ?","pro:wh|what mod|do pro:sub|they v|eat n|out prep|of det|the n|feed&dv-AGT adv:loc|up adv:loc|there , rel|that pro|you adv|always n|watch ?","n|watch","v|watch",
"219","*MOT:","no , I du didn't think you did .","co|no , pro:sub|I unk|du mod|do&PAST~neg|not v|think pro|you v|do&PAST .","v|do&PAST","mod|do&PAST",
"221","*MOT:","what's the other birdie say ?","pro:wh|what~v:cop|be&3S det|the qn|other n|bird-DIM co|say ?","pro:wh|what~v:cop|be&3S","pro:wh|what~mod|do&3S",
"221","*MOT:","what's the other birdie say ?","pro:wh|what~v:cop|be&3S det|the qn|other n|bird-DIM co|say ?","co|say","v|say",
"222","*CHI:","tweet tweet .","v|tweet on|tweet .","v|tweet","on|tweet",
"223","*MOT:","what's the other one ?","pro:wh|what~v:cop|be&3S det|the qn|other pro:indef|one ?","pro:wh|what~v:cop|be&3S","pro:wh|what~mod|do&3S",
"226","*MOT:","Phoebe call ?","n:prop|Phoebe n|call ?","n|call","v|call",
"227","*MOT:","call Phoebe .","n|call n:prop|Phoebe .","n|call","v|call",
"237","*MOT:","tweet tweet .","v|tweet on|tweet .","v|tweet","on|tweet",
"238","*CHI:","tweet tweet tweet tweet .","v|tweet v|tweet v|tweet on|tweet .","v|tweet","on|tweet",
"238","*CHI:","tweet tweet tweet tweet .","v|tweet v|tweet v|tweet on|tweet .","v|tweet","on|tweet",
"238","*CHI:","tweet tweet tweet tweet .","v|tweet v|tweet v|tweet on|tweet .","v|tweet","on|tweet",
"242","*INV:","and put your seatbelt on , huh ?","coord|and v|put&ZERO pro:poss:det|your n|+n|seat+n|belt adv|on , co|huh ?","adv|on","adv:loc|on",
"247","*MOT:","what'd the policeman say , no more front seat ?","pro:wh|what~mod|genmod det|the n|+n|police+n|man v|say , qn|no qn|more adj|front n|seat ?","pro:wh|what~mod|genmod","pro:wh|what~mod|do&PAST",
"270","*MOT:","like the one upstairs .","v|like det|the det:num|one adv:loc|upstairs .","v|like","prep|like",
"270","*MOT:","like the one upstairs .","v|like det|the det:num|one adv:loc|upstairs .","det:num|one","pro:indef|one",
"274","*MOT:","what'd you cut yourself on ?","pro:wh|what~mod|genmod pro|you v|cut&ZERO pro:refl|yourself adv|on ?","pro:wh|what~mod|genmod","pro:wh|what~mod|do&PAST",
"274","*MOT:","what'd you cut yourself on ?","pro:wh|what~mod|genmod pro|you v|cut&ZERO pro:refl|yourself adv|on ?","adv|on","adv:loc|on",
"283","*INV:","that's where the dishes go , right ?","pro:dem|that~v:cop|be&3S adv:wh|where det|the n|dish-PL v|go , adv|right ?","adv|right","adj|right",
"292","*INV:","oh , boy .","co|oh , n|boy .","n|boy","co|boy",
"294","*CHI:","fire engine .","n|fire n|engine .","n|fire n|engine","n|+n|fire+n|engine",
"298","*MOT:","what's a fire engine say ?","pro:wh|what~v:cop|be&3S det|a n|fire n|engine co|say ?","pro:wh|what~v:cop|be&3S","pro:wh|what~mod|do&PAST",
"298","*MOT:","what's a fire engine say ?","pro:wh|what~v:cop|be&3S det|a n|fire n|engine co|say ?","n|fire n|engine","n|+n|fire+n|engine",
"298","*MOT:","what's a fire engine say ?","pro:wh|what~v:cop|be&3S det|a n|fire n|engine co|say ?","co|say","v|say",
"305","*CHI:","blue car .","n|blue n|car .","n|blue","adj|blue",
"306","*MOT:","what color car is that ?","pro:wh|what n|color n|car v:cop|be&3S pro:dem|that ?","pro:wh|what","det:wh|what",
"307","*CHI:","blue car .","n|blue n|car .","n|blue","adj|blue",
"308","*INV:","blue car !","n|blue n|car !","n|blue","adj|blue",
"309","*INV:","like who else has a blue car ?","v|like pro:wh|who post|else v|have&3S det|a n|blue n|car ?","v|like","prep|like",
"309","*INV:","like who else has a blue car ?","v|like pro:wh|who post|else v|have&3S det|a n|blue n|car ?","n|blue","adj|blue",
"312","*CHI:","school bus !","n|school n|bus !","n|school n|bus","n|+n|school+n|bus",
"312","*CHI:","school bus !","n|school n|bus !","n|school n|bus","n|+n|school+n|bus",
"313","*CHI:","school bus !","n|school n|bus !","n|school n|bus","n|+n|school+n|bus",
"314","*MOT:","school bus !","n|school n|bus !","n|school n|bus","n|+n|school+n|bus",
"316","*CHI:","blue car !","n|blue n|car !","n|blue","adj|blue",
"319","*MOT:","right , that is two .","co|right , pro:dem|that v:cop|be&3S det:num|two .","co|right","adj|right",
"322","*CHI:","blue car .","n|blue n|car .","n|blue","adj|blue",
"323","*MOT:","what color is this bus ?","pro:wh|what n|color v:cop|be&3S det|this n|bus ?","pro:wh|what","det:wh|what",
"327","*MOT:","what color is that ?","pro:wh|what n|color v:cop|be&3S pro:dem|that ?","pro:wh|what","det:wh|what",
"330","*MOT:","and what color is this part ?","coord|and pro:wh|what n|color v:cop|be&3S det|this n|part ?","pro:wh|what","det:wh|what",
"333","*MOT:","and what color is the fire engine ?","coord|and pro:wh|what n|color v:cop|be&3S det|the n|fire n|engine ?","pro:wh|what","det:wh|what",
"333","*MOT:","and what color is the fire engine ?","coord|and pro:wh|what n|color v:cop|be&3S det|the n|fire n|engine ?","n|fire n|engine","n|+n|fire+n|engine",
"334","*CHI:","Investigator do that !","n:prop|Investigator v|do det|that !","det|that","pro:dem|that",
"338","*MOT:","she put the license plate on Child's car .","pro:sub|she v|put&ZERO det|the n|license n|plate prep|on n:prop|Child~poss|s n|car .","n|license n|plate","n|+n|license+n|plate",
"344","*CHI:","school bus .","n|school n|bus .","n|school n|bus","n|+n|school+n|bus",
"345","*MOT:","that's a school bus .","pro:dem|that~v:cop|be&3S det|a n|school n|bus .","n|school n|bus","n|+n|school+n|bus",
"346","*MOT:","and what's up in the tree ?","coord|and pro:wh|what~v:cop|be&3S prep|up prep|in det|the n|tree ?","prep|up","adv:loc|up",
"349","*CHI:","and , and school bus .","coord|and , coord|and n|school n|bus .","n|school n|bus","n|+n|school+n|bus",
"360","*MOT:","where'd you go ?","adv:wh|where~mod|genmod pro|you v|go ?","adv:wh|where~mod|genmod","adv:wh|where~mod|do&PAST",
"374","*INV:","is he saying rainbow ?","v:cop|be&3S pro:sub|he part|say-PROG n|+n|rain+n|bow ?","v:cop|be&3S","aux|be&3S",
"377","*INV:","oh , look .","co|oh , co|look .","co|look","v|look",
"381","*CHI:","kitty cat .","n|kitty n|cat .","n|kitty n|cat","n|+n|kitty+n|cat",
"386","*CHI:","kitty .","adj|kit&dn-Y .","adj|kit&dn-Y","n|kitty",
"389","*MOT:","that's , that's the horsie .","pro:dem|that~aux|be&3S , pro:dem|that~v:cop|be&3S det|the n|horse-DIM .","pro:dem|that~aux|be&3S","pro:dem|that~v:cop|be&3S",
"407","*INV:","what's a pig say ?","pro:wh|what~v:cop|be&3S det|a n|pig co|say ?","pro:wh|what~v:cop|be&3S","pro:wh|what~mod|do&3S",
"407","*INV:","what's a pig say ?","pro:wh|what~v:cop|be&3S det|a n|pig co|say ?","co|say","v|say",
"408","*MOT:","what's a pig say ?","pro:wh|what~v:cop|be&3S det|a n|pig co|say ?","pro:wh|what~v:cop|be&3S","pro:wh|what~mod|do&3S",
"408","*MOT:","what's a pig say ?","pro:wh|what~v:cop|be&3S det|a n|pig co|say ?","co|say","v|say",
"410","*MOT:","what's a cow say ?","pro:wh|what~v:cop|be&3S det|a n|cow co|say ?","pro:wh|what~v:cop|be&3S","pro:wh|what~mod|do&3S",
"410","*MOT:","what's a cow say ?","pro:wh|what~v:cop|be&3S det|a n|cow co|say ?","co|say","v|say",
"427","*MOT:","where's a crab live ?","adv:wh|where~v:cop|be&3S det|a n|crab adj|live ?","adv:wh|where~v:cop|be&3S","adv:wh|where~mod|do&3S",
"427","*MOT:","where's a crab live ?","adv:wh|where~v:cop|be&3S det|a n|crab adj|live ?","adj|live","v|live",
"428","*MOT:","where does a crab live ?","adv:wh|where mod|do&3S det|a n|crab adj|live ?","adj|live","v|live",
"430","*MOT:","he bites , but where does he live ?","pro:sub|he v|bite-3S , conj|but adv:wh|where mod|do&3S pro:sub|he adj|live ?","adj|live","v|live",
"436","*CHI:","you better watch out !","pro|you adv|good&CP v|watch n|out !","n|out","adv:loc|out",
"437","*CHI:","watch out .","n|watch n|out .","n|watch","v|watch",
"437","*CHI:","watch out .","n|watch n|out .","n|out","adv:loc|out",
"438","*MOT:","watch out for the crab .","n|watch n|out prep|for det|the n|crab .","n|watch","v|watch",
"438","*MOT:","watch out for the crab .","n|watch n|out prep|for det|the n|crab .","n|out","adv:loc|out",
"439","*CHI:","watch out !","n|watch n|out !","n|watch","v|watch",
"439","*CHI:","watch out !","n|watch n|out !","n|out","adv:loc|out",
"441","*CHI:","watch out !","n|watch n|out !","n|watch","v|watch",
"441","*CHI:","watch out !","n|watch n|out !","n|out","adv:loc|out",
"442","*CHI:","watch out !","n|watch n|out !","n|watch","v|watch",
"442","*CHI:","watch out !","n|watch n|out !","n|out","adv:loc|out",
"443","*INV:","do you wanna look at what else is in Observer's bag ?","v|do pro|you v|want~inf|to v|look prep|at pro:wh|what post|else v:cop|be&3S prep|in n:prop|Observer~poss|s n|bag ?","v|do","mod|do",
"457","*CHI:","mommy .","adj|mom&dn-Y .","adj|mom&dn-Y","n|mommy",
"458","*MOT:","mommy , who else ?","adj|mom&dn-Y , rel|who post|else ?","adj|mom&dn-Y","n|mommy",
"458","*MOT:","mommy , who else ?","adj|mom&dn-Y , rel|who post|else ?","rel|who","pro:wh|who",
"459","*CHI:","mommy .","adj|mom&dn-Y .","adj|mom&dn-Y","n|mommy",
"461","*CHI:","daddy .","adj|dad&dn-Y .","adj|dad&dn-Y","n|daddy",
"462","*MOT:","daddy .","adj|dad&dn-Y .","adj|dad&dn-Y","n|daddy",
"474","*MOT:","who does that ?","pro:wh|who mod|do&3S pro:dem|that ?","mod|do&3S","v|do&3S",
"486","*INV:","you talking about +...","pro|you part|talk-PROG adv|about +...","adv|about","prep|about",
"490","*INV:","are you regressing ?","v:cop|be&PRES pro|you part|regress-PROG ?","v:cop|be&PRES","aux|be&PRES",
"494","*MOT:","what color horse ?","pro:wh|what n|color n|horse ?","pro:wh|what","det:wh|what",
"498","*MOT:","what do ducks say ?","pro:wh|what mod|do v|duck-3S co|say ?","v|duck-3S","n|duck-PL",
"498","*MOT:","what do ducks say ?","pro:wh|what mod|do v|duck-3S co|say ?","co|say","v|say",
"499","*CHI:","quack quack quack .","n|quack n|quack n|quack .","n|quack","on|quack",
"499","*CHI:","quack quack quack .","n|quack n|quack n|quack .","n|quack","on|quack",
"499","*CHI:","quack quack quack .","n|quack n|quack n|quack .","n|quack","on|quack",
"500","*MOT:","quack quack .","n|quack n|quack .","n|quack","on|quack",
"500","*MOT:","quack quack .","n|quack n|quack .","n|quack","on|quack",
"505","*INV:","oh , sure .","co|oh , adj|sure .","adj|sure","co|sure",
"509","*CHI:","puppy .","adj|pup&dn-Y .","adj|pup&dn-Y","n|puppy",
"511","*INV:","what does a sheep say ?","pro:wh|what mod|do&3S det|a n|sheep co|say ?","co|say","v|say",
"513","*INV:","no , that's who's that ?","co|no , unk|that's pro:wh|who~v:cop|be&3S pro:dem|that ?","unk|that's","pro:dem|that~v:cop|be&3S",
"514","*INV:","do you know what that's called ?","v|do pro|you v|know pro:wh|what rel|that~aux|be&3S part|call-PERF ?","v|do","mod|do",
"514","*INV:","do you know what that's called ?","v|do pro|you v|know pro:wh|what rel|that~aux|be&3S part|call-PERF ?","rel|that~aux|be&3S","pro:dem|that~aux|be&3S",
"528","*INV:","I think it goes like that and then then you wanna shut it .","pro:sub|I v|think pro|it v|go-3S prep|like pro:dem|that coord|and unk|then adv:tem|then pro|you v|want~inf|to v|shut&ZERO pro|it .","unk|then","adv:tem|then",
"532","*INV:","you're supposed to blow it out .","pro|you~aux|be&PRES part|suppose-PERF inf|to v|blow pro|it n|out .","n|out","adv:loc|out",
"533","*INV:","you're not supposed to suck it all back in .","pro|you~v:cop|be&PRES neg|not part|suppose-PERF inf|to v|suck pro|it adv:int|all adv:loc|back adv:loc|in .","pro|you~v:cop|be&PRES","pro|you~aux|be&PRES",
"533","*INV:","you're not supposed to suck it all back in .","pro|you~v:cop|be&PRES neg|not part|suppose-PERF inf|to v|suck pro|it adv:int|all adv:loc|back adv:loc|in .","adv:int|all","qn|all",
"544","*INV:","come on , Child , you're supposed to blow it out .","v|come prep|on , n:prop|Child , pro|you~v:cop|be&PRES part|suppose-PERF inf|to v|blow pro|it n|out .","prep|on","adv:loc|on",
"544","*INV:","come on , Child , you're supposed to blow it out .","v|come prep|on , n:prop|Child , pro|you~v:cop|be&PRES part|suppose-PERF inf|to v|blow pro|it n|out .","pro|you~v:cop|be&PRES","pro|you~aux|be&PRES",
"544","*INV:","come on , Child , you're supposed to blow it out .","v|come prep|on , n:prop|Child , pro|you~v:cop|be&PRES part|suppose-PERF inf|to v|blow pro|it n|out .","n|out","adv:loc|out",
"545","*INV:","ready , blow .","adj|ready , n|blow .","n|blow","v|blow",
"548","*INV:","there we go .","adv:loc|there pro:sub|we v|go .","adv:loc|there","pro:exist",
"560","*IN2:","there's another elephant somewhere .","adv:loc|there~v:cop|be&3S qn|another n|elephant n|somewhere .","adv:loc|there~v:cop|be&3S","pro:exist~aux|be&3S",
"560","*IN2:","there's another elephant somewhere .","adv:loc|there~v:cop|be&3S qn|another n|elephant n|somewhere .","n|somewhere","adv:loc|somewhere",
"566","*INV:","what color is he ?","pro:wh|what n|color v:cop|be&3S pro:sub|he ?","pro:wh|what","det:wh|what",
"568","*INV:","he's not blue .","pro:sub|he~aux|be&3S neg|not n|blue .","pro:sub|he~aux|be&3S","pro:sub|he~v:cop|be&3S",
"568","*INV:","he's not blue .","pro:sub|he~aux|be&3S neg|not n|blue .","n|blue","adj|blue",
"575","*INV:","do you know what kind of trucks those are ?","mod|do pro|you v|know pro:wh|what n|kind prep|of n|truck-PL pro:dem|those v:cop|be&PRES ?","pro:wh|what","det:wh|what",
"576","*CHI:","bulldoze .","v|bulldoze .","v|bulldoze","n|bulldoze","Investigator elicited the kind of truck."
"577","*INV:","I think they're cement mixers , actually .","pro:sub|I v|think pro:sub|they~aux|be&PRES n|cement n|mix&dv-AGT-PL , adv|actual&dadj-LY .","pro:sub|they~aux|be&PRES","pro:sub|they~v:cop|be&PRES",
"577","*INV:","I think they're cement mixers , actually .","pro:sub|I v|think pro:sub|they~aux|be&PRES n|cement n|mix&dv-AGT-PL , adv|actual&dadj-LY .","n|cement n|mix&dv-AGT-PL","n|+n|cement+n|mixer-PL",
"577","*INV:","I think they're cement mixers , actually .","pro:sub|I v|think pro:sub|they~aux|be&PRES n|cement n|mix&dv-AGT-PL , adv|actual&dadj-LY .","adv|actual&dadj-LY","adv|actually",
"578","*CHI:","toy truck .","n|toy n|truck .","n|toy","adj|toy",
"583","*INV:","how many toys ?","adv:wh|how qn|many n|toy-PL ?","adv:wh|how","det:wh|how",
"593","*INV:","what kinda bird ?","pro:wh|what adv|kinda n|bird ?","pro:wh|what","det:wh|what",
"593","*INV:","what kinda bird ?","pro:wh|what adv|kinda n|bird ?","adv|kinda","n|kind~prep|of",
"595","*MOT:","who's this funny looking thing ?","pro:wh|who~v:cop|be&3S det|this adj|fun&dn-Y part|look-PROG n|thing ?","adj|fun&dn-Y part|look-PROG","adj|+adj|funny+part|look-PROG",
"618","*INV:","oh , there , I got it , Observer .","co|oh , adv:loc|there , pro:sub|I v|get&PAST pro|it , n:prop|Observer .","adv:loc|there","pro:exist",
"620","*INV:","see that little thing inside it ?","v|see det|that adj|little n|thing adj|inside pro|it ?","adj|inside","prep|inside",
"621","*INV:","that's what holds it .","pro:dem|that~v:cop|be&3S pro:wh|what n|hold-PL pro|it .","n|hold-PL","v|hold-3S",
"646","*MOT:","mm hmm .","unk|mm unk|hmm .","unk|mm unk|hmm","co|+co|mm+co|hmm",
"669","*INV:","what's that called ?","pro:wh|what~v:cop|be&3S pro:dem|that part|call-PERF ?","pro:wh|what~v:cop|be&3S","pro:wh|what~aux|be&3S",
"674","*INV:","here , blow .","adv:loc|here , n|blow .","n|blow","v|blow",
"676","*INV:","blow harder .","v|blow adj|hard-CP .","adj|hard-CP","adv|hard-CP",
"688","*INV:","uh oh , be careful !","unk|uh co|oh , v:cop|be adj|careful !","unk|uh co|oh","co|+co|uh+co|oh",
"698","*INV:","who's he ?","pro:wh|who~aux|be&3S pro:sub|he ?","pro:wh|who~aux|be&3S","pro:wh|who~v:cop|be&3S",
"711","*MOT:","you want to play with these letters ?","pro|you v|want prep|to n|play prep|with det|these n|letter-PL ?","prep|to","inf|to",
"711","*MOT:","you want to play with these letters ?","pro|you v|want prep|to n|play prep|with det|these n|letter-PL ?","n|play","v|play",
"715","*CHI:","watch out !","n|watch n|out !","n|watch","v|watch",
"715","*CHI:","watch out !","n|watch n|out !","n|out","adv:loc|out",
"716","*CHI:","watch out !","n|watch n|out !","n|watch","v|watch",
"716","*CHI:","watch out !","n|watch n|out !","n|out","adv:loc|out",
"718","*CHI:","watch out !","n|watch n|out !","n|watch","v|watch",
"718","*CHI:","watch out !","n|watch n|out !","n|out","adv:loc|out",
"737","*MOT:","how many ?","adv:wh|how adj|man&dn-Y ?","adj|man&dn-Y","qn|many",
"741","*CHI:","watch out !","n|watch n|out !","n|watch","v|watch",
"741","*CHI:","watch out !","n|watch n|out !","n|out","adv:loc|out",
"742","*CHI:","watch out !","n|watch n|out !","n|watch","v|watch",
"742","*CHI:","watch out !","n|watch n|out !","n|out","adv:loc|out",
"743","*MOT:","what's your favorite bird ?","pro:wh|what~v:cop|be&3S pro:poss:det|your n|favorite n|bird ?","n|favorite","adj|favorite",
"744","*CHI:","watch out !","n|watch n|out !","n|watch","v|watch",
"744","*CHI:","watch out !","n|watch n|out !","n|out","adv:loc|out",
"745","*CHI:","watch out !","n|watch n|out !","n|watch","v|watch",
"745","*CHI:","watch out !","n|watch n|out !","n|out","adv:loc|out",
"755","*MOT:","and what color is Pete ?","coord|and pro:wh|what n|color v:cop|be&3S n:prop|Pete ?","pro:wh|what","det:wh|what",
"761","*CHI:","tweet tweet .","v|tweet on|tweet .","v|tweet","on|tweet",
"762","*INV:","does he say people words too , though ?","mod|do&3S pro:sub|he v|say n|person&PL n|word-PL adv:int|too , adv|though ?","n|person&PL","adj|person&PL",
"762","*INV:","does he say people words too , though ?","mod|do&3S pro:sub|he v|say n|person&PL n|word-PL adv:int|too , adv|though ?","adv:int|too","post|too",
"764","*MOT:","what does the duck say ?","pro:wh|what mod|do&3S det|the n|duck co|say ?","co|say","v|say",
"765","*CHI:","quack .","n|quack .","n|quack","on|quack",
"766","*MOT:","what color are those letters over there ?","pro:wh|what n|color v:cop|be&PRES det|those n|letter-PL adv:loc|over adv:loc|there ?","pro:wh|what","det:wh|what",
"770","*MOT:","red , blue , green .","adj|red , n|blue , v|green .","n|blue","adj|blue",
"770","*MOT:","red , blue , green .","adj|red , n|blue , v|green .","v|green","adj|green",
"772","*MOT:","show Investigator .","n|show n:prop|Investigator .","n|show","v|show",
"774","*MOT:","can you do your abc's ?","mod|can pro|you v|do pro:poss:det|your n|abc~poss|s ?","n|abc~poss|s","n|abc-PL",
"776","*CHI:","green , green , green car .","v|green , v|green , v|green n|car .","v|green","adj|green",
"776","*CHI:","green , green , green car .","v|green , v|green , v|green n|car .","v|green","adj|green",
"776","*CHI:","green , green , green car .","v|green , v|green , v|green n|car .","v|green","adj|green",
"778","*INV:","what colors are the truck ?","pro:wh|what n|color-PL v:cop|be&PRES det|the n|truck ?","pro:wh|what","det:wh|what",
"812","*CHI:","count .","v|count .","v|count","n:prop|count","From Sesame Street, obviously."
"836","*MOT:","what color's your xxx ?","pro:wh|what n|color~v:cop|be&3S pro:poss:det|your unk|xxx ?","pro:wh|what","det:wh|what",
"845","*INV:","they're probably alright .","pro:sub|they~aux|be&PRES adv|probable&dadj-LY co|alright .","pro:sub|they~aux|be&PRES","pro:sub|they~v:cop|be&PRES",
"845","*INV:","they're probably alright .","pro:sub|they~aux|be&PRES adv|probable&dadj-LY co|alright .","adv|probable&dadj-LY","adv|probably",
"845","*INV:","they're probably alright .","pro:sub|they~aux|be&PRES adv|probable&dadj-LY co|alright .","co|alright","adj|alright",
"853","*INV:","out .","n|out .","n|out","adv:loc|out",
"854","*INV:","out .","n|out .","n|out","adv:loc|out",
"855","*INV:","blow out .","n|blow n|out .","n|blow","v|blow",
"855","*INV:","blow out .","n|blow n|out .","n|out","adv:loc|out",
"856","*INV:","blow out .","n|blow n|out .","n|blow","v|blow",
"856","*INV:","blow out .","n|blow n|out .","n|out","adv:loc|out",
"858","*MOT:","show the girls your abc's .","v|show det|the n|girl-PL pro:poss:det|your n|abc~poss|s .","n|abc~poss|s","n|abc-PL",
"859","*MOT:","what letter is that ?","pro:wh|what n|letter v:cop|be&3S pro:dem|that ?","pro:wh|what","det:wh|what",
"865","*ADU:","what letter's that ?","pro:wh|what n|letter~v:cop|be&3S pro:dem|that ?","pro:wh|what","det:wh|what",
"871","*MOT:","what letter's that ?","pro:wh|what n|letter~v:cop|be&3S pro:dem|that ?","pro:wh|what","det:wh|what",
"873","*MOT:","what color's that b@l ?","pro:wh|what n|color~v:cop|be&3S pro:dem|that n:let|b ?","pro:wh|what","det:wh|what",
"873","*MOT:","what color's that b@l ?","pro:wh|what n|color~v:cop|be&3S pro:dem|that n:let|b ?","pro:dem|that","det|that",
"882","*MOT:","what color is it ?","pro:wh|what n|color v:cop|be&3S pro|it ?","pro:wh|what","det:wh|what",
"883","*MOT:","what color is this a@l ?","pro:wh|what n|color v:cop|be&3S pro:dem|this n:let|a ?","pro:wh|what","det:wh|what",
"883","*MOT:","what color is this a@l ?","pro:wh|what n|color v:cop|be&3S pro:dem|this n:let|a ?","pro:dem|this","det|this",
"890","*INV:","we have_to deal with the transcript later on , so it's easier if we're here to , to watch so that we know what's going on .","pro:sub|we mod:aux|have_to v|deal prep|with det|the n|transcript adv|later adv|on , conj|so pro|it~v:cop|be&3S adj|ease&dn-Y-CP conj|if pro:sub|we~v:cop|be&PRES adv:loc|here inf|to , prep|to n|watch co|so pro:dem|that pro:sub|we v|know pro:wh|what~aux|be&3S part|go-PROG adv:loc|on .","prep|to","inf|to",
"890","*INV:","we have_to deal with the transcript later on , so it's easier if we're here to , to watch so that we know what's going on .","pro:sub|we mod:aux|have_to v|deal prep|with det|the n|transcript adv|later adv|on , conj|so pro|it~v:cop|be&3S adj|ease&dn-Y-CP conj|if pro:sub|we~v:cop|be&PRES adv:loc|here inf|to , prep|to n|watch co|so pro:dem|that pro:sub|we v|know pro:wh|what~aux|be&3S part|go-PROG adv:loc|on .","n|watch","v|watch",
"890","*INV:","we have_to deal with the transcript later on , so it's easier if we're here to , to watch so that we know what's going on .","pro:sub|we mod:aux|have_to v|deal prep|with det|the n|transcript adv|later adv|on , conj|so pro|it~v:cop|be&3S adj|ease&dn-Y-CP conj|if pro:sub|we~v:cop|be&PRES adv:loc|here inf|to , prep|to n|watch co|so pro:dem|that pro:sub|we v|know pro:wh|what~aux|be&3S part|go-PROG adv:loc|on .","co|so pro:dem|that","conj:subor|+conj:subor|so+conj:subor|that",
"894","*MOT:","xxx loves books .","unk|xxx n|love-PL n|book-PL .","n|love-PL","v|love-3S",
"911","*MOT:","what letter is this ?","pro:wh|what n|letter v:cop|be&3S pro:dem|this ?","pro:wh|what","det:wh|what",
"913","*MOT:","what letter is that ?","pro:wh|what n|letter v:cop|be&3S pro:dem|that ?","pro:wh|what","det:wh|what",
"915","*MOT:","what color is it ?","pro:wh|what n|color v:cop|be&3S pro|it ?","pro:wh|what","det:wh|what",
"918","*MOT:","what letter is this ?","pro:wh|what n|letter v:cop|be&3S pro:dem|this ?","pro:wh|what","det:wh|what",
"920","*MOT:","no , what letter is this ?","co|no , pro:wh|what n|letter v:cop|be&3S pro:dem|this ?","pro:wh|what","det:wh|what",
"922","*MOT:","and what color is n@l ?","coord|and pro:wh|what n|color v:cop|be&3S n:let|n ?","pro:wh|what","det:wh|what",
"925","*MOT:","what letter is this ?","pro:wh|what n|letter v:cop|be&3S pro:dem|this ?","pro:wh|what","det:wh|what",
"927","*MOT:","what letter ?","pro:wh|what n|letter ?","pro:wh|what","det:wh|what",
"931","*MOT:","what letter is it ?","pro:wh|what n|letter aux|be&3S pro|it ?","pro:wh|what","det:wh|what",
"931","*MOT:","what letter is it ?","pro:wh|what n|letter aux|be&3S pro|it ?","aux|be&3S","v:cop|be&3S",
"932","*MOT:","well , what color is it ?","co|well , pro:wh|what n|color v:cop|be&3S pro|it ?","pro:wh|what","det:wh|what",
"933","*MOT:","what color is it ?","pro:wh|what n|color v:cop|be&3S pro|it ?","pro:wh|what","det:wh|what",
"936","*MOT:","what letter's that ?","pro:wh|what n|letter~v:cop|be&3S pro:dem|that ?","pro:wh|what","det:wh|what",
"940","*ADU:","what starts with t@l ?","pro:wh|what n|start-PL prep|with n:let|t ?","n|start-PL","v|start-3S",
"941","*MOT:","yeah , what starts with t@l ?","co|yeah , pro:wh|what n|start-PL prep|with n:let|t ?","n|start-PL","v|start-3S",
"951","*MOT:","where do you live ?","adv:wh|where mod|do pro|you adj|live ?","adj|live","v|live",
"955","*MOT:","what state ?","pro:wh|what n|state ?","pro:wh|what","det:wh|what",
"974","*INV:","it's time for Investigator and Observer to go , so can you help us put our toys away ?","pro|it~v:cop|be&3S n|time prep|for n:prop|Investigator coord|and n:prop|Observer inf|to v|go , adv:int|so mod|can pro|you v|help pro:obj|us v|put&ZERO pro:poss:det|our n|toy-PL adv|away ?","adv:int|so","conj:subor|so",
"980","*INV:","for a little while longer .","prep|for det|a adj|little n|while n|long&dv-AGT .","n|long&dv-AGT","adv|long-CP",
