TAG,adj,adv,aux,chi,coo,cop,det,ext,ger,idf,idf-pl,inf,int,let,meta,mod,n,n-pl,n-pr,neg,num,ono,pos,pps,pre,pro,prt-pf,prt-pg,psq,qnt,sub,tem,vb,vbd,vbo,vbs,Precision
adj,214,8,0,0,0,0,0,0,0,0,0,0,1,0,0,0,2,0,0,0,0,0,0,0,0,0,0,0,0,0,0,0,1,0,0,0,94.69
adv,5,553,0,0,0,0,0,7,0,0,0,0,3,0,0,0,3,0,0,0,0,0,0,0,7,0,0,0,2,0,2,0,0,0,0,0,95.02
aux,0,0,131,0,0,22,0,0,0,0,0,0,0,0,0,0,0,0,0,0,0,0,0,0,0,0,0,0,0,0,0,0,4,0,0,0,83.44
chi,0,0,0,8,0,0,0,0,0,0,0,0,0,0,0,0,0,0,0,0,0,0,0,0,0,0,0,0,0,0,0,0,1,0,0,0,88.89
coo,0,0,0,0,121,0,0,0,0,0,0,0,0,0,0,0,0,0,0,0,0,0,0,0,0,0,0,0,0,0,0,0,0,0,0,0,100.0
cop,0,0,14,0,0,359,0,0,0,0,0,0,0,0,0,0,0,0,0,0,0,0,0,0,0,0,0,0,0,0,0,0,0,0,0,0,96.25
det,0,0,0,0,0,0,478,0,0,0,0,0,0,2,0,0,0,0,0,0,0,0,0,0,0,13,0,0,0,0,0,0,0,0,0,0,96.96
ext,0,1,0,0,0,0,0,13,0,0,0,0,0,0,0,0,0,0,0,0,0,0,0,0,0,0,0,0,0,0,0,0,0,0,0,0,92.86
ger,0,0,0,0,0,0,0,0,0,0,0,0,0,0,0,0,0,0,0,0,0,0,0,0,0,0,0,0,0,0,0,0,0,0,1,0,100.0
idf,0,2,0,0,0,0,0,0,0,84,0,0,0,0,0,0,0,0,0,0,3,0,0,0,0,0,0,0,0,2,0,0,0,0,0,0,92.31
idf-pl,0,0,0,0,0,0,0,0,0,2,0,0,0,0,0,0,0,0,0,0,0,0,0,0,0,0,0,0,0,0,0,0,0,0,0,0,100.0
inf,0,0,0,0,0,0,0,0,0,0,0,107,0,0,0,0,0,0,0,0,0,0,0,0,2,0,0,0,0,0,0,0,0,0,0,0,98.17
int,4,2,0,0,0,0,0,0,0,0,0,0,623,0,0,0,2,0,0,0,0,1,0,1,0,0,0,0,0,1,1,0,6,0,0,0,97.19
let,0,0,0,0,0,0,2,0,0,0,0,0,0,34,0,0,0,0,0,0,0,0,0,0,0,0,0,0,0,0,0,0,0,0,0,0,94.44
meta,0,0,0,0,0,0,0,0,0,0,0,0,0,0,1,0,0,0,0,0,0,1,0,0,0,0,0,0,0,0,0,0,0,0,0,0,50.0
mod,0,0,0,0,0,0,0,0,0,0,0,0,0,0,0,343,0,0,0,0,0,0,0,0,0,0,0,2,0,0,0,0,4,0,0,0,98.28
n,6,4,0,1,0,0,0,0,0,0,0,0,1,0,0,0,1115,21,0,0,0,2,0,0,0,0,0,2,0,0,0,0,24,2,0,0,94.65
n-pl,0,0,0,0,0,0,0,0,0,0,0,0,0,0,0,0,69,56,0,0,0,0,0,0,0,0,0,0,0,0,0,0,1,0,0,0,54.76
n-pr,0,0,0,0,0,0,0,0,0,0,0,0,0,0,0,0,0,0,543,0,0,0,0,0,0,0,0,0,0,0,0,0,0,0,0,0,100.0
neg,0,0,0,0,0,0,0,0,0,0,0,0,0,0,0,0,0,0,0,169,0,0,0,0,0,0,0,0,0,0,0,0,0,0,0,0,100.0
num,0,0,0,0,0,0,0,0,0,3,0,0,0,0,0,0,1,0,0,0,61,0,0,0,0,0,0,0,0,0,0,0,0,0,0,0,93.85
ono,0,0,0,0,0,0,0,0,0,0,0,0,0,0,0,0,0,0,0,0,0,9,0,0,0,0,0,0,0,0,0,0,0,0,0,0,100.0
pos,0,0,0,0,0,0,0,0,0,0,0,0,0,0,0,0,0,0,0,0,0,0,41,0,0,0,0,0,0,0,0,0,0,0,0,0,100.0
pps,0,0,0,0,0,0,0,0,0,0,0,0,0,0,0,0,1,0,0,0,0,0,0,200,0,0,0,0,0,0,0,0,0,0,0,0,99.5
pre,0,19,0,0,0,0,0,0,0,0,0,2,0,0,0,0,1,0,0,0,0,0,0,0,425,0,0,0,0,0,4,0,1,0,0,0,94.03
pro,0,0,0,0,0,0,3,0,0,0,0,0,0,0,0,0,0,0,0,0,0,0,0,2,0,1762,0,0,0,0,0,0,0,0,0,0,99.72
prt-pf,0,0,0,0,0,0,0,0,0,0,0,0,0,0,0,1,0,0,0,0,0,0,0,0,0,0,11,7,0,0,0,0,6,0,0,0,44.0
prt-pg,1,0,0,0,0,1,0,0,3,0,0,0,0,0,0,2,9,0,0,0,0,0,0,0,0,0,0,170,0,0,0,0,51,1,7,5,68.0
psq,0,4,0,0,0,0,0,0,0,0,0,0,0,0,0,0,0,0,0,0,0,0,0,0,0,0,0,0,36,2,0,0,0,0,0,0,85.71
qnt,0,7,0,0,0,0,0,0,0,0,0,0,6,0,0,0,0,0,0,0,0,0,0,0,0,0,0,0,1,154,0,0,0,0,0,0,91.67
sub,0,0,0,0,0,0,0,0,0,0,0,0,0,0,0,0,0,0,0,0,0,0,0,0,0,0,0,0,0,0,58,0,0,0,0,0,100.0
tem,0,0,0,0,0,0,0,0,0,0,0,0,0,0,0,0,0,0,0,0,0,0,0,0,0,0,0,0,0,0,1,32,0,0,0,0,96.97
vb,4,1,3,0,0,0,0,0,0,0,0,0,6,0,0,9,11,2,0,0,0,1,0,0,0,0,3,15,0,0,0,0,862,13,9,13,90.55
vbd,0,0,1,0,0,0,0,0,0,0,0,0,0,0,0,1,2,0,0,0,0,0,0,0,0,0,1,3,0,0,0,0,40,24,0,1,54.79
vbo,0,0,0,0,0,0,0,0,0,0,0,0,0,0,0,0,0,0,0,0,0,0,0,0,0,0,0,1,0,0,0,0,0,0,113,0,99.12
vbs,0,0,0,0,0,0,0,0,0,0,0,0,0,0,0,0,0,1,0,0,0,0,0,0,0,0,0,1,0,0,0,0,23,3,1,9,60.53
Recall,91.45,92.01,87.92,88.89,100.00,93.98,98.96,65.00,100.00,94.38,nan,98.17,97.34,94.44,100.00,96.35,91.69,70.00,100.00,100.00,95.31,64.29,100.00,98.52,97.93,99.27,73.33,84.58,92.31,96.86,87.88,100.00,84.18,55.81,86.26,46.43
