\relax 
\@writefile{toc}{\contentsline {section}{Contents}{1}}
\citation{Schroeder:2002b}
\@writefile{toc}{\contentsline {section}{\numberline {1}Introduction}{3}}
\@writefile{toc}{\contentsline {section}{\numberline {2}Installation}{3}}
\citation{Schroeder:2002b}
\citation{Marcus+Santorini+Marcinkiewicz:93a}
\@writefile{toc}{\contentsline {section}{\numberline {3}File formats}{4}}
\newlabel{S:FileFormats}{{3}{4}}
\citation{Brill+Wu:98}
\@writefile{toc}{\contentsline {section}{\numberline {4}Tutorial}{5}}
\@writefile{toc}{\contentsline {section}{\numberline {5}Program references}{5}}
\@writefile{toc}{\contentsline {subsection}{\numberline {5.1}complementary-rate.pl}{5}}
\newlabel{S:complementary-rate.pl}{{5.1}{5}}
\@writefile{toc}{\contentsline {subsubsection}{\numberline {5.1.1}Purpose}{5}}
\@writefile{toc}{\contentsline {subsubsection}{\numberline {5.1.2}Usage}{6}}
\@writefile{toc}{\contentsline {subsubsection}{\numberline {5.1.3}Example}{6}}
\@writefile{toc}{\contentsline {subsection}{\numberline {5.2}cooked2lex.pl}{6}}
\newlabel{S:cooked2lex.pl}{{5.2}{6}}
\@writefile{toc}{\contentsline {subsubsection}{\numberline {5.2.1}Purpose}{6}}
\@writefile{toc}{\contentsline {subsubsection}{\numberline {5.2.2}Usage}{6}}
\@writefile{toc}{\contentsline {subsubsection}{\numberline {5.2.3}Example}{6}}
\citation{Brants:97b}
\citation{Brants:2000a}
\citation{Daelemans+Bosch+Weijters:97a,Schroeder:2002b}
\@writefile{toc}{\contentsline {subsection}{\numberline {5.3}cooked2ngram.pl}{7}}
\newlabel{S:cooked2ngram.pl}{{5.3}{7}}
\@writefile{toc}{\contentsline {subsubsection}{\numberline {5.3.1}Purpose}{7}}
\@writefile{toc}{\contentsline {subsubsection}{\numberline {5.3.2}Usage}{7}}
\@writefile{toc}{\contentsline {subsubsection}{\numberline {5.3.3}Example}{7}}
\@writefile{toc}{\contentsline {subsection}{\numberline {5.4}cooked2tt.pl}{7}}
\newlabel{S:cooked2tt.pl}{{5.4}{7}}
\@writefile{toc}{\contentsline {subsubsection}{\numberline {5.4.1}Purpose}{7}}
\@writefile{toc}{\contentsline {subsubsection}{\numberline {5.4.2}Usage}{7}}
\@writefile{toc}{\contentsline {subsubsection}{\numberline {5.4.3}Example}{7}}
\@writefile{toc}{\contentsline {subsection}{\numberline {5.5}cooked2wtree.pl}{8}}
\newlabel{S:cooked2wtree.pl}{{5.5}{8}}
\@writefile{toc}{\contentsline {subsubsection}{\numberline {5.5.1}Purpose}{8}}
\@writefile{toc}{\contentsline {subsubsection}{\numberline {5.5.2}Usage}{8}}
\@writefile{toc}{\contentsline {subsubsection}{\numberline {5.5.3}Features}{8}}
\citation{Schroeder:2002b}
\@writefile{toc}{\contentsline {subsubsection}{\numberline {5.5.4}Example}{9}}
\@writefile{toc}{\contentsline {subsection}{\numberline {5.6}et}{9}}
\newlabel{S:et}{{5.6}{9}}
\@writefile{toc}{\contentsline {subsubsection}{\numberline {5.6.1}Purpose}{9}}
\@writefile{toc}{\contentsline {subsubsection}{\numberline {5.6.2}Usage}{9}}
\@writefile{toc}{\contentsline {subsubsection}{\numberline {5.6.3}Example}{9}}
\citation{Schroeder:2002b}
\@writefile{toc}{\contentsline {subsection}{\numberline {5.7}evaluate.pl}{10}}
\newlabel{S:evaluate.pl}{{5.7}{10}}
\@writefile{toc}{\contentsline {subsubsection}{\numberline {5.7.1}Purpose}{10}}
\@writefile{toc}{\contentsline {subsubsection}{\numberline {5.7.2}Usage}{10}}
\@writefile{toc}{\contentsline {subsubsection}{\numberline {5.7.3}Example}{10}}
\@writefile{toc}{\contentsline {subsection}{\numberline {5.8}majority-voter.pl}{10}}
\newlabel{S:majority-voter.pl}{{5.8}{10}}
\@writefile{toc}{\contentsline {subsubsection}{\numberline {5.8.1}Purpose}{10}}
\@writefile{toc}{\contentsline {subsubsection}{\numberline {5.8.2}Usage}{11}}
\@writefile{toc}{\contentsline {subsubsection}{\numberline {5.8.3}Example}{11}}
\@writefile{toc}{\contentsline {subsection}{\numberline {5.9}met}{11}}
\newlabel{S:met}{{5.9}{11}}
\@writefile{toc}{\contentsline {subsubsection}{\numberline {5.9.1}Purpose}{11}}
\@writefile{toc}{\contentsline {subsubsection}{\numberline {5.9.2}Usage}{11}}
\citation{Schroeder:2002b}
\citation{Brants:2000a}
\citation{Schroeder:2002b}
\citation{Brants:2000a}
\@writefile{toc}{\contentsline {subsubsection}{\numberline {5.9.3}Example}{12}}
\@writefile{toc}{\contentsline {subsection}{\numberline {5.10}t3}{12}}
\newlabel{S:t3}{{5.10}{12}}
\@writefile{toc}{\contentsline {subsubsection}{\numberline {5.10.1}Purpose}{12}}
\@writefile{toc}{\contentsline {subsubsection}{\numberline {5.10.2}Usage}{12}}
\@writefile{toc}{\contentsline {subsubsection}{\numberline {5.10.3}Example}{13}}
\@writefile{toc}{\contentsline {subsection}{\numberline {5.11}tbt}{13}}
\newlabel{S:tbt}{{5.11}{13}}
\@writefile{toc}{\contentsline {subsubsection}{\numberline {5.11.1}Purpose}{13}}
\@writefile{toc}{\contentsline {subsubsection}{\numberline {5.11.2}Usage}{13}}
\@writefile{toc}{\contentsline {subsubsection}{\numberline {5.11.3}Templates}{13}}
\citation{Brants:97b}
\citation{Brants:2000a}
\@writefile{toc}{\contentsline {subsubsection}{\numberline {5.11.4}Example}{14}}
\@writefile{toc}{\contentsline {subsection}{\numberline {5.12}tt2cooked.pl}{14}}
\newlabel{S:tt2cooked.pl}{{5.12}{14}}
\@writefile{toc}{\contentsline {subsubsection}{\numberline {5.12.1}Purpose}{14}}
\bibdata{ug}
\bibcite{Brants:97b}{{1}{1997}{{Brants}}{{}}}
\bibcite{Brants:2000a}{{2}{2000}{{Brants}}{{}}}
\bibcite{Brill+Wu:98}{{3}{1998}{{Brill and Wu}}{{}}}
\bibcite{Daelemans+Bosch+Weijters:97a}{{4}{1997}{{Daelemans et~al.}}{{Daelemans, van~den Bosch, and Weijters}}}
\bibcite{Marcus+Santorini+Marcinkiewicz:93a}{{5}{1993}{{Marcus et~al.}}{{Marcus, Santorini, and Marcinkiewicz}}}
\bibcite{Schroeder:2002b}{{6}{2002}{{Schr\"oder}}{{}}}
\bibstyle{plainnat}
\@writefile{toc}{\contentsline {subsubsection}{\numberline {5.12.2}Usage}{15}}
\@writefile{toc}{\contentsline {subsubsection}{\numberline {5.12.3}Example}{15}}
\@writefile{toc}{\contentsline {subsection}{\numberline {5.13}wsj2cooked.pl}{15}}
\newlabel{S:wsj2cooked.pl}{{5.13}{15}}
\@writefile{toc}{\contentsline {subsubsection}{\numberline {5.13.1}Purpose}{15}}
\@writefile{toc}{\contentsline {subsubsection}{\numberline {5.13.2}Usage}{15}}
\@writefile{toc}{\contentsline {subsubsection}{\numberline {5.13.3}Example}{15}}
\@writefile{toc}{\contentsline {section}{References}{15}}
