\contentsline {section}{Contents}{1}
\contentsline {section}{\numberline {1}Introduction}{3}
\contentsline {section}{\numberline {2}Installation}{3}
\contentsline {section}{\numberline {3}File formats}{4}
\contentsline {section}{\numberline {4}Tutorial}{5}
\contentsline {section}{\numberline {5}Program references}{5}
\contentsline {subsection}{\numberline {5.1}complementary-rate.pl}{5}
\contentsline {subsubsection}{\numberline {5.1.1}Purpose}{5}
\contentsline {subsubsection}{\numberline {5.1.2}Usage}{6}
\contentsline {subsubsection}{\numberline {5.1.3}Example}{6}
\contentsline {subsection}{\numberline {5.2}cooked2lex.pl}{6}
\contentsline {subsubsection}{\numberline {5.2.1}Purpose}{6}
\contentsline {subsubsection}{\numberline {5.2.2}Usage}{6}
\contentsline {subsubsection}{\numberline {5.2.3}Example}{6}
\contentsline {subsection}{\numberline {5.3}cooked2ngram.pl}{7}
\contentsline {subsubsection}{\numberline {5.3.1}Purpose}{7}
\contentsline {subsubsection}{\numberline {5.3.2}Usage}{7}
\contentsline {subsubsection}{\numberline {5.3.3}Example}{7}
\contentsline {subsection}{\numberline {5.4}cooked2tt.pl}{7}
\contentsline {subsubsection}{\numberline {5.4.1}Purpose}{7}
\contentsline {subsubsection}{\numberline {5.4.2}Usage}{7}
\contentsline {subsubsection}{\numberline {5.4.3}Example}{7}
\contentsline {subsection}{\numberline {5.5}cooked2wtree.pl}{8}
\contentsline {subsubsection}{\numberline {5.5.1}Purpose}{8}
\contentsline {subsubsection}{\numberline {5.5.2}Usage}{8}
\contentsline {subsubsection}{\numberline {5.5.3}Features}{8}
\contentsline {subsubsection}{\numberline {5.5.4}Example}{9}
\contentsline {subsection}{\numberline {5.6}et}{9}
\contentsline {subsubsection}{\numberline {5.6.1}Purpose}{9}
\contentsline {subsubsection}{\numberline {5.6.2}Usage}{9}
\contentsline {subsubsection}{\numberline {5.6.3}Example}{9}
\contentsline {subsection}{\numberline {5.7}evaluate.pl}{10}
\contentsline {subsubsection}{\numberline {5.7.1}Purpose}{10}
\contentsline {subsubsection}{\numberline {5.7.2}Usage}{10}
\contentsline {subsubsection}{\numberline {5.7.3}Example}{10}
\contentsline {subsection}{\numberline {5.8}majority-voter.pl}{10}
\contentsline {subsubsection}{\numberline {5.8.1}Purpose}{10}
\contentsline {subsubsection}{\numberline {5.8.2}Usage}{11}
\contentsline {subsubsection}{\numberline {5.8.3}Example}{11}
\contentsline {subsection}{\numberline {5.9}met}{11}
\contentsline {subsubsection}{\numberline {5.9.1}Purpose}{11}
\contentsline {subsubsection}{\numberline {5.9.2}Usage}{11}
\contentsline {subsubsection}{\numberline {5.9.3}Example}{12}
\contentsline {subsection}{\numberline {5.10}t3}{12}
\contentsline {subsubsection}{\numberline {5.10.1}Purpose}{12}
\contentsline {subsubsection}{\numberline {5.10.2}Usage}{12}
\contentsline {subsubsection}{\numberline {5.10.3}Example}{13}
\contentsline {subsection}{\numberline {5.11}tbt}{13}
\contentsline {subsubsection}{\numberline {5.11.1}Purpose}{13}
\contentsline {subsubsection}{\numberline {5.11.2}Usage}{13}
\contentsline {subsubsection}{\numberline {5.11.3}Templates}{13}
\contentsline {subsubsection}{\numberline {5.11.4}Example}{14}
\contentsline {subsection}{\numberline {5.12}tt2cooked.pl}{14}
\contentsline {subsubsection}{\numberline {5.12.1}Purpose}{14}
\contentsline {subsubsection}{\numberline {5.12.2}Usage}{15}
\contentsline {subsubsection}{\numberline {5.12.3}Example}{15}
\contentsline {subsection}{\numberline {5.13}wsj2cooked.pl}{15}
\contentsline {subsubsection}{\numberline {5.13.1}Purpose}{15}
\contentsline {subsubsection}{\numberline {5.13.2}Usage}{15}
\contentsline {subsubsection}{\numberline {5.13.3}Example}{15}
\contentsline {section}{References}{15}
