18	MOT	that's a guitar but I was asking you if you saw an eagle with grandma Lastname last weekend .	pro:dem|that~v:cop|be&3S det|a n|guitar conj|but pro:sub|I aux|be&PAST&13S part|ask-PROG pro|you conj|if pro|you v|see&PAST det|a n|eagle prep|with n|grandma n:prop|Lastname adv|last n|+n|week+n|end .	adv|last	adj|last
47	MOT	that's a traffic light .	pro:dem|that~v:cop|be&3S det|a n|traffic n|light .	n|traffic n|light	n|+n|traffic+n|light
49	MOT	does momma stop at the traffic lights ?	mod|do&3S n|momma n|stop prep|at det|the n|traffic n|light-PL ?	n|stop	v|stop
49	MOT	does momma stop at the traffic lights ?	mod|do&3S n|momma n|stop prep|at det|the n|traffic n|light-PL ?	n|momma	n:prop|momma
57	MOT	stop sign .	n|stop n|sign .	n|stop n|sign	n|+n|stop+n|sign
92	CHI	and a pine cone !	coord|and det|a n|pine n|cone !	n|pine n|cone	n|+n|pine+n|cone
93	MOT	yeah what color is that pine cone ?	co|yeah pro:wh|what n|color v:cop|be&3S pro:dem|that n|pine n|cone ?	n|pine n|cone	n|+n|pine+n|cone
93	MOT	yeah what color is that pine cone ?	co|yeah pro:wh|what n|color v:cop|be&3S pro:dem|that n|pine n|cone ?	pro:dem|that	det|that
106	MOT	what's what's that ?	pro:wh|what~aux|be&3S pro:wh|what~v:cop|be&3S pro:dem|that ?	pro:wh|what~aux|be&3S	pro:wh|what~v:cop|be&3s
128	MOT	what's esa@c ?	pro:wh|what~aux|be&3S chi|esa ?	pro:wh|what~aux|be&3S	pro:wh|what~v:cop|be&3S
139	MOT	that's what we use when we go outside and it's raining .	pro:dem|that~v:cop|be&3S pro:wh|what pro:sub|we v|use adv:wh|when pro:sub|we v|go adv:loc|outside coord|and pro|it~aux|be&3S part|rain-PROG .	adv:wh|when	conj:subor|when
143	MOT	what is it ?	pro:wh|what aux|be&3S pro|it ?	aux|be&3S	v:cop|be&3s
156	MOT	come on let's blow your nose .	v|come adv|on v|let~pro:obj|us v|blow pro:poss:det|your n|nose .	adv|on	prep|on
174	MOT	do you when do you wear your robe ?	v|do pro|you adv:wh|when mod|do pro|you v|wear pro:poss:det|your n|robe ?	adv:wh|when	conj:subor|when
209	MOT	is it a real girl or +...	aux|be&3S pro|it det|a adj|real n|girl coord|or +...	aux|be&3S	v:cop|be&3S
233	MOT	what are they ?	pro:wh|what aux|be&PRES pro:sub|they ?	aux|be&PRES	v:cop|be&3S
262	MOT	and inside were the marbles .	coord|and adv:loc|inside aux|be&PAST det|the n|marble-PL .	aux|be&PAST	v:cop|be&PAST
280	MOT	is there a +/?	v:cop|be&3S adv:loc|there det|a +/?	adv:loc|there	pro:exist
283	MOT	is there an oven in your kitchen ?	v:cop|be&3S adv:loc|there det|a n|oven prep|in pro:poss:det|your n|kitchen ?	adv:loc|there	pro:exist
285	MOT	is there a +/?	v:cop|be&3S adv:loc|there det|a +/?	adv:loc|there	pro:exist
292	MOT	is there a +/?	v:cop|be&3S adv:loc|there det|a +/?	adv:loc|there	pro:exist
298	MOT	what do you drink out of that cup ?	pro:wh|what mod|do pro|you v|drink n|out prep|of det|that n|cup ?	n|out	prep|out
299	MOT	what does mommy and daddy drink out of that cup ?	pro:wh|what mod|do&3S n|mommy coord|and n|daddy n|drink n|out prep|of det|that n|cup ?	n|out	adv:loc|out
299	MOT	what does mommy and daddy drink out of that cup ?	pro:wh|what mod|do&3S n|mommy coord|and n|daddy n|drink n|out prep|of det|that n|cup ?	n|drink	v|drink
326	MOT	do you know what that's called ?	v|do pro|you v|know pro:wh|what rel|that~aux|be&3S part|call-PERF ?	v|do	mod|do
326	MOT	do you know what that's called ?	v|do pro|you v|know pro:wh|what rel|that~aux|be&3S part|call-PERF ?	rel|that~aux|be&3S	pro:dem|that~aux|be&3S
348	MOT	what is it ?	pro:wh|what aux|be&3S pro|it ?	aux|be&3S	v:cop|be&3S
371	MOT	all different fruits .	adv:int|all adj|different n|fruit-PL .	adv:int|all	qn|all
386	MOT	what is it ?	pro:wh|what aux|be&3S pro|it ?	aux|be&3S	v:cop|be&3S
390	MOT	oh Child I wanna show you one more thing I know that you like .	co|oh n:prop|Child pro:sub|I v|want~inf|to v|show pro|you det:num|one qn|more n|thing pro:sub|I v|know pro:dem|that pro|you v|like .	pro:dem|that	rel|that
398	MOT	it's a picture of cheese with red +...	pro|it~v:cop|be&3S det|a n|picture prep|of n|cheese prep|with n|red +...	n|red	adj|red
421	MOT	look at all these .	v|look prep|at qn|all det|these .	det|these	pro:dem|these
424	MOT	what are they ?	pro:wh|what aux|be&PRES pro:sub|they ?	aux|be&PRES	v:cop|be&3S
431	CHI	yeah yeah I've got that .	co|yeah co|yeah pro:sub|I~aux|have v|get&PAST det|that .	det|that	pro:dem|that
459	MOT	which one is red ?	det:wh|which pro:indef|one v:cop|be&3S n|red ?	n|red	adj|red
471	MOT	you can take the other toys out of the bag .	pro|you mod|can v|take det|the qn|other n|toy-PL n|out prep|of det|the n|bag .	n|out	adv:loc|out
490	MOT	what does that duck say ?	pro:wh|what mod|do&3S pro:dem|that n|duck co|say ?	pro:dem|that	det|that
490	MOT	what does that duck say ?	pro:wh|what mod|do&3S pro:dem|that n|duck co|say ?	co|say	v|say
491	CHI	quack .	n|quack .	n|quack	on|quack
492	MOT	quack quack quack .	n|quack n|quack n|quack .	n|quack	on|quack
492	MOT	quack quack quack .	n|quack n|quack n|quack .	n|quack	on|quack
492	MOT	quack quack quack .	n|quack n|quack n|quack .	n|quack	on|quack
494	CHI	quack .	n|quack .	n|quack	on|quack
500	MOT	let's see if there's a picture of that .	v|let~pro:obj|us v|see conj|if adv:loc|there~v:cop|be&3S det|a n|picture prep|of pro:dem|that .	adv:loc|there~v:cop|be&3S	pro:exist~v:cop|be&3S
500	MOT	let's see if there's a picture of that .	v|let~pro:obj|us v|see conj|if adv:loc|there~v:cop|be&3S det|a n|picture prep|of pro:dem|that .	adv:loc|there~v:cop|be&3S	pro:exist~v:cop|be&3S
503	MOT	that's called a tow truck .	pro:dem|that~aux|be&3S v|call-PAST det|a n|tow n|truck .	n|tow n|truck	n|+n|tow+n|truck
503	MOT	that's called a tow truck .	pro:dem|that~aux|be&3S v|call-PAST det|a n|tow n|truck .	n|tow n|truck	n|+n|tow+n|truck
503	MOT	that's called a tow truck .	pro:dem|that~aux|be&3S v|call-PAST det|a n|tow n|truck .	v|call-PAST	part|call-PERF
504	MOT	did you see tow trucks in the gas station ?	mod|do&PAST pro|you v|see n|tow n|truck-PL prep|in det|the n|gas n|station ?	n|gas n|station	n|+n|gas+n|station
504	MOT	did you see tow trucks in the gas station ?	mod|do&PAST pro|you v|see n|tow n|truck-PL prep|in det|the n|gas n|station ?	n|tow n|truck-PL	n|+n|tow+n|truck-PL
504	MOT	did you see tow trucks in the gas station ?	mod|do&PAST pro|you v|see n|tow n|truck-PL prep|in det|the n|gas n|station ?	n|gas n|station	n|+n|gas+n|station
504	MOT	did you see tow trucks in the gas station ?	mod|do&PAST pro|you v|see n|tow n|truck-PL prep|in det|the n|gas n|station ?	n|tow n|truck-PL	n|+n|tow+n|truck-PL
506	MOT	they had tow trucks .	pro:sub|they v|have&PAST n|tow n|truck-PL .	n|tow n|truck-PL	n|+n|tow+n|truck-PL
506	MOT	they had tow trucks .	pro:sub|they v|have&PAST n|tow n|truck-PL .	n|tow n|truck-PL	n|+n|tow+n|truck-PL
517	MOT	what what truck does that go on ?	det:wh|what pro:wh|what n|truck mod|do&3S pro:dem|that v|go adv:loc|on ?	pro:wh|what	det:wh|what
517	MOT	what what truck does that go on ?	det:wh|what pro:wh|what n|truck mod|do&3S pro:dem|that v|go adv:loc|on ?	pro:wh|what	det:wh|what
522	MOT	what kind of a truck is that ?	pro:wh|what n|kind prep|of det|a n|truck v:cop|be&3S pro:dem|that ?	pro:wh|what	det:wh|what
526	CHI	I found it like that .	pro:sub|I v|find&PAST pro|it v|like pro:dem|that .	v|like	prep|like
526	CHI	I found it like that .	pro:sub|I v|find&PAST pro|it v|like pro:dem|that .	v|like	prep|like
528	MOT	you can look at the rest of the toys while I try and fix it .	pro|you mod|can v|look prep|at det|the n|rest prep|of det|the n|toy-PL conj|while pro:sub|I n|try coord|and v|fix pro|it .	n|try	v|try
528	MOT	you can look at the rest of the toys while I try and fix it .	pro|you mod|can v|look prep|at det|the n|rest prep|of det|the n|toy-PL conj|while pro:sub|I n|try coord|and v|fix pro|it .	n|try	v|try
536	MOT	is he giving you a little kiss ?	v:cop|be&3S pro:sub|he part|give-PROG pro|you det|a adj|little n|kiss ?	v:cop|be&3S	aux|be&3S
544	MOT	is this a truck another truck ?	v:cop|be&3S pro:dem|this det|a v|truck qn|another n|truck ?	v|truck	n|truck
545	MOT	this is called a crane .	pro:dem|this v:cop|be&3S part|call-PERF det|a n|crane .	v:cop|be&3S	aux|be&3S
549	MOT	what are they ?	pro:wh|what aux|be&PRES pro:sub|they ?	aux|be&PRES	v:cop|be&3S
550	MOT	how many are there ?	adv:wh|how adj|man&dn-Y v:cop|be&PRES adv:loc|there ?	adv:loc|there	pro|exist
552	MOT	okay these are cement mixers .	co|okay pro:dem|these v:cop|be&PRES n|cement n|mix&dv-AGT-PL .	n|cement n|mix&dv-AGT-PL	n|+n|cement+n|mixer-PL
554	CHI	they dig up the grass [=? ground] .	pro:sub|they v|dig prep|up det|the n|grass .	prep|up	adv:loc|up
558	MOT	do you remember what they're called ?	v|do pro|you v|remember pro:wh|what pro:sub|they~aux|be&PRES part|call-PERF ?	v|do	mod|do
561	CHI	ground .	v|grind&PAST .	v|grind&PAST	n|ground
567	MOT	you wanna try to make the horse stand up ?	pro|you v|want~inf|to v|try inf|to v|make det|the n|horse n|stand adv:loc|up ?	n|stand	v|stand
583	MOT	there .	adv:loc|there .	adv:loc|there	co|there
584	MOT	we opened up the bag .	pro:sub|we v|open-PAST prep|up det|the n|bag .	prep|up	adv:loc|up
586	CHI	two both .	det:num|two qn|both .	qn|both	pro:indef|both
587	MOT	both ?	qn|both ?	qn|both	pro:indef|both
588	MOT	shall they stand stand next to each other ?	mod|shall pro:sub|they v|stand n|stand adv|next prep|to qn|each qn|other ?	n|stand	v|stand
588	MOT	shall they stand stand next to each other ?	mod|shall pro:sub|they v|stand n|stand adv|next prep|to qn|each qn|other ?	qn|each qn|other	qn|+qn|each+qn|other
591	MOT	oh something else came out .	co|oh pro:indef|something post|else v|come&PAST n|out .	n|out	adv:loc|out
595	MOT	all gone .	adv:int|all part|go&PERF .	adv:int|all	qn|all
596	MOT	everything is out of the bag .	pro:indef|everything v:cop|be&3S n|out prep|of det|the n|bag .	n|out	adv:loc|out
605	MOT	what's that dog say ?	pro:wh|what~v:cop|be&3S pro:dem|that n|dog co|say ?	co|say	v|say
605	MOT	what's that dog say ?	pro:wh|what~v:cop|be&3S pro:dem|that n|dog co|say ?	pro:dem|that	det|that
605	MOT	what's that dog say ?	pro:wh|what~v:cop|be&3S pro:dem|that n|dog co|say ?	pro:wh|what~v:cop|be&3S	pro:wh|what~mod|do&3S
610	CHI	time to get up .	v|time inf|to v|get adv:loc|up .	v|time	n|time
614	MOT	you want the dog to stand up too ?	pro|you v|want det|the n|dog prep|to n|stand prep|up post|too ?	prep|up	adv:loc|up
614	MOT	you want the dog to stand up too ?	pro|you v|want det|the n|dog prep|to n|stand prep|up post|too ?	n|stand	v|stand
614	MOT	you want the dog to stand up too ?	pro|you v|want det|the n|dog prep|to n|stand prep|up post|too ?	prep|to	inf|to
617	MOT	oh the dog might have_to lean on my foot also because the rug is bumpy .	co|oh det|the n|dog n|might mod:aux|have_to v|lean prep|on pro:poss:det|my n|foot adv|also conj|because det|the n|rug v:cop|be&3S adj|bump&dn-Y .	n|might	mod|might
623	MOT	do you remember this what this is called ?	v|do pro|you v|remember pro:dem|this pro:wh|what pro:dem|this v:cop|be&3S part|call-PERF ?	v:cop|be&3S	aux|be&3S
623	MOT	do you remember this what this is called ?	v|do pro|you v|remember pro:dem|this pro:wh|what pro:dem|this v:cop|be&3S part|call-PERF ?	v|do	mod|do
628	MOT	a cement mixer .	det|a n|cement n|mix&dv-AGT .	n|cement n|mix&dv-AGT	n|+n|cement+n|mixer
634	CHI	where the a other car ?	adv:wh|where det|the det|a qn|other n|car ?	adv:wh|where	pro:wh|where
635	INV	I don't think there are any other cars .	pro:sub|I mod|do~neg|not v|think adv:loc|there v:cop|be&PRES qn|any qn|other n|car-PL .	adv:loc|there	pro:exist
636	MOT	the fire engine ?	det|the n|fire n|engine ?	n|fire n|engine	n|+n|fire+n|engine
644	MOT	you want the doors open ?	pro|you v|want det|the n|door-PL adv|open ?	adv|open	adj|open
645	MOT	here I'll open one and you can open the other .	adv:loc|here pro:sub|I~mod|will v|open pro:indef|one coord|and pro|you mod|can v|open det|the qn|other .	adv:loc|here	co|here
645	MOT	here I'll open one and you can open the other .	adv:loc|here pro:sub|I~mod|will v|open pro:indef|one coord|and pro|you mod|can v|open det|the qn|other .	qn|other	pro:indef|other
646	MOT	you just open them .	pro|you adv:int|just v|open pro:obj|them .	adv:int|just	adv|just
647	MOT	all open .	adv:int|all adj|open .	adv:int|all	qn|all
652	CHI	hard .	adv|hard .	adv|hard	adj|hard
653	MOT	it's hard I know .	pro|it~aux|be&3S adj|hard pro:sub|I v|know .	pro|it~aux|be&3S	pro|it~v:cop|be&3S
654	MOT	here try it again .	adv:loc|here v|try pro|it adv|again .	adv:loc|here	co|here
658	MOT	there !	adv:loc|there !	adv:loc|there	co|there
659	MOT	what a fancy sports car .	pro:wh|what det|a adj|fancy n|sport-PL n|car .	pro:wh|what	adv:int|what
659	MOT	what a fancy sports car .	pro:wh|what det|a adj|fancy n|sport-PL n|car .	n|sport-PL n|car	n|+n|sport-PL+n|car
660	MOT	can any of those animals fit in the car ?	mod|can qn|any prep|of det|those n|animal-PL adj|fit prep|in det|the n|car ?	adj|fit	v|fit
660	MOT	can any of those animals fit in the car ?	mod|can qn|any prep|of det|those n|animal-PL adj|fit prep|in det|the n|car ?	qn|any	pro:indef|any
662	CHI	take that out . [+ V]	v|take det|that n|out .	det|that	pro:dem|that
662	CHI	take that out . [+ V]	v|take det|that n|out .	n|out	adv:loc|out
666	CHI	take that out ?	v|take det|that n|out ?	det|that	pro:dem|that
666	CHI	take that out ?	v|take det|that n|out ?	n|out	adv:loc|out
668	MOT	you remember last time it wasn't in here was it ?	pro|you v|remember adv|last v|time pro|it v:cop|be&PAST&13S~neg|not prep|in adv:loc|here v:cop|be&PAST&13S pro|it ?	adv|last	adj|last
668	MOT	you remember last time it wasn't in here was it ?	pro|you v|remember adv|last v|time pro|it v:cop|be&PAST&13S~neg|not prep|in adv:loc|here v:cop|be&PAST&13S pro|it ?	v|time	n|time
668	MOT	you remember last time it wasn't in here was it ?	pro|you v|remember adv|last v|time pro|it v:cop|be&PAST&13S~neg|not prep|in adv:loc|here v:cop|be&PAST&13S pro|it ?	v:cop|be&PAST&13S	v:cop|be&PAST&3S
672	MOT	now the car's ready for driving .	adv|now det|the n|car~poss|s adj|ready prep|for part|drive-PROG .	n|car~poss|s	n|car~v:cop|be&3S
672	MOT	now the car's ready for driving .	adv|now det|the n|car~poss|s adj|ready prep|for part|drive-PROG .	part|drive-PROG	n:gerund|drive-PROG
672	MOT	now the car's ready for driving .	adv|now det|the n|car~poss|s adj|ready prep|for part|drive-PROG .	n|car~poss|s	n|car~aux|be&3S
673	CHI	ready for drive .	v|ready prep|for n|drive .	v|ready	adj|ready
682	MOT	this is the sports car and this is a jeep .	pro:dem|this v:cop|be&3S det|the n|sport-PL n|car coord|and pro:dem|this v:cop|be&3S det|a n|jeep .	n|sport-PL n|car	n|+n|sport-PL+n|car
683	MOT	this is for driving in mountains when you go to the country right ?	pro:dem|this v:cop|be&3S prep|for part|drive-PROG prep|in n|mountain-PL conj|when pro|you v|go prep|to det|the n|country co|right ?	part|drive-PROG	n:gerund|drive-PROG
690	MOT	does that car have a flat tire ?	mod|do&3S pro:dem|that n|car v|have det|a adj|flat n|tire ?	pro:dem|that	det|that
700	MOT	you have_to get it out of there .	pro|you mod:aux|have_to v|get pro|it n|out prep|of adv:loc|there .	n|out	adv:loc|out
702	MOT	are you shaking your head ?	aux|be&PRES pro|you n:gerund|shake-PROG pro:poss:det|your n|head ?	n:gerund|shake-PROG	part|shake-PROG
702	MOT	are you shaking your head ?	aux|be&PRES pro|you n:gerund|shake-PROG pro:poss:det|your n|head ?	n:gerund|shake-PROG	part|shake-PROG
703	MOT	you shaking your head ?	pro|you n:gerund|shake-PROG pro:poss:det|your n|head ?	n:gerund|shake-PROG	part|shake-PROG
704	CHI	shake shake .	n|shake n|shake .	n|shake	v|shake
704	CHI	shake shake .	n|shake n|shake .	n|shake	v|shake
705	INV	shaking your hair in your face .	n:gerund|shake-PROG pro:poss:det|your n|hair prep|in pro:poss:det|your n|face .	n:gerund|shake-PROG	part|shake-PROG
718	MOT	is there a fire there now ?	v:cop|be&3S adv:loc|there det|a n|fire adv:loc|there adv|now ?	adv:loc|there	pro:exist
719	CHI	a rocking .	det|a part|rock-PROG .	part|rock-PROG	n:gerund|rock-PROG
720	CHI	rocking chair . [+ V]	part|rock-PROG n|chair .	part|rock-PROG n|chair	n|+n:gerund|rock-PROG+n|chair
721	INV	rocking chair ?	part|rock-PROG n|chair ?	part|rock-PROG n|chair	n|+n:gerund|rock-PROG+n|chair
722	INV	is that your rocking chair ?	v:cop|be&3S pro:dem|that pro:poss:det|your part|rock-PROG n|chair ?	part|rock-PROG n|chair	n|+n:gerund|rock-PROG+n|chair
738	MOT	where are you ?	adv:wh|where v:cop|be&PRES pro|you ?	adv:wh|where	pro:wh|where
750	INV	oh I don't know how this works .	co|oh pro:sub|I mod|do~neg|not v|know adv:wh|how det|this n|work-PL .	n|work-PL	v|work-3S
750	INV	oh I don't know how this works .	co|oh pro:sub|I mod|do~neg|not v|know adv:wh|how det|this n|work-PL .	det|this	pro:dem|this
752	INV	tell me how that works .	v|tell pro:obj|me adv:wh|how pro:dem|that n|work-PL .	n|work-PL	v|work-3S
754	MOT	we could save this right here until you finish with the piano .	pro:sub|we mod|could v|save det|this adv|right adv:loc|here prep|until pro|you v|finish prep|with det|the n|piano .	det|this	pro:dem|this
755	MOT	show Investigator how to play the piano .	n|show n:prop|Investigator adv:wh|how inf|to v|play det|the n|piano .	n|show	v|show
761	MOT	now show Investigator how to play .	adv|now n|show n:prop|Investigator adv:wh|how inf|to v|play .	n|show	v|show
764	CHI	there .	adv:loc|there .	adv:loc|there	co|there
768	CHI	that's purple too .	pro:dem|that~v:cop|be&3S n|purple post|too .	n|purple	adj|purple
770	CHI	that one orange .	det|that pro:indef|one n|orange .	n|orange	adj|orange
771	MOT	which one is orange ?	det:wh|which pro:indef|one v:cop|be&3S n|orange ?	n|orange	adj|orange
782	MOT	do you have red ?	mod|do pro|you v|have n|red ?	n|red	adj|red
783	MOT	is there a red key ?	v:cop|be&3S adv:loc|there det|a adj|red n|key ?	adv:loc|there	pro:exist
791	INV	are you sitting on the piano ?	v:cop|be&PRES pro|you part|sit-PROG prep|on det|the n|piano ?	v:cop|be&PRES	aux|be&PRES
814	CHI	play &uh Frere_Jacques .	n|play n:prop|Frere_Jacques .	n|play	v|play
814	CHI	play &uh Frere_Jacques .	n|play n:prop|Frere_Jacques .	unk|uh	fil|uh
816	MOT	try and play .	n|try coord|and n|play .	n|play	v|play
816	MOT	try and play .	n|try coord|and n|play .	n|try	v|try
817	CHI	hard .	adv|hard .	adv|hard	adj|hard
840	MOT	what other one sweetie pie ?	pro:wh|what qn|other det:num|one n|sweet&dadj-DIM n|pie ?	n|sweet&dadj-DIM n|pie	n|+n|sweet&dadj-DIM+n|pie
861	MOT	where are you sitting ?	adv:wh|where v:cop|be&PRES pro|you part|sit-PROG ?	v:cop|be&PRES	aux|be&PRES
874	MOT	and Katie and Kit what are they ?	coord|and n:prop|Katie coord|and n:prop|Kit pro:wh|what aux|be&PRES pro:sub|they ?	aux|be&PRES	v:cop|be&PRES
883	MOT	then cousin +...	adv:tem|then n|cousin +...	adv:tem|then	conj|then
895	MOT	let's play with our pedal car said +...	v|let~pro:obj|us v|play prep|with pro:poss:det|our n|pedal n|car v|say&PAST +...	n|pedal n|car	n|+n|pedal+n|car
898	MOT	she's in what is she in ?	pro:sub|she~v:cop|be&3S prep|in pro:wh|what aux|be&3S pro:sub|she adv:loc|in ?	aux|be&3S	v:cop|be&3S
912	MOT	that's the play car .	pro:dem|that~v:cop|be&3S det|the n|play n|car .	n|play	adj|play
914	MOT	can he get out ?	mod|can pro:sub|he v|get n|out ?	n|out	adv:loc|out
916	MOT	he's stuck in there he can't get out .	pro:sub|he~aux|be&3S part|stick&PERF adv:loc|in adv:loc|there pro:sub|he mod|can~neg|not v|get n|out .	n|out	adv:loc|out
918	CHI	swing . [+ V]	v|swing .	v|swing	n|swing
919	MOT	said Kit .	part|say&PERF n:prop|Kit .	part|say&PERF	v|say&PAST
920	MOT	help cried Tom .	v|help adj:part|cry-PERF n:prop|Tom .	adj:part|cry-PERF	v|cry-PAST
923	MOT	they pulled and pulled until Tom was +...	pro:sub|they v|pull-PAST coord|and v|pull-PAST prep|until n:prop|Tom v:cop|be&PAST&13S +...	v:cop|be&PAST&13S	aux|be&PAST&3S
924	CHI	finished .	adj:part|finish-PERF .	adj:part|finish-PERF	part|finish-PERF
926	MOT	until he was finished and they took him out .	conj|until pro:sub|he aux|be&PAST&13S part|finish-PERF coord|and pro:sub|they v|take&PAST pro:obj|him n|out .	n|out	adv:loc|out
928	CHI	swings .	v|swing-3S .	v|swing-3S	n|swing-PL
929	MOT	said Katie .	part|say&PERF n:prop|Katie .	part|say&PERF	v|say&PAST
930	MOT	I'll go first said +...	pro:sub|I~mod|will v|go adv|first part|say&PERF +...	part|say&PERF	v|say&PAST
938	CHI	I am pushing Kit .	pro:sub|I v:cop|be&1S n:gerund|push-PROG n:prop|Kit .	n:gerund|push-PROG	part|push-PROG
938	CHI	I am pushing Kit .	pro:sub|I v:cop|be&1S n:gerund|push-PROG n:prop|Kit .	v:cop|be&1S	aux|be&1S
941	MOT	who's pushing Kit ?	pro:wh|who~aux|be&3S n:gerund|push-PROG n:prop|Kit ?	n:gerund|push-PROG	part|push-PROG
944	MOT	what's that one's name do you remember ?	pro:wh|what~v:cop|be&3S det|that pro:indef|one~v:cop|be&3S n|name v|do pro|you v|remember ?	pro:indef|one~v:cop|be&3S	pro:indef|one-POSS
944	MOT	what's that one's name do you remember ?	pro:wh|what~v:cop|be&3S det|that pro:indef|one~v:cop|be&3S n|name v|do pro|you v|remember ?	v|do	mod|do
969	MOT	do you wanna look at something else ?	v|do pro|you v|want~inf|to v|look prep|at pro:indef|something post|else ?	v|do	mod|do
975	CHI	I don't want that book .	pro:sub|I mod|do~neg|not v|want pro:dem|that n|book .	pro:dem|that	det|that
976	MOT	you don't want that book .	pro|you mod|do~neg|not v|want pro:dem|that n|book .	pro:dem|that	det|that
985	MOT	would you show Investigator these little peg boards these tiny little peg boards ?	mod|will&COND pro|you v|show n:prop|Investigator det|these adj|little n|peg v|board-3S det|these adj|tiny adj|little n|peg n|board-PL ?	n|peg v|board-3S	n|+n|peg+n|board-PL
985	MOT	would you show Investigator these little peg boards these tiny little peg boards ?	mod|will&COND pro|you v|show n:prop|Investigator det|these adj|little n|peg v|board-3S det|these adj|tiny adj|little n|peg n|board-PL ?	n|peg n|board-PL	n|+n|peg+n|board-PL
1006	CHI	&um yellow .	adj|yellow .	unk|um	fil|um
1009	CHI	that those guys .	rel|that pro:dem|those n|guy-PL .	pro:dem|those	det|those
1009	CHI	that those guys .	rel|that pro:dem|those n|guy-PL .	rel|that	det|that
1010	CHI	red red .	adj|red n|red .	n|red	adj|red
1011	MOT	that looks pretty .	pro:dem|that n|look-PL adv:int|pretty .	n|look-PL	v|look-3S
1011	MOT	that looks pretty .	pro:dem|that n|look-PL adv:int|pretty .	adv:int|pretty	adj|pretty
1012	MOT	what color is this peg board ?	pro:wh|what n|color v:cop|be&3S det|this n|peg n|board ?	n|peg n|board	n|+n|peg+n|board
1012	MOT	what color is this peg board ?	pro:wh|what n|color v:cop|be&3S det|this n|peg n|board ?	pro:wh|what	det:wh|what
1023	MOT	a red peg board .	det|a adj|red n|peg n|board .	n|peg n|board	n|+n|peg+n|board
1027	MOT	you have all different color pegs to make a tower .	pro|you v|have qn|all adj|different n|color n|peg-PL inf|to v|make det|a n|tower .	adj|different	adv|different
1027	MOT	you have all different color pegs to make a tower .	pro|you v|have qn|all adj|different n|color n|peg-PL inf|to v|make det|a n|tower .	n|color	adj|color
1030	CHI	I'm push .	pro:sub|I~v:cop|be&1S n|push .	pro:sub|I~v:cop|be&1S	pro:sub|I~aux|be&1S
1030	CHI	I'm push .	pro:sub|I~v:cop|be&1S n|push .	n|push	v|push
1031	MOT	pushing it away with the foot ?	n:gerund|push-PROG pro|it adv|away prep|with det|the n|foot ?	n:gerund|push-PROG	part|push-PROG
1032	CHI	&uh yeah .	co|yeah .	unk|uh	fil|uh
1035	CHI	&uh oh .	co|oh .	unk|uh co|oh	co|+co|uh+co|oh
1036	MOT	&uh oh .	co|oh .	unk|uh co|oh	co|+co|uh+co|oh
1037	CHI	&uh oh .	co|oh .	unk|uh co|oh	co|+co|uh+co|oh
1038	INV	&uh oh ?	co|oh ?	unk|uh co|oh	co|+co|uh+co|oh
1042	INV	oh does that elephant bounce ?	co|oh mod|do&3S det|that n|elephant n|bounce ?	n|bounce	v|bounce
1044	CHI	bounce bounce .	n|bounce n|bounce .	n|bounce	v|bounce
1044	CHI	bounce bounce .	n|bounce n|bounce .	n|bounce	v|bounce
1060	CHI	bunny .	adj|bun&dn-Y .	adj|bun&dn-Y	n|bunny
1066	MOT	oh you're kissing the bunny .	co|oh pro|you~v:cop|be&PRES n:gerund|kiss-PROG det|the n|bunny .	pro|you~v:cop|be&PRES	pro|you~aux|be&PRES
1066	MOT	oh you're kissing the bunny .	co|oh pro|you~v:cop|be&PRES n:gerund|kiss-PROG det|the n|bunny .	n:gerund|kiss-PROG	part|kiss-PROG
1068	MOT	is the bunny taking a nap ?	v:cop|be&3S det|the n|bunny part|take-PROG det|a n|nap ?	v:cop|be&3S	aux|be&3S
1071	MOT	what's the bunny lying on ?	pro:wh|what~v:cop|be&3S det|the n|bunny n:gerund|lie-PROG adv:loc|on ?	n:gerund|lie-PROG	part|lie-PROG
1071	MOT	what's the bunny lying on ?	pro:wh|what~v:cop|be&3S det|the n|bunny n:gerund|lie-PROG adv:loc|on ?	pro:wh|what~v:cop|be&3S	pro:wh|what~aux|be&3S
1092	MOT	is Mrs Piggywinkle going in the bag with a pig ?	v:cop|be&3S n:prop|Mrs n:prop|Piggywinkle part|go-PROG prep|in det|the n|bag prep|with det|a n|pig ?	v:cop|be&3S	aux|be&3S
1097	CHI	out .	n|out .	n|out	adv:loc|out
1098	MOT	out .	n|out .	n|out	adv:loc|out
1103	MOT	what are they ?	pro:wh|what aux|be&PRES pro:sub|they ?	aux|be&PRES	v:cop|be&PRES
1104	MOT	are they like fur ?	v:cop|be&PRES pro:sub|they v|like n|fur ?	v|like	prep|like
1106	MOT	are they like stickers ?	aux|be&PRES pro:sub|they v|like n|sticker-PL ?	v|like	prep|like
1106	MOT	are they like stickers ?	aux|be&PRES pro:sub|they v|like n|sticker-PL ?	aux|be&PRES	v:cop|be&PRES
1118	MOT	where are you going ?	adv:wh|where v:cop|be&PRES pro|you part|go-PROG ?	v:cop|be&PRES	aux|be&PRES
1119	CHI	there .	adv:loc|there .	adv:loc|there	co|there
1131	CHI	daddy .	adj|dad&dn-Y .	adj|dad&dn-Y	n|daddy
1135	MOT	Daddy's not here right now he went on a train .	n:prop|Daddy~aux|be&3S neg|not adv:loc|here adv|right adv|now pro:sub|he v|go&PAST prep|on det|a n|train .	n:prop|Daddy~aux|be&3S	n:prop|Daddy~v:cop|be&3S
1142	CHI	cold .	adj|cold .	adj|cold	n|cold
1148	MOT	doctor who ?	v|doctor pro:wh|who ?	v|doctor	n|doctor
1150	MOT	who's what doctor has a cold ?	pro:wh|who~v:cop|be&3S pro:wh|what n|doctor v|have&3S det|a n|cold ?	pro:wh|what	det:wh|what
1152	MOT	doctor who ?	v|doctor pro:wh|who ?	v|doctor	n|doctor
1153	CHI	doctor La Lastname .	v|doctor n:prop|La n:prop|Lastname .	v|doctor	n|doctor
1160	MOT	it's time for the bunny to wake up ?	pro|it~v:cop|be&3S n|time prep|for det|the n|bunny prep|to n|wake adv:loc|up ?	n|wake	v|wake
1160	MOT	it's time for the bunny to wake up ?	pro|it~v:cop|be&3S n|time prep|for det|the n|bunny prep|to n|wake adv:loc|up ?	prep|to	inf|to
1161	CHI	it's gotta there he is .	pro|it~aux|be&3S mod:aux|gotta adv:loc|there pro:sub|he v:cop|be&3S .	pro|it~aux|be&3S	pro|it~aux|have&3S
1161	CHI	it's gotta there he is .	pro|it~aux|be&3S mod:aux|gotta adv:loc|there pro:sub|he v:cop|be&3S .	adv:loc|there	pro:exist
1163	CHI	there !	adv:loc|there !	adv:loc|there	co|there
1164	MOT	there's the bunny ?	adv:loc|there~v:cop|be&3S det|the n|bunny ?	adv:loc|there~v:cop|be&3S	pro:exist~v:cop|be&3S
1165	MOT	is the bunny still sleeping ?	v:cop|be&3S det|the n|bunny n|still part|sleep-PROG ?	v:cop|be&3S	aux|be&3S
1165	MOT	is the bunny still sleeping ?	v:cop|be&3S det|the n|bunny n|still part|sleep-PROG ?	n|still	adv|still
1173	MOT	is the bunny blowing ?	v:cop|be&3S det|the n|bunny part|blow-PROG ?	v:cop|be&3S	aux|be&3S
1177	MOT	how many tissues can one tiny bunny use ?	adv:wh|how qn|many n|tissue-PL n|can pro:indef|one adj|tiny n|bunny n|use ?	pro:indef|one	det:num|one
1177	MOT	how many tissues can one tiny bunny use ?	adv:wh|how qn|many n|tissue-PL n|can pro:indef|one adj|tiny n|bunny n|use ?	n|use	v|use
1177	MOT	how many tissues can one tiny bunny use ?	adv:wh|how qn|many n|tissue-PL n|can pro:indef|one adj|tiny n|bunny n|use ?	n|can	mod|can
1190	CHI	running .	n:gerund|run-PROG .	n:gerund|run-PROG	part|run-PROG
1191	MOT	run back in the living room .	v|run n|back prep|in det|the part|live-PROG n|room .	n|back	adv:loc|back
1191	MOT	run back in the living room .	v|run n|back prep|in det|the part|live-PROG n|room .	part|live-PROG n|room	n|+n:gerund|live-PROG+n|room
1192	CHI	running .	n:gerund|run-PROG .	n:gerund|run-PROG	part|run-PROG
1202	MOT	does that fit you ?	mod|do&3S det|that n|fit pro|you ?	n|fit	v|fit
1202	MOT	does that fit you ?	mod|do&3S det|that n|fit pro|you ?	det|that	pro:dem|that
1204	MOT	that fits Child ?	det|that n|fit-PL n:prop|Child ?	n|fit-PL	v|fit-3S
1204	MOT	that fits Child ?	det|that n|fit-PL n:prop|Child ?	det|that	pro:dem|that
1212	INV	what is that bunny eating ?	pro:wh|what v:cop|be&3S pro:dem|that n|bunny part|eat-PROG ?	pro:dem|that	det|that
1212	INV	what is that bunny eating ?	pro:wh|what v:cop|be&3S pro:dem|that n|bunny part|eat-PROG ?	v:cop|be&3S	aux|be&3S
1220	MOT	so he can eat the greens ?	co|so pro:sub|he mod|can v|eat det|the adj|green-PL ?	adj|green-PL	n|green-PL
1222	MOT	is he eating carrot tops ?	v:cop|be&3S pro:sub|he part|eat-PROG n|carrot n|top-PL ?	v:cop|be&3S	aux|be&3S
1222	MOT	is he eating carrot tops ?	v:cop|be&3S pro:sub|he part|eat-PROG n|carrot n|top-PL ?	n|carrot n|top-PL	n|+n|carrot+n|top-PL
1227	CHI	&ha .		unk|ha	co|ha
1229	CHI	&ha .		unk|ha	co|ha
1235	CHI	orange .	adj|orange .	adj|orange	n|orange
1236	INV	orange .	adj|orange .	adj|orange	n|orange
1240	MOT	what is that duck doing ?	pro:wh|what v:cop|be&3S pro:dem|that n|duck part|do-PROG ?	pro:dem|that	det|that
1240	MOT	what is that duck doing ?	pro:wh|what v:cop|be&3S pro:dem|that n|duck part|do-PROG ?	pro:dem|that	det|that
1240	MOT	what is that duck doing ?	pro:wh|what v:cop|be&3S pro:dem|that n|duck part|do-PROG ?	v:cop|be&3S	aux|be&3S
1241	MOT	what is that duck doing ?	pro:wh|what v:cop|be&3S pro:dem|that n|duck part|do-PROG ?	v:cop|be&3S	aux|be&3S
1241	MOT	what is that duck doing ?	pro:wh|what v:cop|be&3S pro:dem|that n|duck part|do-PROG ?	pro:dem|that	det|that
1245	INV	did you trip on the cement truck ?	mod|do&PAST pro|you v|trip prep|on det|the n|cement n|truck ?	n|cement n|truck	n|+n|cement+n|truck
1256	CHI	I did I did across .	pro:sub|I mod|do&PAST pro:sub|I v|do&PAST prep|across .	prep|across	adv|across
1268	MOT	we were just fixing that ?	pro:sub|we aux|be&PAST adv:int|just part|fix-PROG pro:dem|that ?	adv:int|just	adv|just
1287	MOT	it's a big vacuum cleaner .	pro|it~v:cop|be&3S det|a adj|big n|vacuum n|clean&dv-AGT .	n|vacuum n|clean&dv-AGT	n|+n|vacuum+n|cleaner
1290	CHI	other light bulb .	qn|other n|light n|bulb .	n|light n|bulb	n|+n|light+n|bulb
1294	MOT	it's the same as that .	pro|it~v:cop|be&3S det|the adj|same prep|as pro:dem|that .	adj|same	n|same
1314	CHI	hard .	adv|hard .	adv|hard	adj|hard
1331	MOT	where's the little peg board ?	adv:wh|where~v:cop|be&3S det|the adj|little n|peg n|board ?	n|peg n|board	n|+n|peg+n|board
1332	MOT	put them in the peg board .	v|put&ZERO pro:obj|them prep|in det|the n|peg n|board .	n|peg n|board	n|+n|peg+n|board
1342	MOT	another light bulb ?	qn|another n|light n|bulb ?	n|light n|bulb	n|+n|light+n|bulb
1348	MOT	Grandpa helps to fix the light .	n:prop|Grandpa n|help-PL inf|to v|fix det|the n|light .	n|help-PL	v|help-3S
1357	CHI	there is no moon .	adv:loc|there v:cop|be&3S qn|no n|moon .	adv:loc|there	pro:exist
1358	MOT	there's no moon in this book ?	adv:loc|there~v:cop|be&3S qn|no n|moon prep|in det|this n|book ?	adv:loc|there~v:cop|be&3S	pro:exist~v:cop|be&3S
1360	MOT	there's one page that might have a moon .	adv:loc|there~v:cop|be&3S det:num|one n|page rel|that mod|might v|have det|a n|moon .	adv:loc|there~v:cop|be&3S	pro:exist~v:cop|be&3S
1364	MOT	no moon it has a cloud .	co|no v|moon pro|it v|have&3S det|a n|cloud .	co|no	qn|no
1364	MOT	no moon it has a cloud .	co|no v|moon pro|it v|have&3S det|a n|cloud .	v|moon	n|moon
1372	MOT	maybe it's not dark enough .	adv|maybe pro|it~v:cop|be&3S neg|not n|dark adv|enough .	n|dark	adj|dark
1375	MOT	the sky's light .	det|the n|sky~poss|s n|light .	n|light	adj|light
1375	MOT	the sky's light .	det|the n|sky~poss|s n|light .	n|sky~poss|s	n|sky~v:cop|be&3S
1377	CHI	and that a little butterfly .	coord|and pro:dem|that det|a adj|little n|+n|butter+n|fly .	n|+n|butter+n|fly	n|butterfly
1391	MOT	are they behind your hair ?	aux|be&PRES pro:sub|they prep|behind pro:poss:det|your n|hair ?	aux|be&PRES	v:cop|be&3S
1398	MOT	want me to move it back so you can show her your ears ?	v|want pro:obj|me inf|to v|move pro|it n|back co|so pro|you mod|can v|show pro:obj|her pro:poss:det|your n|ear-PL ?	co|so	conj|so
1398	MOT	want me to move it back so you can show her your ears ?	v|want pro:obj|me inf|to v|move pro|it n|back co|so pro|you mod|can v|show pro:obj|her pro:poss:det|your n|ear-PL ?	n|back	adv:loc|back
1404	MOT	out ?	n|out ?	n|out	adv:loc|out
1417	CHI	hop .	n|hop .	n|hop	v|hop
1428	MOT	I wanna wipe you're nose .	pro:sub|I v|want~inf|to v|wipe pro|you~aux|be&PRES n|nose .	pro|you~aux|be&PRES	pro:poss:det|your
1432	MOT	time to wake up .	n|time prep|to n|wake adv:loc|up .	n|wake	v|wake
1442	CHI	look out .	v|look n|out .	n|out	adv:loc|out
1461	MOT	is that what you mean ?	v:cop|be&3S pro:dem|that pro:wh|what pro|you adj|mean ?	adj|mean	v|mean
1461	MOT	is that what you mean ?	v:cop|be&3S pro:dem|that pro:wh|what pro|you adj|mean ?	pro:wh|what	rel|what
1466	MOT	do you want me to take it down so you can look at it ?	v|do pro|you v|want pro:obj|me inf|to v|take pro|it adv:loc|down co|so pro|you mod|can v|look prep|at pro|it ?	co|so	conj|so
1471	MOT	here you hold your purse .	adv:loc|here pro|you v|hold pro:poss:det|your n|purse .	adv:loc|here	co|here
1474	MOT	here you wanna tell Investigator what this picture is ?	adv:loc|here pro|you v|want~inf|to v|tell n:prop|Investigator pro:wh|what det|this n|picture v:cop|be&3S ?	adv:loc|here	co|here
1483	CHI	that's a dunking .	pro:dem|that~v:cop|be&3S det|a part|dunk-PROG .	part|dunk-PROG	n:gerund|dunk-PROG
1487	MOT	do you remember where that is ?	v|do pro|you v|remember adv:wh|where pro:dem|that v:cop|be&3S ?	v|do	mod|do
1494	MOT	are you wearing something on your head ?	aux|be&PRES pro|you n:gerund|wear-PROG pro:indef|something prep|on pro:poss:det|your n|head ?	n:gerund|wear-PROG	part|wear-PROG
1508	MOT	beach umbrellas .	n|beach n|umbrella-PL .	n|beach n|umbrella-PL	n|+n|beach+n|umbrella-PL
1510	MOT	show Investigator . [+ V]	n|show n:prop|Investigator .	n|show	v|show
1518	CHI	&um right here .	adv|right adv:loc|here .	unk|um	fil|um
1536	MOT	in the living room ?	prep|in det|the part|live-PROG n|room ?	part|live-PROG n|room	n|+n|living+n|room
1557	INV	I'll hold it open and you put the things in there okay ?	pro:sub|I~mod|will v|hold pro|it v|open coord|and pro|you v|put&ZERO det|the n|thing-PL adv:loc|in adv:loc|there co|okay ?	v|open	adj|open
1561	INV	the sports car and the dog and where did the hedgehog go ?	det|the n|sport-PL n|car coord|and det|the n|dog coord|and adv:wh|where mod|do&PAST det|the n|hedgehog v|go ?	n|sport-PL n|car	n|+n|sport-PL+n|car
1567	INV	here he goes .	adv:loc|here pro:sub|he v|go-3S .	adv:loc|here	co|here
1573	MOT	are you going to put the rest of the toys in the bag ?	v:cop|be&PRES pro|you part|go-PROG inf|to v|put&ZERO det|the n|rest prep|of det|the n|toy-PL prep|in det|the n|bag ?	v:cop|be&PRES	aux|be&PRES
1579	INV	it's almost done .	pro|it~v:cop|be&3S adv|almost part|do&PERF .	pro|it~v:cop|be&3S	pro|it~aux|be&3S
1580	MOT	is it time to stop now ?	v:cop|be&3S pro|it v|time inf|to v|stop adv|now ?	v|time	n|time
