Line,Speaker,Utterance,Tags,Incorrect Tag,Correct Tag,Notes
0,*MOT:,so what is it ?,co|so pro:wh|what aux|be&3S pro|it ?,aux|be&3S,v:cop|be&3S,
14,*MOT:,this girl has chicken pox .,det|this n|girl v|have&3S n|chicken n|pox .,n|chicken n|pox,n|+n|chicken+n|pox,
