Line,Speaker,Utterance,Tags,Incorrect Tag,Correct Tag,Notes
1,*MOT:,"yes, it is working .",co|yes pro|it v:cop|be&3S n:gerund|work-PROG .,v:cop|be&3s,aux|be&3S
6,*INV:,that means it's working .,rel|that v|mean-3S pro|it~aux|be&3S part|work-PROG .,rel|that,pro:dem|that
9,*MOT:,do you know what that is ?,mod|do pro|you v|know det:wh|what det|that v:cop|be&3S ?,det:wh|what ,pro:wh|what
9,*MOT:,do you know what that is ?,mod|do pro|you v|know det:wh|what det|that v:cop|be&3S ?,det|that,pro:dem|that
11,*MOT:,"a tape recorder, it's like a radio .",det|a n|tape n|record&dv-AGT pro|it~v:cop|be&3S rel|like det|a n|radio,n|tape n|record&dv-AGT,n|+n|tape+n|recorder
11,*MOT:,"a tape recorder, it's like a radio .",det|a n|tape n|record&dv-AGT pro|it~v:cop|be&3S rel|like det|a n|radio,rel|like,prep|like
12,*MOT:,"you can listen to things on it, like a radio .",pro|you mod|can v|listen prep|to n|thing-PL prep|on pro|it rel|like det|a n|radio .,rel|like,"?"
12,*MOT:,"you can listen to things on it, like a radio .",pro|you mod|can v|listen prep|to n|thing-PL prep|on pro|it rel|like det|a n|radio .,prep|to,adv|to
14,*INV:,"so, you know what else I brought besides +/.",conj|so pro|you v|know pro:wh|what post|else pro:sub|I v|bring&PAST prep|besides,prep|besides,post|besides
34,*MOT:,sit right down .,v|sit adv:loc|right adv:loc|down .,adv:loc|right,adv:int|right
45,*MOT:,is that a bunny ?,v:cop|be&3S rel|that det|a n|bunny ?,rel|that,pro:dem|that
47,*MOT:,what kind of a nose does that bunny have ?,pro:wh|what n|kind prep|of det|a n|nose n|doe-PL det|that n|bunny v|have,n|doe-PL,mod|do&3S
49,*MOT:,you look at this .,pro|you v|look prep|at det|this .,det|this ,pro:dem|this
53,*MOT:,"it looks just like that character in your book, is there an xxx in your kitchen ?",pro|it v|look-3S adv:int|just co|like det|that n|character prep|in pro:poss:det|your n|book v:cop|be&3S adv:loc|there det|a unk|xxx prep|in pro:poss:det|your n|kitchen ?,co|like,prep|like
53,*MOT:,"it looks just like that character in your book, is there an xxx in your kitchen ?",pro|it v|look-3S adv:int|just co|like det|that n|character prep|in pro:poss:det|your n|book v:cop|be&3S adv:loc|there det|a unk|xxx prep|in pro:poss:det|your n|kitchen ?,adv:loc|there,pro:exist
58,*MOT:,what kind of animal has such a big nose ?,pro:wh|what n|kind prep|of n|animal v|have&3S qn|such det|a adj|big n|nose,qn|such,adv:int|such
66,*MOT:,"come sit up, and let's look in here .",v|come v|sit adv:loc|up coord|and v|let~pro:obj|us v|look adv:loc|in adv:loc|here,adv:loc|in ,prep|in
78,*MOT:,let me look at this a little more closely .,v|let&ZERO pro:obj|me n|look prep|at det|this det|a adj|little adv|more adv|close&dadj-LY .,n|look,v|look
83,*MOT:,does that go up in the sky ?,n|doe-PL det|that v|go adv:loc|up prep|in det|the n|sky ?,n|doe-PL,mod|do&3S
88,*MOT:,"here, here, let's look at that, let's see .",adv:loc|here adv:loc|here v|let~pro:obj|us v|look prep|at det|that v|let~pro:obj|us v|see .,adv:loc|here,co|here
88,*MOT:,"here, here, let's look at that, let's see .",adv:loc|here adv:loc|here v|let~pro:obj|us v|look prep|at det|that v|let~pro:obj|us v|see .,det|that,pro:dem|that
93,*MOT:,what's happening to it ?,pro:wh|what~aux|be&3S part|happen-PROG prep|to pro|it ?,prep|to,adv|to
95,*MOT:,tell me what's happening to this .,v|tell pro:obj|me pro:wh|what~aux|be&3S part|happen-PROG prep|to det|this,det|this ,pro:dem|this
99,*MOT:,you're too sleepy to even think about a helicopter ?,pro|you~v:cop|be&PRES adv:int|too adj|sleepy prep|to adv:int|even v|think prep|about det|a n|helicopter ?,prep|to,inf|to
111,*MOT:,look .,co|look .,co|look ,v|look
114,*MOT:,all the things are for you to look at and play with .,qn|all det|the n|thing-PL v:cop|be&PRES prep|for pro|you inf|to v|look adv:loc|at coord|and n|play prep|with .,n|play,v|play
116,*MOT:,what is this ?,pro:wh|what v:cop|be&3S det|this ?,det|this ,pro:dem|this
116,*MOT:,what is this ?,pro:wh|what v:cop|be&3S det|this ?,det|this ,pro:dem|this
130,*MOT:,we'll put it aside until you want to see it .,pro:sub|we~mod|will v|put&ZERO pro|it adv|aside prep|until pro|you v|want inf|to v|see pro|it .,prep|until,conj:subor|until
116,*MOT:,what is this ?,pro:wh|what v:cop|be&3S det|this ?,det|this ,pro:dem|this
139,*MOT:,see that ?,v|see rel|that ?,rel|that,pro:dem|that
143,*MOT:,this is my favorite kind of little animal .,pro:dem|this v:cop|be&3S pro:poss:det|my n|favorite n|kind prep|of adj|little n|animal .,n|favorite,adj|favorite
147,*MOT:,"who, who else is a hedgehog ?",pro:wh|who rel|who post|else aux|be&3S det|a n|hedgehog ?,rel|who,pro:wh|who
150,*MOT:,is this Mrs Piggywinkle ?,v:cop|be&3S det|this n:prop|Mrs n:prop|Piggywinkle ?,det|this ,pro:dem|this
155,*MOT:,is this a boat ?,v:cop|be&3S det|this det|a n|boat ?,det|this ,pro:dem|this
116,*MOT:,what is this ?,pro:wh|what v:cop|be&3S det|this ?,det|this,pro:dem|this
158,*MOT:,look at this .,v|look prep|at det|this .,det|this,pro:dem|this
161,*MOT:,quack !,n|quack !,n|quack,on|quack
162,*CHI:,quack .,n|quack .,n|quack,on|quack
163,*MOT:,"there, I'll put all the animals together .",adv:loc|there pro:sub|I~mod|will v|put&ZERO qn|all det|the n|animal-PL adv|together .,adv:loc|there,co|there
116,*MOT:,what is this ?,pro:wh|what v:cop|be&3S det|this ?,det|this ,pro:dem|this
182,*INV:,"I think that one, the doors open .",pro:sub|I v|think rel|that pro:indef|one det|the n|door-PL adj|open .,rel|that,det|that
182,*INV:,"I think that one, the doors open .",pro:sub|I v|think rel|that pro:indef|one det|the n|door-PL adj|open .,adj|open,v|open
186,*MOT:,wait .,co|wait .,co|wait,v|wait
187,*MOT:,let's look at this next .,v|let~pro:obj|us v|look prep|at det|this adj|next .,det|this,pro:dem|this
187,*MOT:,let's look at this next .,v|let~pro:obj|us v|look prep|at det|this adj|next .,adj|next,adv:tem|next
188,*MOT:,let's look at this .,v|let~pro:obj|us v|look prep|at det|this .,det|this,pro:dem|this
191,*MOT:,"it's very sporty, and the doors open .",pro|it~v:cop|be&3S adv:int|very adj|sporty coord|and det|the n|door-PL adv|open .,adv|open,v|open
194,*CHI:,this . [+ V],det|this .,det|this,pro:dem|this
200,*MOT:,watch .,n|watch .,n|watch,v|watch
200,*MOT:,watch .,n|watch .,n|watch,v|watch
205,*MOT:,what else is in there ?,pro:wh|what post|else aux|be&3S adv:loc|in adv:loc|there ?,adv:loc|in,prep|in
209,*MOT:,what does that say ?,pro:wh|what mod|do&3S pro:dem|that co|say ?,co|say,v|say
215,*MOT:,"what does a, what does it say ?",pro:wh|what v|do&3S det|a det:wh|what mod|do&3S pro|it v|say ?,det:wh|what,pro:wh|what
218,*CHI:,"put it, this right here .",v|put&ZERO pro|it det|this adv|right adv:loc|here .,det|this,pro:dem|this
234,*MOT:,are they trucks ?,v:cop|be&PRES pro:sub|they v|truck-3S ?,v|truck-3S,n|truck-PL
238,*MOT:,I know that's a little hard to remember .,pro:sub|I v|know pro:dem|that~v:cop|be&3S det|a adj|little adj|hard inf|to v|remember .,adj|little,adv|little
9,*MOT:,do you know what that is ?,mod|do pro|you v|know det:wh|what det|that v:cop|be&3S ?,det|that,pro:dem|that
9,*MOT:,do you know what that is ?,mod|do pro|you v|know det:wh|what det|that v:cop|be&3S ?,det:wh|what ,pro:wh|what
262,*MOT:,"it's like a horse, but it has black and white stripes .",pro|it~v:cop|be&3S rel|like det|a n|horse conj|but pro|it aux|have&3S n|black coord|and adj|white n|stripe-PL .,aux|have&3S,v|have&3S
262,*MOT:,"it's like a horse, but it has black and white stripes .",pro|it~v:cop|be&3S rel|like det|a n|horse conj|but pro|it aux|have&3S n|black coord|and adj|white n|stripe-PL .,n|black,adj|black
269,*MOT:,what does that horse say ?,pro:wh|what n|doe-PL det|that n|horse v|say ?,n|doe-PL,mod|do&3S
273,*MOT:,this is what I like .,pro:dem|this v:cop|be&3S pro:wh|what pro:sub|I co|like .,co|like,v|like
284,*CHI:,hard .,adv|hard .,adv|hard,adj|hard
290,*MOT:,is that where you think the hook goes ?,v:cop|be&3S pro:dem|that rel|where pro|you v|think det|the n|hook v|go-3S ?,rel|where ,pro:wh|where
284,*CHI:,hard .,adv|hard .,adv|hard,adj|hard
299,*MOT:,I think it goes in here .,pro:sub|I v|think pro|it v|go-3S adv:loc|in adv:loc|here .,adv:loc|in ,prep|in
301,*CHI:,I'll help .,pro:sub|I~mod|will co|help .,co|help,v|help
303,*MOT:,maybe you can put it in there .,adv|maybe pro|you mod|can v|put&ZERO pro|it adv:loc|in adv:loc|there .,adv:loc|in,prep|in
313,*MOT:,which +/?,rel|which +/?,rel|which,det:wh|which
317,*MOT:,"see, we don't know that much about trucks, do we ?",v|see pro:sub|we mod|do~neg|not v|know rel|that qn|much prep|about n|truck-PL mod|do pro:sub|we ?,v|see,co|see
317,*MOT:,"see, we don't know that much about trucks, do we ?",v|see pro:sub|we mod|do~neg|not v|know rel|that qn|much prep|about n|truck-PL mod|do pro:sub|we ?,rel|that,adv|that
321,*MOT:,maybe that's backwards .,adv|maybe rel|that~poss|s adv:loc|backwards .,rel|that~poss|s,pro:dem|that~v:cop|be&3S
323,*MOT:,what would you like to hook up to that ?,pro:wh|what mod|will&COND pro|you v|like inf|to v|hook adv:loc|up prep|to det|that ?,det|that,pro:dem|that
332,*MOT:,and what does the duck say ?,coord|and pro:wh|what n|doe-PL det|the n|duck v|say ?,n|doe-PL,mod|do&3S
333,*CHI:,quack !,n|quack !,n|quack,on|quack
161,*MOT:,quack !,n|quack !,n|quack,on|quack
162,*CHI:,quack .,n|quack .,n|quack,on|quack
284,*CHI:,hard .,adv|hard .,adv|hard,adj|hard
350,*MOT:,what's the dog gonna say ?,pro:wh|what~aux|be&3S det|the n|dog part|go-PROG~inf|to co|say ?,co|say,v|say
361,*MOT:,is he sleepy ?,v:cop|be&3S pro:sub|he adj|sleepy ?,adj|sleepy,adj:n|sleepy
363,*MOT:,is he a tired dog ?,v:cop|be&3S pro:sub|he det|a part|tire-PERF n|dog ?,part|tire-PERF,adj:v|tired
390,*MOT:,"that's a special kind of a truck, that could rake the dirt .",pro:dem|that~v:cop|be&3S det|a n|special n|kind prep|of det|a v|truck pro:dem|that mod|could v|rake det|the n|dirt .,n|special,adj|special
390,*MOT:,"that's a special kind of a truck, that could rake the dirt .",pro:dem|that~v:cop|be&3S det|a n|special n|kind prep|of det|a v|truck pro:dem|that mod|could v|rake det|the n|dirt .,v|truck,n|truck
390,*MOT:,"that's a special kind of a truck, that could rake the dirt .",pro:dem|that~v:cop|be&3S det|a n|special n|kind prep|of det|a v|truck pro:dem|that mod|could v|rake det|the n|dirt .,pro:dem|that,rel|that
393,*MOT:,the truck has wheels ?,det|the n|truck aux|have&3S n|wheel-PL ?,aux|have&3S,v|have&3S
395,*MOT:,you know what it has ?,pro|you v|know pro:wh|what pro|it aux|have&3S ?,aux|have&3S ,v|have&3S
396,*MOT:,"it has these wheels underneath, but this is called a caterpillar .",pro|it aux|have&3S det|these n|wheel-PL adv|underneath conj|but det|this v:cop|be&3S part|call-PERF det|a n|caterpillar .,aux|have&3S,v|have&3S
396,*MOT:,"it has these wheels underneath, but this is called a caterpillar .",pro|it aux|have&3S det|these n|wheel-PL adv|underneath conj|but det|this v:cop|be&3S part|call-PERF det|a n|caterpillar ., adv|underneath,adv:loc|underneath
396,*MOT:,"it has these wheels underneath, but this is called a caterpillar .",pro|it aux|have&3S det|these n|wheel-PL adv|underneath conj|but det|this v:cop|be&3S part|call-PERF det|a n|caterpillar .,det|this,pro:dem|this
397,*MOT:,like your furry eyebrows .,prep|like pro:poss:det|your n|furry n|+n|eye+n|brow-PL .,n|furry ,adj|furry
398,*MOT:,it's a special kind of a wheel called a caterpillar .,pro|it~v:cop|be&3S det|a n|special n|kind prep|of det|a n|wheel v|call-PAST det|a n|caterpillar .,n|special,adj|special
398,*MOT:,it's a special kind of a wheel called a caterpillar .,pro|it~v:cop|be&3S det|a n|special n|kind prep|of det|a n|wheel v|call-PAST det|a n|caterpillar .,v|call-PAST,part|call-PERF
400,*CHI:,"he need, drive .",pro:sub|he v|need n|drive .,n|drive,v|drive
409,*MOT:,does he like the duck ?,n|doe-PL pro:sub|he co|like det|the n|duck ?,n|doe-PL,mod|do&3S
430,*MOT:,is that a jeep ?,v:cop|be&3S rel|that det|a n|jeep ?,rel|that,pro:dem|that
434,*MOT:,"here, you dropped that .",adv:loc|here pro|you v|drop-PAST rel|that .,adv:loc|here,co|here
434,*MOT:,"here, you dropped that .",adv:loc|here pro|you v|drop-PAST rel|that .,rel|that,pro:dem|that
437,*MOT:,you can put that where you want to .,pro|you mod|can v|put&ZERO pro:dem|that rel|where pro|you v|want prep|to,rel|where,pro:wh|where
439,*MOT:,does it open ?,mod|do&3S pro|it adj|open ?,adj|open,v|open
441,*MOT:,you can just slip it right in .,pro|you mod|can adj|just n|slip pro|it adv:loc|right adv:loc|in .,adj|just,adv|just
441,*MOT:,you can just slip it right in .,pro|you mod|can adj|just n|slip pro|it adv:loc|right adv:loc|in .,n|slip,v|slip
445,*MOT:,"okay, do you want it in here ?",co|okay v|do pro|you v|want pro|it adv:loc|in adv:loc|here ?,adv:loc|in,prep|in
452,*MOT:,it flipped right out .,pro|it v|flip-PAST adv:loc|right adv:loc|out .,adv:loc|right,adv:int|right
459,*INV:,which one is upside down ?,rel|which pro:indef|one v:cop|be&3S adv:loc|upside adv:loc|down ?,rel|which,det:wh|which
463,*MOT:,over where ?,adv:loc|over rel|where ?,rel|where,adv:wh|where
464,*CHI:,"woo, woo, right there .",v|woo v|woo adv|right adv:loc|there .,v|woo,int|woo
464,*CHI:,"woo, woo, right there .",v|woo v|woo adv|right adv:loc|there .,v|woo,int|woo
472,*MOT:,they're for you to play with .,pro:sub|they~v:cop|be&PRES prep|for pro|you prep|to n|play prep|with .,prep|to,inf|to
472,*MOT:,they're for you to play with .,pro:sub|they~v:cop|be&PRES prep|for pro|you prep|to n|play prep|with .,n|play,v|play
477,*MOT:,there's a few other toys for you to look at over here .,adv:loc|there~v:cop|be&3S det|a qn|few qn|other n|toy-PL prep|for pro|you inf|to v|look adv:loc|at adv:loc|over adv:loc|here . ,adv:loc|there,pro:exist
486,*CHI:,all together .,post|all adv|together .,post|all,adv|all
490,*MOT:,"oh, take that one .",co|oh v|take rel|that pro:indef|one .,rel|that,det|that
506,*MOT:,do you know what this part is ?,mod|do pro|you v|know det:wh|what det|this adj|part v:cop|be&3S ?,det:wh|what,pro:wh|what
506,*MOT:,do you know what this part is ?,mod|do pro|you v|know det:wh|what det|this adj|part v:cop|be&3S ?,adj|part,n|part
536,*MOT:,they're all here .,pro:sub|they~aux|be&PRES post|all adv:loc|here .,post|all ,qn|all
538,*MOT:,"they're soft, these little guys .",pro:sub|they~aux|be&PRES adv|soft det|these adj|little n|guy-PL .,adv|soft,adj|soft
541,*CHI:,stand .,n|stand .,n|stand,v|stand
542,*MOT:,you want the horse to stand ?,pro|you v|want det|the n|horse prep|to n|stand ?,prep|to,inf|to
542,*MOT:,you want the horse to stand ?,pro|you v|want det|the n|horse prep|to n|stand ?,n|stand ,v|stand
543,*MOT:,the rug is a little bumpy .,det|the n|rug v:cop|be&3S det|a adj|little adj|bumpy .,adj|little,adv|little
549,*MOT:,you gonna move them all over ?,pro|you part|go-PROG~inf|to v|move pro:obj|them adv:int|all adv:loc|over ?,adv:int|all,qn|all
556,*CHI:,"oh, oh, that car, goes in there .",co|oh co|oh rel|that n|car v|go-3S adv:loc|in adv:loc|there .,rel|that,det|that
560,*MOT:,what does the horse do in the truck ?,pro:wh|what n|doe-PL det|the n|horse v|do prep|in det|the n|truck ?,n|doe-PL,mod|do&3S
361,*MOT:,is he sleepy ?,v:cop|be&3S pro:sub|he adj|sleepy ?,adj|sleepy,adj:n|sleepy
598,*CHI:,look .,co|look .,co|look ,v|look
598,*CHI:,look .,co|look .,co|look ,v|look
603,*MOT:,show her that little hedgehog .,v|show pro:obj|her rel|that adj|little n|hedgehog .,rel|that,det|that
614,*CHI:,"yeah, crawl rocker .",co|yeah n|crawl n|rocker .,n|rocker,n|rock&dv-AGT
619,*MOT:,you wanna come read this with momma ?,pro|you v|want~inf|to v|come v|read&ZERO det|this prep|with n|momma ?,det|this,pro:dem|this
621,*MOT:,this book has something in it that you know and love .,det|this n|book aux|have&3S pro:indef|something prep|in pro|it adv:int|that pro|you v|know coord|and n|love .,aux|have&3S,v|have&3S
621,*MOT:,this book has something in it that you know and love .,det|this n|book aux|have&3S pro:indef|something prep|in pro|it adv:int|that pro|you v|know coord|and n|love .,adv:int|that ,rel|that
621,*MOT:,this book has something in it that you know and love .,det|this n|book aux|have&3S pro:indef|something prep|in pro|it adv:int|that pro|you v|know coord|and n|love .,n|love,v|love
630,*MOT:,this book has pictures of lots_of things .,det|this n|book aux|have&3S n|picture-PL prep|of n|lot-PL prep|of n|thing-PL, aux|have&3S,aux|have&3S
632,*CHI:,"and dat [: that], a &gi, giraffe .",coord|and rel|that det|a n|giraffe .,rel|that,pro:dem|that
633,*MOT:,is that a giraffe ?,v:cop|be&3S rel|that det|a n|giraffe ?,rel|that,pro:dem|that
636,*MOT:,you knew that .,pro|you v|know&PAST rel|that .,rel|that,pro:dem|that
638,*MOT:,"neigh, right ?",v|neigh adv|right ?,v|neigh,on|neigh
644,*MOT:,but there's lots_of things in here to look at .,conj|but adv:loc|there~v:cop|be&3S qn|lots prep|of n|thing-PL prep|in adv:loc|here inf|to v|look adv:loc|at .,qn|lots,n|lot-PL
650,*MOT:,"what, what are they called ?",pro:wh|what det:wh|what aux|be&PRES pro:sub|they v|call-PAST ?,det:wh|what,pro:wh|what
666,*MOT:,what color is that ?,pro:wh|what n|color v:cop|be&3S pro:dem|that ?,pro:wh|what,det:wh|what
667,*CHI:,"yeah, red .",co|yeah n|red .,n|red,adj|red
668,*MOT:,and what color is that ?,coord|and pro:wh|what n|color v:cop|be&3S pro:dem|that ?,pro:wh|what,det:wh|what
672,*MOT:,that looks like orange .,rel|that n|look-PL co|like adj|orange .,rel|that,pro:dem|that
672,*MOT:,that looks like orange .,rel|that n|look-PL co|like adj|orange .,n|look-PL,v|look-3S
672,*MOT:,that looks like orange .,rel|that n|look-PL co|like adj|orange ., co|like,prep|like
673,*MOT:,what color is this ?,pro:wh|what n|color v:cop|be&3S det|this ?,pro:wh|what,det:wh|what
673,*MOT:,what color is this ?,pro:wh|what n|color v:cop|be&3S det|this ?,det|this,pro:dem|this
676,*MOT:,"o:h, this is one of your favorite colors .",co|oh pro:dem|this v:cop|be&3S pro:indef|one prep|of pro:poss:det|your n|favorite n|color-PL .,n|favorite,adj|favorite
694,*MOT:,you wanna sing that song ?,pro|you v|want~inf|to v|sing rel|that n|song ?,rel|that,pro:dem|that
704,*MOT:,"here, this is a good book .",adv:loc|here pro:dem|this v:cop|be&3S det|a adj|good n|book .,adv:loc|here ,co|here
721,*INV:,she stepped on that .,pro:sub|she v|step-PAST adv|on det|that .,adv|on,prep|on
721,*INV:,she stepped on that .,pro:sub|she v|step-PAST adv|on det|that ., det|that,pro:dem|that
725,*MOT:,"I don't think he got hurt, I just think he got a little startled .",pro:sub|I mod|do~neg|not v|think pro:sub|he v|get&PAST adj|hurt pro:sub|I adv:int|just v|think pro:sub|he v|get&PAST det|a adj|little part|startle-PERF,adj|little,adv|little
726,*MOT:,I think he got a little scared .,pro:sub|I v|think pro:sub|he v|get&PAST det|a adj|little part|scare-PERF,adj|little,adv|little
733,*CHI:,Child have it .,n:prop|Child aux|have pro|it .,aux|have,v|have
736,*CHI:,xxx Child have it .,unk|xxx n:prop|Child aux|have pro|it .,aux|have,v|have
739,*MOT:,look through and see the other ones that you like .,v|look adj|through coord|and v|see det|the pro:indef|other det:num|one-PL  rel|that pro|you rel|like ,adj|through ,adv|through
739,*MOT:,look through and see the other ones that you like .,v|look adj|through coord|and v|see det|the pro:indef|other det:num|one-PL  rel|that pro|you rel|like ,pro:indef|other,qn|other
739,*MOT:,look through and see the other ones that you like .,v|look adj|through coord|and v|see det|the pro:indef|other det:num|one-PL  rel|that pro|you rel|like ,rel|like ,v|like
741,*MOT:,let's put this out of the way so you have some room .,v|let~pro:obj|us part|put&PERF det|this adv:loc|out prep|of det|the n|way conj|so pro|you v|have qn|some n|room .,det|this,pro:dem|this
767,*CHI:,"no, the man .",qn|no det|the n|man .,qn|no,co|no
773,*MOT:,does that dog have a name ?,mod|do&3S pro:dem|that v|dog v|have det|a n|name ?,pro:dem|that ,det|that
773,*MOT:,does that dog have a name ?,mod|do&3S pro:dem|that v|dog v|have det|a n|name ?,v|dog,n|dog
788,*CHI:,"and this, this is xxx .",coord|and det|this pro:dem|this v:cop|be&3S unk|xxx .,det|this,pro:dem|this
794,*MOT:,does that go back in ?,n|doe-PL det|that v|go adv:loc|back adv:loc|in ?,n|doe-PL,mod|do&3S
795,*MOT:,does that ladder go back in ?,n|doe-PL det|that n|ladder v|go adv:loc|back adv:loc|in ?,n|doe-PL,mod|do&3S
