"Line","Speaker","Utterance","Tags","Incorrect Tag","Correct Tag","Notes"
0,"*MOT:","how many tape players do you have ?","adv:wh|how qn|many n|tape n|play&dv-AGT-PL v|do pro|you v|have ?","n|tape n|play&dv-AGT-PL","n|+n|tape+n|player-PL",
3,"*MOT:","what other tape do you have ?","det:wh|what qn|other n|tape v|do pro|you v|have ?","det:wh|what","pro:wh|what",
3,"*MOT:","what other tape do you have ?","det:wh|what qn|other n|tape v|do pro|you v|have ?","qn|other","adj|other","In Brown, other is always tagged as qn so there is probably no error here. But I'm just still kind of iffy with viewing it as a qn."
7,"*MOT:","and the red tape .","coord|and det|the n|red n|tape .","n|red","adj|red",
13,"*MOT:","it's called Red_is_best .","pro|it~aux|be&3S part|call-PERF n:prop|Red_is_best .","part|call-PERF","v|call-PAST",
14,"*INV:","is that your favorite color or is pink your favorite color ?","v:cop|be&3S pro:dem|that pro:poss:det|your n|favorite n|color coord|or v:cop|be&3S adj|pink pro:poss:det|your n|favorite n|color ?","adj|pink","n|pink",
14,"*INV:","is that your favorite color or is pink your favorite color ?","v:cop|be&3S pro:dem|that pro:poss:det|your n|favorite n|color coord|or v:cop|be&3S adj|pink pro:poss:det|your n|favorite n|color ?","n|favorite","adj|favorite",
20,"*MOT:","what is it ?","pro:wh|what aux|be&3S pro|it ?","aux|be&3S","v:cop|be&3S",
24,"*MOT:","so for you yellow is best .","adv:int|so prep|for pro|you adj|yellow v:cop|be&3S adj|good&SP .","adv:int|so",,"Not sure what this should be tagged as. "
24,"*MOT:","so for you yellow is best .","adv:int|so prep|for pro|you adj|yellow v:cop|be&3S adj|good&SP .","adj|yellow","n|yellow",
26,"*MOT:","maybe next year we can move on to a yellow cake .","adv|maybe adj|next n|year pro:sub|we mod|can v|move prep|on prep|to det|a adj|yellow n|cake .","prep|on",,"Double check if this is something like adv:loc?"
30,"*MOT:","yeah like your sleep suit is yellow .","co|yeah rel|like pro:poss:det|your n|sleep n|suit v:cop|be&3S adj|yellow .","rel|like",,"Not sure"
30,"*MOT:","yeah like your sleep suit is yellow .","co|yeah rel|like pro:poss:det|your n|sleep n|suit v:cop|be&3S adj|yellow .","n|sleep n|suit","N|+v|sleep+n|suit[D[D[D[D[D[D[D[D[D[D[D[D[D[D[D[D[D[D[D[D[C[C[C[C[C[C[C[C[C[C[C[C[C[C[C[C[C[C[C[C[D[D[D[D[D[D[D[D[D[D[D[D[D[D[D[D[D[D[D[D[D[D[D[3~n",
31,"*CHI:","boom boom .","int|boom int|boom .","int|boom","on|boom",
31,"*CHI:","boom boom .","int|boom int|boom .","int|boom","on|boom",
32,"*MOT:","boom .","int|boom .","int|boom","on|boom",
33,"*MOT:","you went boom .","pro|you v|go&PAST int|boom .","int|boom","on|boom",
39,*CHI:,boom .,int|boom .,.,on|boom,
41,*CHI:,boom .,int|boom .,.,on|boom,
42,*MOT:,boom .,int|boom .,.,on|boom,
52,*INV:,you want to or do you want somebody else to ?,pro|you v|want prep|to coord|or mod|do pro|you v|want pro:indef|somebody post|else inf|to ?,coord|or,inf|to,
55,*CHI:,mommy .,adj|mom&dn-Y .,.,n|mommy,
56,*INV:,mommy .,adj|mom&dn-Y .,.,n|mommy,
79,*INV:,I don't think so .,pro:sub|I mod|do~neg|not v|think adv:int|so .,.,,Not sure
81,*INV:,do birds eat worms ?,v|do n|bird-PL v|eat n|worm-PL ?,n|bird-PL,mod|do,
88,*INV:,chomp .,n|chomp .,.,on|chomp,
94,*CHI:,green green .,v|green v|green .,v|green,adj|green,
94,*CHI:,green green .,v|green v|green .,.,adj|green,
97,*MOT:,let's see what else is inside .,v|let~pro:obj|us v|see pro:wh|what post|else aux|be&3S adv:loc|inside .,adv:loc|inside,v:cop|be&3S,
102,*INV:,get that out .,v|get det|that n|out .,n|out,pro:dem|that,
102,*INV:,get that out .,v|get det|that n|out .,.,adv:loc|out,
104,*MOT:,that's not a toy but there is a book .,pro:dem|that~v:cop|be&3S neg|not det|a n|toy conj|but adv:loc|there v:cop|be&3S det|a n|book .,v:cop|be&3S,pro:exist|there,
